testbench-FPGA/testbench.vcd
$date
	Wed Jun 14 15:56:56 2023
$end
$version
	Icarus Verilog
$end
$timescale
	1s
$end
$scope module testbench $end
$var wire 7 ! display5 [6:0] $end
$var wire 7 " display4 [6:0] $end
$var wire 7 # display3 [6:0] $end
$var wire 7 $ display2 [6:0] $end
$var wire 7 % display1 [6:0] $end
$var reg 1 & clk_tb $end
$var reg 1 ' rst_tb $end
$scope module main $end
$var wire 1 & clk $end
$var wire 1 ' rst $end
$var wire 32 ( writedataR [31:0] $end
$var wire 4 ) unidadereg [3:0] $end
$var wire 4 * unidadepc [3:0] $end
$var wire 3 + tipo [2:0] $end
$var wire 5 , rs2 [4:0] $end
$var wire 5 - rs1 [4:0] $end
$var wire 1 . regiwrite $end
$var wire 32 / reg9 [31:0] $end
$var wire 32 0 reg8 [31:0] $end
$var wire 32 1 reg7 [31:0] $end
$var wire 32 2 reg6 [31:0] $end
$var wire 32 3 reg5 [31:0] $end
$var wire 32 4 reg4 [31:0] $end
$var wire 32 5 reg31 [31:0] $end
$var wire 32 6 reg30 [31:0] $end
$var wire 32 7 reg3 [31:0] $end
$var wire 32 8 reg29 [31:0] $end
$var wire 32 9 reg28 [31:0] $end
$var wire 32 : reg27 [31:0] $end
$var wire 32 ; reg26 [31:0] $end
$var wire 32 < reg25 [31:0] $end
$var wire 32 = reg24 [31:0] $end
$var wire 32 > reg23 [31:0] $end
$var wire 32 ? reg22 [31:0] $end
$var wire 32 @ reg21 [31:0] $end
$var wire 32 A reg20 [31:0] $end
$var wire 32 B reg2 [31:0] $end
$var wire 32 C reg19 [31:0] $end
$var wire 32 D reg18 [31:0] $end
$var wire 32 E reg17 [31:0] $end
$var wire 32 F reg16 [31:0] $end
$var wire 32 G reg15 [31:0] $end
$var wire 32 H reg14 [31:0] $end
$var wire 32 I reg13 [31:0] $end
$var wire 32 J reg12 [31:0] $end
$var wire 32 K reg11 [31:0] $end
$var wire 32 L reg10 [31:0] $end
$var wire 32 M reg1 [31:0] $end
$var wire 32 N reg0 [31:0] $end
$var wire 32 O reddataM [31:0] $end
$var wire 32 P readdata2R [31:0] $end
$var wire 32 Q readdata1R [31:0] $end
$var wire 5 R rd [4:0] $end
$var wire 1 S pcsrc $end
$var wire 32 T pc [31:0] $end
$var wire 7 U opcode [6:0] $end
$var wire 1 V negativo $end
$var wire 1 W memwrite $end
$var wire 1 X memtoreg $end
$var wire 1 Y memread $end
$var wire 32 Z mem9 [31:0] $end
$var wire 32 [ mem8 [31:0] $end
$var wire 32 \ mem7 [31:0] $end
$var wire 32 ] mem6 [31:0] $end
$var wire 32 ^ mem5 [31:0] $end
$var wire 32 _ mem4 [31:0] $end
$var wire 32 ` mem31 [31:0] $end
$var wire 32 a mem30 [31:0] $end
$var wire 32 b mem3 [31:0] $end
$var wire 32 c mem29 [31:0] $end
$var wire 32 d mem28 [31:0] $end
$var wire 32 e mem27 [31:0] $end
$var wire 32 f mem26 [31:0] $end
$var wire 32 g mem25 [31:0] $end
$var wire 32 h mem24 [31:0] $end
$var wire 32 i mem23 [31:0] $end
$var wire 32 j mem22 [31:0] $end
$var wire 32 k mem21 [31:0] $end
$var wire 32 l mem20 [31:0] $end
$var wire 32 m mem2 [31:0] $end
$var wire 32 n mem19 [31:0] $end
$var wire 32 o mem18 [31:0] $end
$var wire 32 p mem17 [31:0] $end
$var wire 32 q mem16 [31:0] $end
$var wire 32 r mem15 [31:0] $end
$var wire 32 s mem14 [31:0] $end
$var wire 32 t mem13 [31:0] $end
$var wire 32 u mem12 [31:0] $end
$var wire 32 v mem11 [31:0] $end
$var wire 32 w mem10 [31:0] $end
$var wire 32 x mem1 [31:0] $end
$var wire 32 y mem0 [31:0] $end
$var wire 32 z instrucao [31:0] $end
$var wire 12 { immediate [11:0] $end
$var wire 7 | funct7 [6:0] $end
$var wire 3 } funct3 [2:0] $end
$var wire 7 ~ display5 [6:0] $end
$var wire 7 !" display4 [6:0] $end
$var wire 7 "" display3 [6:0] $end
$var wire 7 #" display2 [6:0] $end
$var wire 7 $" display1 [6:0] $end
$var wire 4 %" dezenareg [3:0] $end
$var wire 4 &" dezenapc [3:0] $end
$var wire 1 '" branch $end
$var wire 1 (" alusrc $end
$var wire 32 )" aluresult2 [31:0] $end
$var wire 1 *" aluresult1 $end
$var wire 4 +" alucontrol [3:0] $end
$var reg 4 ," estado [3:0] $end
$var reg 4 -" final [3:0] $end
$scope module alu $end
$var wire 1 & clk $end
$var wire 4 ." estado [3:0] $end
$var wire 1 S pcsrc $end
$var wire 32 /" readdata2R [31:0] $end
$var wire 32 0" readdata1R [31:0] $end
$var wire 1 V negativo $end
$var wire 12 1" immediate [11:0] $end
$var wire 1 '" branch $end
$var wire 1 (" alusrc $end
$var wire 4 2" alucontrol [3:0] $end
$var reg 1 *" aluresult1 $end
$var reg 32 3" aluresult2 [31:0] $end
$upscope $end
$scope module conversaodisplay $end
$var wire 4 4" unidadereg [3:0] $end
$var wire 4 5" unidadepc [3:0] $end
$var wire 32 6" register [31:0] $end
$var wire 32 7" pc [31:0] $end
$var wire 4 8" dezenareg [3:0] $end
$var wire 4 9" dezenapc [3:0] $end
$upscope $end
$scope module decodificacao $end
$var wire 1 & clk $end
$var wire 4 :" estado [3:0] $end
$var wire 32 ;" instrucao [31:0] $end
$var reg 3 <" funct3 [2:0] $end
$var reg 7 =" funct7 [6:0] $end
$var reg 12 >" immediate [11:0] $end
$var reg 1 V negativo $end
$var reg 7 ?" opcode [6:0] $end
$var reg 5 @" rd [4:0] $end
$var reg 5 A" rs1 [4:0] $end
$var reg 5 B" rs2 [4:0] $end
$var reg 3 C" tipo [2:0] $end
$upscope $end
$scope module display $end
$var wire 1 & clk $end
$var wire 4 D" estado [3:0] $end
$var wire 4 E" final [3:0] $end
$var wire 4 F" pc1 [3:0] $end
$var wire 4 G" pc2 [3:0] $end
$var wire 4 H" x5part1 [3:0] $end
$var wire 4 I" x5part2 [3:0] $end
$var reg 7 J" display1 [6:0] $end
$var reg 7 K" display2 [6:0] $end
$var reg 7 L" display3 [6:0] $end
$var reg 7 M" display4 [6:0] $end
$var reg 7 N" display5 [6:0] $end
$upscope $end
$scope module lerinstrucao $end
$var wire 1 & clk $end
$var wire 4 O" estado [3:0] $end
$var wire 1 ' rst $end
$var wire 32 P" pc [31:0] $end
$var reg 32 Q" instrucao [31:0] $end
$upscope $end
$scope module memoria $end
$var wire 32 R" aluresult2 [31:0] $end
$var wire 1 & clk $end
$var wire 4 S" estado [3:0] $end
$var wire 12 T" immediate [11:0] $end
$var wire 1 ' rst $end
$var wire 32 U" readdata2R [31:0] $end
$var wire 1 W memwrite $end
$var wire 1 Y memread $end
$var reg 32 V" mem0 [31:0] $end
$var reg 32 W" mem1 [31:0] $end
$var reg 32 X" mem10 [31:0] $end
$var reg 32 Y" mem11 [31:0] $end
$var reg 32 Z" mem12 [31:0] $end
$var reg 32 [" mem13 [31:0] $end
$var reg 32 \" mem14 [31:0] $end
$var reg 32 ]" mem15 [31:0] $end
$var reg 32 ^" mem16 [31:0] $end
$var reg 32 _" mem17 [31:0] $end
$var reg 32 `" mem18 [31:0] $end
$var reg 32 a" mem19 [31:0] $end
$var reg 32 b" mem2 [31:0] $end
$var reg 32 c" mem20 [31:0] $end
$var reg 32 d" mem21 [31:0] $end
$var reg 32 e" mem22 [31:0] $end
$var reg 32 f" mem23 [31:0] $end
$var reg 32 g" mem24 [31:0] $end
$var reg 32 h" mem25 [31:0] $end
$var reg 32 i" mem26 [31:0] $end
$var reg 32 j" mem27 [31:0] $end
$var reg 32 k" mem28 [31:0] $end
$var reg 32 l" mem29 [31:0] $end
$var reg 32 m" mem3 [31:0] $end
$var reg 32 n" mem30 [31:0] $end
$var reg 32 o" mem31 [31:0] $end
$var reg 32 p" mem4 [31:0] $end
$var reg 32 q" mem5 [31:0] $end
$var reg 32 r" mem6 [31:0] $end
$var reg 32 s" mem7 [31:0] $end
$var reg 32 t" mem8 [31:0] $end
$var reg 32 u" mem9 [31:0] $end
$var reg 32 v" reddataM [31:0] $end
$var reg 32 w" writedataR [31:0] $end
$upscope $end
$scope module registradores $end
$var wire 1 & clk $end
$var wire 4 x" estado [3:0] $end
$var wire 5 y" rd [4:0] $end
$var wire 32 z" readdata1R [31:0] $end
$var wire 32 {" readdata2R [31:0] $end
$var wire 32 |" reddataM [31:0] $end
$var wire 5 }" rs1 [4:0] $end
$var wire 5 ~" rs2 [4:0] $end
$var wire 1 ' rst $end
$var wire 32 !# writedataR [31:0] $end
$var wire 1 . regiwrite $end
$var wire 1 X memtoreg $end
$var reg 32 "# reg0 [31:0] $end
$var reg 32 ## reg1 [31:0] $end
$var reg 32 $# reg10 [31:0] $end
$var reg 32 %# reg11 [31:0] $end
$var reg 32 &# reg12 [31:0] $end
$var reg 32 '# reg13 [31:0] $end
$var reg 32 (# reg14 [31:0] $end
$var reg 32 )# reg15 [31:0] $end
$var reg 32 *# reg16 [31:0] $end
$var reg 32 +# reg17 [31:0] $end
$var reg 32 ,# reg18 [31:0] $end
$var reg 32 -# reg19 [31:0] $end
$var reg 32 .# reg2 [31:0] $end
$var reg 32 /# reg20 [31:0] $end
$var reg 32 0# reg21 [31:0] $end
$var reg 32 1# reg22 [31:0] $end
$var reg 32 2# reg23 [31:0] $end
$var reg 32 3# reg24 [31:0] $end
$var reg 32 4# reg25 [31:0] $end
$var reg 32 5# reg26 [31:0] $end
$var reg 32 6# reg27 [31:0] $end
$var reg 32 7# reg28 [31:0] $end
$var reg 32 8# reg29 [31:0] $end
$var reg 32 9# reg3 [31:0] $end
$var reg 32 :# reg30 [31:0] $end
$var reg 32 ;# reg31 [31:0] $end
$var reg 32 <# reg4 [31:0] $end
$var reg 32 =# reg5 [31:0] $end
$var reg 32 ># reg6 [31:0] $end
$var reg 32 ?# reg7 [31:0] $end
$var reg 32 @# reg8 [31:0] $end
$var reg 32 A# reg9 [31:0] $end
$upscope $end
$scope module sinaisdecontrole $end
$var wire 1 & clk $end
$var wire 4 B# estado [3:0] $end
$var wire 3 C# funct3 [2:0] $end
$var wire 7 D# funct7 [6:0] $end
$var wire 3 E# tipo [2:0] $end
$var reg 4 F# alucontrol [3:0] $end
$var reg 1 (" alusrc $end
$var reg 1 '" branch $end
$var reg 1 Y memread $end
$var reg 1 X memtoreg $end
$var reg 1 W memwrite $end
$var reg 1 . regiwrite $end
$upscope $end
$scope module somapc $end
$var wire 1 & clk $end
$var wire 4 G# estado [3:0] $end
$var wire 12 H# immediate [11:0] $end
$var wire 1 V negativo $end
$var wire 1 S pcsrc $end
$var wire 1 ' rst $end
$var reg 32 I# pc [31:0] $end
$upscope $end
$upscope $end
$upscope $end
$enddefinitions $end
#0
$dumpvars
bx I#
bx H#
bx G#
bx F#
bx E#
bx D#
bx C#
bx B#
bx A#
bx @#
bx ?#
bx >#
bx =#
bx <#
bx ;#
bx :#
bx 9#
bx 8#
bx 7#
bx 6#
bx 5#
bx 4#
bx 3#
bx 2#
bx 1#
bx 0#
bx /#
bx .#
bx -#
bx ,#
bx +#
bx *#
bx )#
bx (#
bx '#
bx &#
bx %#
bx $#
bx ##
bx "#
bx !#
bx ~"
bx }"
bx |"
bx {"
bx z"
bx y"
bx x"
bx w"
bx v"
bx u"
bx t"
bx s"
bx r"
bx q"
bx p"
bx o"
bx n"
bx m"
bx l"
bx k"
bx j"
bx i"
bx h"
bx g"
bx f"
bx e"
bx d"
bx c"
bx b"
bx a"
bx `"
bx _"
bx ^"
bx ]"
bx \"
bx ["
bx Z"
bx Y"
bx X"
bx W"
bx V"
bx U"
bx T"
bx S"
bx R"
bx Q"
bx P"
bx O"
bx N"
bx M"
bx L"
bx K"
bx J"
bx I"
bx H"
bx G"
bx F"
bx E"
bx D"
bx C"
bx B"
bx A"
bx @"
bx ?"
bx >"
bx ="
bx <"
bx ;"
bx :"
bx 9"
bx 8"
bx 7"
bx 6"
bx 5"
bx 4"
bx 3"
bx 2"
bx 1"
bx 0"
bx /"
bx ."
bx -"
bx ,"
bx +"
x*"
bx )"
x("
x'"
bx &"
bx %"
bx $"
bx #"
bx ""
bx !"
bx ~
bx }
bx |
bx {
bx z
bx y
bx x
bx w
bx v
bx u
bx t
bx s
bx r
bx q
bx p
bx o
bx n
bx m
bx l
bx k
bx j
bx i
bx h
bx g
bx f
bx e
bx d
bx c
bx b
bx a
bx `
bx _
bx ^
bx ]
bx \
bx [
bx Z
xY
xX
xW
xV
bx U
bx T
xS
bx R
bx Q
bx P
bx O
bx N
bx M
bx L
bx K
bx J
bx I
bx H
bx G
bx F
bx E
bx D
bx C
bx B
bx A
bx @
bx ?
bx >
bx =
bx <
bx ;
bx :
bx 9
bx 8
bx 7
bx 6
bx 5
bx 4
bx 3
bx 2
bx 1
bx 0
bx /
x.
bx -
bx ,
bx +
bx *
bx )
bx (
1'
0&
bx %
bx $
bx #
bx "
bx !
$end
#1
b0 *
b0 5"
b0 F"
b0 &"
b0 9"
b0 G"
b0 T
b0 7"
b0 P"
b0 I#
b0 ,"
b0 ."
b0 :"
b0 D"
b0 O"
b0 S"
b0 x"
b0 B#
b0 G#
b0 -"
b0 E"
1&
#2
0&
#3
b1 ,"
b1 ."
b1 :"
b1 D"
b1 O"
b1 S"
b1 x"
b1 B#
b1 G#
b1010000000000011 z
b1010000000000011 ;"
b1010000000000011 Q"
1&
#4
0&
#5
b0 +
b0 C"
b0 E#
0V
b0 {
b0 1"
b0 >"
b0 T"
b0 H#
b10 }
b10 <"
b10 C#
b0 Q
b0 0"
b0 z"
b1 -
b1 A"
b1 }"
b0 R
b0 @"
b0 y"
b10 ,"
b10 ."
b10 :"
b10 D"
b10 O"
b10 S"
b10 x"
b10 B#
b10 G#
1&
0'
#6
0&
#7
0S
b101 ,"
b101 ."
b101 :"
b101 D"
b101 O"
b101 S"
b101 x"
b101 B#
b101 G#
1("
1X
0'"
b10 +"
b10 2"
b10 F#
1&
#8
0&
#9
0*"
b0 )"
b0 3"
b0 R"
b1111 ,"
b1111 ."
b1111 :"
b1111 D"
b1111 O"
b1111 S"
b1111 x"
b1111 B#
b1111 G#
1&
#10
0&
#11
b11 ,"
b11 ."
b11 :"
b11 D"
b11 O"
b11 S"
b11 x"
b11 B#
b11 G#
1Y
0W
1.
1&
#12
0&
#13
b0 `
b0 o"
b0 a
b0 n"
b0 c
b0 l"
b0 d
b0 k"
b0 e
b0 j"
b0 f
b0 i"
b0 g
b0 h"
b0 h
b0 g"
b0 i
b0 f"
b0 j
b0 e"
b0 k
b0 d"
b0 l
b0 c"
b0 n
b0 a"
b0 o
b0 `"
b0 p
b0 _"
b0 q
b0 ^"
b0 r
b0 ]"
b0 s
b0 \"
b0 t
b0 ["
b0 u
b0 Z"
b0 v
b0 Y"
b0 w
b0 X"
b0 Z
b0 u"
b0 [
b0 t"
b0 \
b0 s"
b0 ]
b0 r"
b0 ^
b0 q"
b0 _
b0 p"
b0 b
b0 m"
b0 m
b0 b"
b0 x
b0 W"
b0 y
b0 V"
b0 (
b0 w"
b0 !#
b0 O
b0 v"
b0 |"
b100 ,"
b100 ."
b100 :"
b100 D"
b100 O"
b100 S"
b100 x"
b100 B#
b100 G#
1&
#14
0&
#15
b110 ,"
b110 ."
b110 :"
b110 D"
b110 O"
b110 S"
b110 x"
b110 B#
b110 G#
1&
#16
0&
#17
b0 )
b0 4"
b0 H"
b0 %"
b0 8"
b0 I"
b0 5
b0 ;#
b0 6
b0 :#
b0 8
b0 8#
b0 9
b0 7#
b0 :
b0 6#
b0 ;
b0 5#
b0 <
b0 4#
b0 =
b0 3#
b0 >
b0 2#
b0 ?
b0 1#
b0 @
b0 0#
b0 A
b0 /#
b0 C
b0 -#
b0 D
b0 ,#
b0 E
b0 +#
b0 F
b0 *#
b0 G
b0 )#
b0 H
b0 (#
b0 I
b0 '#
b0 J
b0 &#
b0 K
b0 %#
b0 L
b0 $#
b0 /
b0 A#
b0 0
b0 @#
b0 1
b0 ?#
b0 2
b0 >#
b0 3
b0 6"
b0 =#
b0 4
b0 <#
b0 7
b0 9#
b0 B
b0 .#
b0 M
b0 ##
b0 N
b0 "#
b111 ,"
b111 ."
b111 :"
b111 D"
b111 O"
b111 S"
b111 x"
b111 B#
b111 G#
1&
#18
0&
#19
b1100 ,"
b1100 ."
b1100 :"
b1100 D"
b1100 O"
b1100 S"
b1100 x"
b1100 B#
b1100 G#
1&
#20
0&
#21
b1000000 !
b1000000 ~
b1000000 N"
b1000000 "
b1000000 !"
b1000000 M"
b1000000 #
b1000000 ""
b1000000 L"
b1000000 $
b1000000 #"
b1000000 K"
b1000000 %
b1000000 $"
b1000000 J"
b1000 ,"
b1000 ."
b1000 :"
b1000 D"
b1000 O"
b1000 S"
b1000 x"
b1000 B#
b1000 G#
1&
#22
0&
#23
b1 *
b1 5"
b1 F"
b0 ,"
b0 ."
b0 :"
b0 D"
b0 O"
b0 S"
b0 x"
b0 B#
b0 G#
b1 T
b1 7"
b1 P"
b1 I#
1&
#24
0&
#25
b1000011010001000100011 z
b1000011010001000100011 ;"
b1000011010001000100011 Q"
b1 ,"
b1 ."
b1 :"
b1 D"
b1 O"
b1 S"
b1 x"
b1 B#
b1 G#
1&
#26
0&
#27
b10 ,"
b10 ."
b10 :"
b10 D"
b10 O"
b10 S"
b10 x"
b10 B#
b10 G#
b10 +
b10 C"
b10 E#
b0 P
b0 /"
b0 U"
b0 {"
b10 ,
b10 B"
b10 ~"
b11 -
b11 A"
b11 }"
b100 {
b100 1"
b100 >"
b100 T"
b100 H#
1&
#28
0&
#29
xY
xW
x.
b101 ,"
b101 ."
b101 :"
b101 D"
b101 O"
b101 S"
b101 x"
b101 B#
b101 G#
1&
#30
0&
#31
b1111 ,"
b1111 ."
b1111 :"
b1111 D"
b1111 O"
b1111 S"
b1111 x"
b1111 B#
b1111 G#
b1 )"
b1 3"
b1 R"
1&
#32
0&
#33
0Y
1W
0.
b11 ,"
b11 ."
b11 :"
b11 D"
b11 O"
b11 S"
b11 x"
b11 B#
b11 G#
1&
#34
0&
#35
b100 ,"
b100 ."
b100 :"
b100 D"
b100 O"
b100 S"
b100 x"
b100 B#
b100 G#
b1 (
b1 w"
b1 !#
1&
#36
0&
#37
b110 ,"
b110 ."
b110 :"
b110 D"
b110 O"
b110 S"
b110 x"
b110 B#
b110 G#
1&
#38
0&
#39
b111 ,"
b111 ."
b111 :"
b111 D"
b111 O"
b111 S"
b111 x"
b111 B#
b111 G#
1&
#40
0&
#41
b1100 ,"
b1100 ."
b1100 :"
b1100 D"
b1100 O"
b1100 S"
b1100 x"
b1100 B#
b1100 G#
1&
#42
0&
#43
b1000 ,"
b1000 ."
b1000 :"
b1000 D"
b1000 O"
b1000 S"
b1000 x"
b1000 B#
b1000 G#
b1111001 %
b1111001 $"
b1111001 J"
1&
#44
0&
#45
b10 *
b10 5"
b10 F"
b10 T
b10 7"
b10 P"
b10 I#
b0 ,"
b0 ."
b0 :"
b0 D"
b0 O"
b0 S"
b0 x"
b0 B#
b0 G#
1&
#46
0&
#47
b1 ,"
b1 ."
b1 :"
b1 D"
b1 O"
b1 S"
b1 x"
b1 B#
b1 G#
b1000000010100101000001010110011 z
b1000000010100101000001010110011 ;"
b1000000010100101000001010110011 Q"
1&
#48
0&
#49
b11 +
b11 C"
b11 E#
b0 }
b0 <"
b0 C#
b101 R
b101 @"
b101 y"
b101 -
b101 A"
b101 }"
b101 ,
b101 B"
b101 ~"
b100000 |
b100000 ="
b100000 D#
b10 ,"
b10 ."
b10 :"
b10 D"
b10 O"
b10 S"
b10 x"
b10 B#
b10 G#
1&
#50
0&
#51
b101 ,"
b101 ."
b101 :"
b101 D"
b101 O"
b101 S"
b101 x"
b101 B#
b101 G#
0("
0X
b110 +"
b110 2"
b110 F#
xY
xW
x.
1&
#52
0&
#53
b0 )"
b0 3"
b0 R"
b1111 ,"
b1111 ."
b1111 :"
b1111 D"
b1111 O"
b1111 S"
b1111 x"
b1111 B#
b1111 G#
1&
#54
0&
#55
b11 ,"
b11 ."
b11 :"
b11 D"
b11 O"
b11 S"
b11 x"
b11 B#
b11 G#
0Y
0W
1.
1&
#56
0&
#57
b0 (
b0 w"
b0 !#
b100 ,"
b100 ."
b100 :"
b100 D"
b100 O"
b100 S"
b100 x"
b100 B#
b100 G#
1&
#58
0&
#59
b110 ,"
b110 ."
b110 :"
b110 D"
b110 O"
b110 S"
b110 x"
b110 B#
b110 G#
1&
#60
0&
#61
b111 ,"
b111 ."
b111 :"
b111 D"
b111 O"
b111 S"
b111 x"
b111 B#
b111 G#
1&
#62
0&
#63
b1100 ,"
b1100 ."
b1100 :"
b1100 D"
b1100 O"
b1100 S"
b1100 x"
b1100 B#
b1100 G#
1&
#64
0&
#65
b100100 %
b100100 $"
b100100 J"
b1000 ,"
b1000 ."
b1000 :"
b1000 D"
b1000 O"
b1000 S"
b1000 x"
b1000 B#
b1000 G#
1&
#66
0&
#67
b11 *
b11 5"
b11 F"
b0 ,"
b0 ."
b0 :"
b0 D"
b0 O"
b0 S"
b0 x"
b0 B#
b0 G#
b11 T
b11 7"
b11 P"
b11 I#
1&
#68
0&
#69
b11000110100001100110011 z
b11000110100001100110011 ;"
b11000110100001100110011 Q"
b1 ,"
b1 ."
b1 :"
b1 D"
b1 O"
b1 S"
b1 x"
b1 B#
b1 G#
1&
#70
0&
#71
b10 ,"
b10 ."
b10 :"
b10 D"
b10 O"
b10 S"
b10 x"
b10 B#
b10 G#
b100 }
b100 <"
b100 C#
b110 R
b110 @"
b110 y"
b110 -
b110 A"
b110 }"
b110 ,
b110 B"
b110 ~"
b0 |
b0 ="
b0 D#
1&
#72
0&
#73
b100 +"
b100 2"
b100 F#
xY
xW
x.
b101 ,"
b101 ."
b101 :"
b101 D"
b101 O"
b101 S"
b101 x"
b101 B#
b101 G#
1&
#74
0&
#75
b1111 ,"
b1111 ."
b1111 :"
b1111 D"
b1111 O"
b1111 S"
b1111 x"
b1111 B#
b1111 G#
1&
#76
0&
#77
0Y
0W
1.
b11 ,"
b11 ."
b11 :"
b11 D"
b11 O"
b11 S"
b11 x"
b11 B#
b11 G#
1&
#78
0&
#79
b100 ,"
b100 ."
b100 :"
b100 D"
b100 O"
b100 S"
b100 x"
b100 B#
b100 G#
1&
#80
0&
#81
b110 ,"
b110 ."
b110 :"
b110 D"
b110 O"
b110 S"
b110 x"
b110 B#
b110 G#
1&
#82
0&
#83
b111 ,"
b111 ."
b111 :"
b111 D"
b111 O"
b111 S"
b111 x"
b111 B#
b111 G#
1&
#84
0&
#85
b1100 ,"
b1100 ."
b1100 :"
b1100 D"
b1100 O"
b1100 S"
b1100 x"
b1100 B#
b1100 G#
1&
#86
0&
#87
b1000 ,"
b1000 ."
b1000 :"
b1000 D"
b1000 O"
b1000 S"
b1000 x"
b1000 B#
b1000 G#
b110000 %
b110000 $"
b110000 J"
1&
#88
0&
#89
b100 *
b100 5"
b100 F"
b100 T
b100 7"
b100 P"
b100 I#
b0 ,"
b0 ."
b0 :"
b0 D"
b0 O"
b0 S"
b0 x"
b0 B#
b0 G#
1&
#90
0&
#91
b1 ,"
b1 ."
b1 :"
b1 D"
b1 O"
b1 S"
b1 x"
b1 B#
b1 G#
b101000101000001010010011 z
b101000101000001010010011 ;"
b101000101000001010010011 Q"
1&
#92
0&
#93
b1 +
b1 C"
b1 E#
b1010 {
b1010 1"
b1010 >"
b1010 T"
b1010 H#
b0 }
b0 <"
b0 C#
b101 -
b101 A"
b101 }"
b101 R
b101 @"
b101 y"
b10 ,"
b10 ."
b10 :"
b10 D"
b10 O"
b10 S"
b10 x"
b10 B#
b10 G#
1&
#94
0&
#95
b101 ,"
b101 ."
b101 :"
b101 D"
b101 O"
b101 S"
b101 x"
b101 B#
b101 G#
1("
b11 +"
b11 2"
b11 F#
xY
xW
x.
1&
#96
0&
#97
b1010 )"
b1010 3"
b1010 R"
b1111 ,"
b1111 ."
b1111 :"
b1111 D"
b1111 O"
b1111 S"
b1111 x"
b1111 B#
b1111 G#
1&
#98
0&
#99
b11 ,"
b11 ."
b11 :"
b11 D"
b11 O"
b11 S"
b11 x"
b11 B#
b11 G#
0Y
0W
1.
1&
#100
0&
#101
b1010 (
b1010 w"
b1010 !#
b100 ,"
b100 ."
b100 :"
b100 D"
b100 O"
b100 S"
b100 x"
b100 B#
b100 G#
1&
#102
0&
#103
b110 ,"
b110 ."
b110 :"
b110 D"
b110 O"
b110 S"
b110 x"
b110 B#
b110 G#
1&
#104
0&
#105
b1010 Q
b1010 0"
b1010 z"
b111 ,"
b111 ."
b111 :"
b111 D"
b111 O"
b111 S"
b111 x"
b111 B#
b111 G#
1&
#106
0&
#107
b1 %"
b1 8"
b1 I"
b1100 ,"
b1100 ."
b1100 :"
b1100 D"
b1100 O"
b1100 S"
b1100 x"
b1100 B#
b1100 G#
b1010 3
b1010 6"
b1010 =#
1&
#108
0&
#109
b1111001 "
b1111001 !"
b1111001 M"
b11001 %
b11001 $"
b11001 J"
b1000 ,"
b1000 ."
b1000 :"
b1000 D"
b1000 O"
b1000 S"
b1000 x"
b1000 B#
b1000 G#
1&
#110
0&
#111
b101 *
b101 5"
b101 F"
b0 ,"
b0 ."
b0 :"
b0 D"
b0 O"
b0 S"
b0 x"
b0 B#
b0 G#
b101 T
b101 7"
b101 P"
b101 I#
1&
#112
0&
#113
b10101000101010000110011 z
b10101000101010000110011 ;"
b10101000101010000110011 Q"
b1 ,"
b1 ."
b1 :"
b1 D"
b1 O"
b1 S"
b1 x"
b1 B#
b1 G#
1&
#114
0&
#115
b10 ,"
b10 ."
b10 :"
b10 D"
b10 O"
b10 S"
b10 x"
b10 B#
b10 G#
b11 +
b11 C"
b11 E#
b101 }
b101 <"
b101 C#
b1000 R
b1000 @"
b1000 y"
b0 Q
b0 0"
b0 z"
b1000 -
b1000 A"
b1000 }"
b1010 P
b1010 /"
b1010 U"
b1010 {"
b101 ,
b101 B"
b101 ~"
1&
#116
0&
#117
0("
b101 +"
b101 2"
b101 F#
xY
xW
x.
b101 ,"
b101 ."
b101 :"
b101 D"
b101 O"
b101 S"
b101 x"
b101 B#
b101 G#
1&
#118
0&
#119
b1111 ,"
b1111 ."
b1111 :"
b1111 D"
b1111 O"
b1111 S"
b1111 x"
b1111 B#
b1111 G#
b0 )"
b0 3"
b0 R"
1&
#120
0&
#121
0Y
0W
1.
b11 ,"
b11 ."
b11 :"
b11 D"
b11 O"
b11 S"
b11 x"
b11 B#
b11 G#
1&
#122
0&
#123
b100 ,"
b100 ."
b100 :"
b100 D"
b100 O"
b100 S"
b100 x"
b100 B#
b100 G#
b0 (
b0 w"
b0 !#
1&
#124
0&
#125
b110 ,"
b110 ."
b110 :"
b110 D"
b110 O"
b110 S"
b110 x"
b110 B#
b110 G#
1&
#126
0&
#127
b111 ,"
b111 ."
b111 :"
b111 D"
b111 O"
b111 S"
b111 x"
b111 B#
b111 G#
1&
#128
0&
#129
b1100 ,"
b1100 ."
b1100 :"
b1100 D"
b1100 O"
b1100 S"
b1100 x"
b1100 B#
b1100 G#
1&
#130
0&
#131
b1000 ,"
b1000 ."
b1000 :"
b1000 D"
b1000 O"
b1000 S"
b1000 x"
b1000 B#
b1000 G#
b10010 %
b10010 $"
b10010 J"
1&
#132
0&
#133
b110 *
b110 5"
b110 F"
b110 T
b110 7"
b110 P"
b110 I#
b0 ,"
b0 ."
b0 :"
b0 D"
b0 O"
b0 S"
b0 x"
b0 B#
b0 G#
1&
#134
0&
#135
b1 ,"
b1 ."
b1 :"
b1 D"
b1 O"
b1 S"
b1 x"
b1 B#
b1 G#
b10001100011 z
b10001100011 ;"
b10001100011 Q"
1&
#136
0&
#137
b110 +
b110 C"
b110 E#
b0 }
b0 <"
b0 C#
b0 P
b0 /"
b0 U"
b0 {"
b0 ,
b0 B"
b0 ~"
b0 -
b0 A"
b0 }"
b1000 {
b1000 1"
b1000 >"
b1000 T"
b1000 H#
b10 ,"
b10 ."
b10 :"
b10 D"
b10 O"
b10 S"
b10 x"
b10 B#
b10 G#
1&
#138
0&
#139
b101 ,"
b101 ."
b101 :"
b101 D"
b101 O"
b101 S"
b101 x"
b101 B#
b101 G#
1("
1'"
b110 +"
b110 2"
b110 F#
xY
xW
x.
1&
#140
0&
#141
1S
1*"
b1111 ,"
b1111 ."
b1111 :"
b1111 D"
b1111 O"
b1111 S"
b1111 x"
b1111 B#
b1111 G#
1&
#142
0&
#143
b11 ,"
b11 ."
b11 :"
b11 D"
b11 O"
b11 S"
b11 x"
b11 B#
b11 G#
0Y
0W
0.
1&
#144
0&
#145
b100 ,"
b100 ."
b100 :"
b100 D"
b100 O"
b100 S"
b100 x"
b100 B#
b100 G#
1&
#146
0&
#147
b110 ,"
b110 ."
b110 :"
b110 D"
b110 O"
b110 S"
b110 x"
b110 B#
b110 G#
1&
#148
0&
#149
b111 ,"
b111 ."
b111 :"
b111 D"
b111 O"
b111 S"
b111 x"
b111 B#
b111 G#
1&
#150
0&
#151
b1100 ,"
b1100 ."
b1100 :"
b1100 D"
b1100 O"
b1100 S"
b1100 x"
b1100 B#
b1100 G#
1&
#152
0&
#153
b10 %
b10 $"
b10 J"
b1000 ,"
b1000 ."
b1000 :"
b1000 D"
b1000 O"
b1000 S"
b1000 x"
b1000 B#
b1000 G#
1&
#154
0&
#155
b1000 *
b1000 5"
b1000 F"
b0 ,"
b0 ."
b0 :"
b0 D"
b0 O"
b0 S"
b0 x"
b0 B#
b0 G#
b1000 T
b1000 7"
b1000 P"
b1000 I#
1&
#156
0&
#157
b10011000101000001010010011 z
b10011000101000001010010011 ;"
b10011000101000001010010011 Q"
b1 ,"
b1 ."
b1 :"
b1 D"
b1 O"
b1 S"
b1 x"
b1 B#
b1 G#
1&
#158
0&
