testbench-FPGA/testbench.vcd
$date
	Thu Jun 15 20:02:38 2023
$end
$version
	Icarus Verilog
$end
$timescale
	1s
$end
$scope module testbench $end
$var wire 7 ! display5 [6:0] $end
$var wire 7 " display4 [6:0] $end
$var wire 7 # display3 [6:0] $end
$var wire 7 $ display2 [6:0] $end
$var wire 7 % display1 [6:0] $end
$var reg 1 & clk_tb $end
$var reg 1 ' rst_tb $end
$scope module main $end
$var wire 1 & clk $end
$var wire 1 ' rst $end
$var wire 32 ( writedataR [31:0] $end
$var wire 4 ) unidadereg [3:0] $end
$var wire 4 * unidadepc [3:0] $end
$var wire 3 + tipo [2:0] $end
$var wire 5 , rs2 [4:0] $end
$var wire 5 - rs1 [4:0] $end
$var wire 1 . regiwrite $end
$var wire 32 / reg9 [31:0] $end
$var wire 32 0 reg8 [31:0] $end
$var wire 32 1 reg7 [31:0] $end
$var wire 32 2 reg6 [31:0] $end
$var wire 32 3 reg5 [31:0] $end
$var wire 32 4 reg4 [31:0] $end
$var wire 32 5 reg31 [31:0] $end
$var wire 32 6 reg30 [31:0] $end
$var wire 32 7 reg3 [31:0] $end
$var wire 32 8 reg29 [31:0] $end
$var wire 32 9 reg28 [31:0] $end
$var wire 32 : reg27 [31:0] $end
$var wire 32 ; reg26 [31:0] $end
$var wire 32 < reg25 [31:0] $end
$var wire 32 = reg24 [31:0] $end
$var wire 32 > reg23 [31:0] $end
$var wire 32 ? reg22 [31:0] $end
$var wire 32 @ reg21 [31:0] $end
$var wire 32 A reg20 [31:0] $end
$var wire 32 B reg2 [31:0] $end
$var wire 32 C reg19 [31:0] $end
$var wire 32 D reg18 [31:0] $end
$var wire 32 E reg17 [31:0] $end
$var wire 32 F reg16 [31:0] $end
$var wire 32 G reg15 [31:0] $end
$var wire 32 H reg14 [31:0] $end
$var wire 32 I reg13 [31:0] $end
$var wire 32 J reg12 [31:0] $end
$var wire 32 K reg11 [31:0] $end
$var wire 32 L reg10 [31:0] $end
$var wire 32 M reg1 [31:0] $end
$var wire 32 N reg0 [31:0] $end
$var wire 32 O reddataM [31:0] $end
$var wire 32 P readdata2R [31:0] $end
$var wire 32 Q readdata1R [31:0] $end
$var wire 5 R rd [4:0] $end
$var wire 1 S pcsrc $end
$var wire 32 T pc [31:0] $end
$var wire 7 U opcode [6:0] $end
$var wire 1 V negativo $end
$var wire 1 W memwrite $end
$var wire 1 X memtoreg $end
$var wire 1 Y memread $end
$var wire 32 Z mem9 [31:0] $end
$var wire 32 [ mem8 [31:0] $end
$var wire 32 \ mem7 [31:0] $end
$var wire 32 ] mem6 [31:0] $end
$var wire 32 ^ mem5 [31:0] $end
$var wire 32 _ mem4 [31:0] $end
$var wire 32 ` mem31 [31:0] $end
$var wire 32 a mem30 [31:0] $end
$var wire 32 b mem3 [31:0] $end
$var wire 32 c mem29 [31:0] $end
$var wire 32 d mem28 [31:0] $end
$var wire 32 e mem27 [31:0] $end
$var wire 32 f mem26 [31:0] $end
$var wire 32 g mem25 [31:0] $end
$var wire 32 h mem24 [31:0] $end
$var wire 32 i mem23 [31:0] $end
$var wire 32 j mem22 [31:0] $end
$var wire 32 k mem21 [31:0] $end
$var wire 32 l mem20 [31:0] $end
$var wire 32 m mem2 [31:0] $end
$var wire 32 n mem19 [31:0] $end
$var wire 32 o mem18 [31:0] $end
$var wire 32 p mem17 [31:0] $end
$var wire 32 q mem16 [31:0] $end
$var wire 32 r mem15 [31:0] $end
$var wire 32 s mem14 [31:0] $end
$var wire 32 t mem13 [31:0] $end
$var wire 32 u mem12 [31:0] $end
$var wire 32 v mem11 [31:0] $end
$var wire 32 w mem10 [31:0] $end
$var wire 32 x mem1 [31:0] $end
$var wire 32 y mem0 [31:0] $end
$var wire 32 z instrucao [31:0] $end
$var wire 12 { immediate [11:0] $end
$var wire 7 | funct7 [6:0] $end
$var wire 3 } funct3 [2:0] $end
$var wire 7 ~ display5 [6:0] $end
$var wire 7 !" display4 [6:0] $end
$var wire 7 "" display3 [6:0] $end
$var wire 7 #" display2 [6:0] $end
$var wire 7 $" display1 [6:0] $end
$var wire 4 %" dezenareg [3:0] $end
$var wire 4 &" dezenapc [3:0] $end
$var wire 1 '" branch $end
$var wire 1 (" alusrc $end
$var wire 32 )" aluresult2 [31:0] $end
$var wire 1 *" aluresult1 $end
$var wire 4 +" alucontrol [3:0] $end
$var parameter 4 ," AUX1 $end
$var parameter 4 -" AUX2 $end
$var parameter 4 ." AUX3 $end
$var parameter 4 /" AUX4 $end
$var parameter 4 0" AUX5 $end
$var parameter 4 1" EX $end
$var parameter 4 2" FIM $end
$var parameter 4 3" ID $end
$var parameter 4 4" IF $end
$var parameter 4 5" MEM $end
$var parameter 4 6" SUMPC $end
$var parameter 4 7" WB $end
$var reg 4 8" estado [3:0] $end
$var reg 4 9" final [3:0] $end
$scope module alu $end
$var wire 1 & clk $end
$var wire 4 :" estado [3:0] $end
$var wire 1 S pcsrc $end
$var wire 32 ;" readdata2R [31:0] $end
$var wire 32 <" readdata1R [31:0] $end
$var wire 1 V negativo $end
$var wire 12 =" immediate [11:0] $end
$var wire 1 '" branch $end
$var wire 1 (" alusrc $end
$var wire 4 >" alucontrol [3:0] $end
$var reg 1 *" aluresult1 $end
$var reg 32 ?" aluresult2 [31:0] $end
$upscope $end
$scope module conversaodisplay $end
$var wire 4 @" unidadereg [3:0] $end
$var wire 4 A" unidadepc [3:0] $end
$var wire 32 B" register [31:0] $end
$var wire 32 C" pc [31:0] $end
$var wire 4 D" dezenareg [3:0] $end
$var wire 4 E" dezenapc [3:0] $end
$upscope $end
$scope module decodificacao $end
$var wire 1 & clk $end
$var wire 4 F" estado [3:0] $end
$var wire 32 G" instrucao [31:0] $end
$var reg 3 H" funct3 [2:0] $end
$var reg 7 I" funct7 [6:0] $end
$var reg 12 J" immediate [11:0] $end
$var reg 1 V negativo $end
$var reg 7 K" opcode [6:0] $end
$var reg 5 L" rd [4:0] $end
$var reg 5 M" rs1 [4:0] $end
$var reg 5 N" rs2 [4:0] $end
$var reg 3 O" tipo [2:0] $end
$upscope $end
$scope module display $end
$var wire 1 & clk $end
$var wire 4 P" estado [3:0] $end
$var wire 4 Q" final [3:0] $end
$var wire 4 R" pc1 [3:0] $end
$var wire 4 S" pc2 [3:0] $end
$var wire 4 T" x5part1 [3:0] $end
$var wire 4 U" x5part2 [3:0] $end
$var reg 7 V" display1 [6:0] $end
$var reg 7 W" display2 [6:0] $end
$var reg 7 X" display3 [6:0] $end
$var reg 7 Y" display4 [6:0] $end
$var reg 7 Z" display5 [6:0] $end
$upscope $end
$scope module lerinstrucao $end
$var wire 1 & clk $end
$var wire 4 [" estado [3:0] $end
$var wire 1 ' rst $end
$var wire 32 \" pc [31:0] $end
$var reg 32 ]" instrucao [31:0] $end
$upscope $end
$scope module memoria $end
$var wire 32 ^" aluresult2 [31:0] $end
$var wire 1 & clk $end
$var wire 4 _" estado [3:0] $end
$var wire 12 `" immediate [11:0] $end
$var wire 1 ' rst $end
$var wire 32 a" readdata2R [31:0] $end
$var wire 1 W memwrite $end
$var wire 1 Y memread $end
$var reg 32 b" mem0 [31:0] $end
$var reg 32 c" mem1 [31:0] $end
$var reg 32 d" mem10 [31:0] $end
$var reg 32 e" mem11 [31:0] $end
$var reg 32 f" mem12 [31:0] $end
$var reg 32 g" mem13 [31:0] $end
$var reg 32 h" mem14 [31:0] $end
$var reg 32 i" mem15 [31:0] $end
$var reg 32 j" mem16 [31:0] $end
$var reg 32 k" mem17 [31:0] $end
$var reg 32 l" mem18 [31:0] $end
$var reg 32 m" mem19 [31:0] $end
$var reg 32 n" mem2 [31:0] $end
$var reg 32 o" mem20 [31:0] $end
$var reg 32 p" mem21 [31:0] $end
$var reg 32 q" mem22 [31:0] $end
$var reg 32 r" mem23 [31:0] $end
$var reg 32 s" mem24 [31:0] $end
$var reg 32 t" mem25 [31:0] $end
$var reg 32 u" mem26 [31:0] $end
$var reg 32 v" mem27 [31:0] $end
$var reg 32 w" mem28 [31:0] $end
$var reg 32 x" mem29 [31:0] $end
$var reg 32 y" mem3 [31:0] $end
$var reg 32 z" mem30 [31:0] $end
$var reg 32 {" mem31 [31:0] $end
$var reg 32 |" mem4 [31:0] $end
$var reg 32 }" mem5 [31:0] $end
$var reg 32 ~" mem6 [31:0] $end
$var reg 32 !# mem7 [31:0] $end
$var reg 32 "# mem8 [31:0] $end
$var reg 32 ## mem9 [31:0] $end
$var reg 32 $# reddataM [31:0] $end
$var reg 32 %# writedataR [31:0] $end
$upscope $end
$scope module registradores $end
$var wire 1 & clk $end
$var wire 4 &# estado [3:0] $end
$var wire 5 '# rd [4:0] $end
$var wire 32 (# readdata1R [31:0] $end
$var wire 32 )# readdata2R [31:0] $end
$var wire 32 *# reddataM [31:0] $end
$var wire 5 +# rs1 [4:0] $end
$var wire 5 ,# rs2 [4:0] $end
$var wire 1 ' rst $end
$var wire 32 -# writedataR [31:0] $end
$var wire 1 . regiwrite $end
$var wire 1 X memtoreg $end
$var reg 32 .# reg0 [31:0] $end
$var reg 32 /# reg1 [31:0] $end
$var reg 32 0# reg10 [31:0] $end
$var reg 32 1# reg11 [31:0] $end
$var reg 32 2# reg12 [31:0] $end
$var reg 32 3# reg13 [31:0] $end
$var reg 32 4# reg14 [31:0] $end
$var reg 32 5# reg15 [31:0] $end
$var reg 32 6# reg16 [31:0] $end
$var reg 32 7# reg17 [31:0] $end
$var reg 32 8# reg18 [31:0] $end
$var reg 32 9# reg19 [31:0] $end
$var reg 32 :# reg2 [31:0] $end
$var reg 32 ;# reg20 [31:0] $end
$var reg 32 <# reg21 [31:0] $end
$var reg 32 =# reg22 [31:0] $end
$var reg 32 ># reg23 [31:0] $end
$var reg 32 ?# reg24 [31:0] $end
$var reg 32 @# reg25 [31:0] $end
$var reg 32 A# reg26 [31:0] $end
$var reg 32 B# reg27 [31:0] $end
$var reg 32 C# reg28 [31:0] $end
$var reg 32 D# reg29 [31:0] $end
$var reg 32 E# reg3 [31:0] $end
$var reg 32 F# reg30 [31:0] $end
$var reg 32 G# reg31 [31:0] $end
$var reg 32 H# reg4 [31:0] $end
$var reg 32 I# reg5 [31:0] $end
$var reg 32 J# reg6 [31:0] $end
$var reg 32 K# reg7 [31:0] $end
$var reg 32 L# reg8 [31:0] $end
$var reg 32 M# reg9 [31:0] $end
$upscope $end
$scope module sinaisdecontrole $end
$var wire 1 & clk $end
$var wire 4 N# estado [3:0] $end
$var wire 3 O# funct3 [2:0] $end
$var wire 7 P# funct7 [6:0] $end
$var wire 3 Q# tipo [2:0] $end
$var reg 4 R# alucontrol [3:0] $end
$var reg 1 (" alusrc $end
$var reg 1 '" branch $end
$var reg 1 Y memread $end
$var reg 1 X memtoreg $end
$var reg 1 W memwrite $end
$var reg 1 . regiwrite $end
$upscope $end
$scope module somapc $end
$var wire 1 & clk $end
$var wire 4 S# estado [3:0] $end
$var wire 12 T# immediate [11:0] $end
$var wire 1 V negativo $end
$var wire 1 S pcsrc $end
$var wire 1 ' rst $end
$var reg 32 U# pc [31:0] $end
$upscope $end
$upscope $end
$upscope $end
$enddefinitions $end
$comment Show the parameter values. $end
$dumpall
b100 7"
b1000 6"
b11 5"
b0 4"
b1 3"
b1001 2"
b10 1"
b1100 0"
b111 /"
b110 ."
b1111 -"
b101 ,"
$end
#0
$dumpvars
bx U#
bx T#
bx S#
bx R#
bx Q#
bx P#
bx O#
bx N#
bx M#
bx L#
bx K#
bx J#
bx I#
bx H#
bx G#
bx F#
bx E#
bx D#
bx C#
bx B#
bx A#
bx @#
bx ?#
bx >#
bx =#
bx <#
bx ;#
bx :#
bx 9#
bx 8#
bx 7#
bx 6#
bx 5#
bx 4#
bx 3#
bx 2#
bx 1#
bx 0#
bx /#
bx .#
bx -#
bx ,#
bx +#
bx *#
bx )#
bx (#
bx '#
bx &#
bx %#
bx $#
bx ##
bx "#
bx !#
bx ~"
bx }"
bx |"
bx {"
bx z"
bx y"
bx x"
bx w"
bx v"
bx u"
bx t"
bx s"
bx r"
bx q"
bx p"
bx o"
bx n"
bx m"
bx l"
bx k"
bx j"
bx i"
bx h"
bx g"
bx f"
bx e"
bx d"
bx c"
bx b"
bx a"
bx `"
bx _"
bx ^"
bx ]"
bx \"
bx ["
bx Z"
bx Y"
bx X"
bx W"
bx V"
bx U"
bx T"
bx S"
bx R"
bx Q"
bx P"
bx O"
bx N"
bx M"
bx L"
bx K"
bx J"
bx I"
bx H"
bx G"
bx F"
bx E"
bx D"
bx C"
bx B"
bx A"
bx @"
bx ?"
bx >"
bx ="
bx <"
bx ;"
bx :"
bx 9"
bx 8"
bx +"
x*"
bx )"
x("
x'"
bx &"
bx %"
bx $"
bx #"
bx ""
bx !"
bx ~
bx }
bx |
bx {
bx z
bx y
bx x
bx w
bx v
bx u
bx t
bx s
bx r
bx q
bx p
bx o
bx n
bx m
bx l
bx k
bx j
bx i
bx h
bx g
bx f
bx e
bx d
bx c
bx b
bx a
bx `
bx _
bx ^
bx ]
bx \
bx [
bx Z
xY
xX
xW
xV
bx U
bx T
xS
bx R
bx Q
bx P
bx O
bx N
bx M
bx L
bx K
bx J
bx I
bx H
bx G
bx F
bx E
bx D
bx C
bx B
bx A
bx @
bx ?
bx >
bx =
bx <
bx ;
bx :
bx 9
bx 8
bx 7
bx 6
bx 5
bx 4
bx 3
bx 2
bx 1
bx 0
bx /
x.
bx -
bx ,
bx +
bx *
bx )
bx (
1'
0&
bx %
bx $
bx #
bx "
bx !
$end
#1
b0 *
b0 A"
b0 R"
b0 &"
b0 E"
b0 S"
b0 T
b0 C"
b0 \"
b0 U#
b0 8"
b0 :"
b0 F"
b0 P"
b0 ["
b0 _"
b0 &#
b0 N#
b0 S#
b0 9"
b0 Q"
1&
#2
0&
#3
b1 8"
b1 :"
b1 F"
b1 P"
b1 ["
b1 _"
b1 &#
b1 N#
b1 S#
b1010000000000011 z
b1010000000000011 G"
b1010000000000011 ]"
1&
#4
0&
#5
b0 +
b0 O"
b0 Q#
0V
b0 {
b0 ="
b0 J"
b0 `"
b0 T#
b10 }
b10 H"
b10 O#
b0 Q
b0 <"
b0 (#
b1 -
b1 M"
b1 +#
b0 R
b0 L"
b0 '#
b10 8"
b10 :"
b10 F"
b10 P"
b10 ["
b10 _"
b10 &#
b10 N#
b10 S#
1&
0'
#6
0&
#7
0S
b101 8"
b101 :"
b101 F"
b101 P"
b101 ["
b101 _"
b101 &#
b101 N#
b101 S#
1("
1X
0'"
b10 +"
b10 >"
b10 R#
1&
#8
0&
#9
0*"
b0 )"
b0 ?"
b0 ^"
b1111 8"
b1111 :"
b1111 F"
b1111 P"
b1111 ["
b1111 _"
b1111 &#
b1111 N#
b1111 S#
1&
#10
0&
#11
b11 8"
b11 :"
b11 F"
b11 P"
b11 ["
b11 _"
b11 &#
b11 N#
b11 S#
1Y
0W
1.
1&
#12
0&
#13
b0 `
b0 {"
b0 a
b0 z"
b0 c
b0 x"
b0 d
b0 w"
b0 e
b0 v"
b0 f
b0 u"
b0 g
b0 t"
b0 h
b0 s"
b0 i
b0 r"
b0 j
b0 q"
b0 k
b0 p"
b0 l
b0 o"
b0 n
b0 m"
b0 o
b0 l"
b0 p
b0 k"
b0 q
b0 j"
b0 r
b0 i"
b0 s
b0 h"
b0 t
b0 g"
b0 u
b0 f"
b0 v
b0 e"
b0 w
b0 d"
b0 Z
b0 ##
b0 [
b0 "#
b0 \
b0 !#
b0 ]
b0 ~"
b0 ^
b0 }"
b0 _
b0 |"
b0 b
b0 y"
b0 m
b0 n"
b0 x
b0 c"
b0 y
b0 b"
b0 (
b0 %#
b0 -#
b0 O
b0 $#
b0 *#
b100 8"
b100 :"
b100 F"
b100 P"
b100 ["
b100 _"
b100 &#
b100 N#
b100 S#
1&
#14
0&
#15
b110 8"
b110 :"
b110 F"
b110 P"
b110 ["
b110 _"
b110 &#
b110 N#
b110 S#
1&
#16
0&
#17
b0 )
b0 @"
b0 T"
b0 %"
b0 D"
b0 U"
b0 5
b0 G#
b0 6
b0 F#
b0 8
b0 D#
b0 9
b0 C#
b0 :
b0 B#
b0 ;
b0 A#
b0 <
b0 @#
b0 =
b0 ?#
b0 >
b0 >#
b0 ?
b0 =#
b0 @
b0 <#
b0 A
b0 ;#
b0 C
b0 9#
b0 D
b0 8#
b0 E
b0 7#
b0 F
b0 6#
b0 G
b0 5#
b0 H
b0 4#
b0 I
b0 3#
b0 J
b0 2#
b0 K
b0 1#
b0 L
b0 0#
b0 /
b0 M#
b0 0
b0 L#
b0 1
b0 K#
b0 2
b0 J#
b0 3
b0 B"
b0 I#
b0 4
b0 H#
b0 7
b0 E#
b0 B
b0 :#
b0 M
b0 /#
b0 N
b0 .#
b111 8"
b111 :"
b111 F"
b111 P"
b111 ["
b111 _"
b111 &#
b111 N#
b111 S#
1&
#18
0&
#19
b1100 8"
b1100 :"
b1100 F"
b1100 P"
b1100 ["
b1100 _"
b1100 &#
b1100 N#
b1100 S#
1&
#20
0&
#21
b1000000 !
b1000000 ~
b1000000 Z"
b1000000 "
b1000000 !"
b1000000 Y"
b1000000 #
b1000000 ""
b1000000 X"
b1000000 $
b1000000 #"
b1000000 W"
b1000000 %
b1000000 $"
b1000000 V"
b1000 8"
b1000 :"
b1000 F"
b1000 P"
b1000 ["
b1000 _"
b1000 &#
b1000 N#
b1000 S#
1&
#22
0&
#23
b1 *
b1 A"
b1 R"
b0 8"
b0 :"
b0 F"
b0 P"
b0 ["
b0 _"
b0 &#
b0 N#
b0 S#
b1 T
b1 C"
b1 \"
b1 U#
1&
#24
0&
#25
b1000011010001000100011 z
b1000011010001000100011 G"
b1000011010001000100011 ]"
b1 8"
b1 :"
b1 F"
b1 P"
b1 ["
b1 _"
b1 &#
b1 N#
b1 S#
1&
#26
0&
#27
b10 8"
b10 :"
b10 F"
b10 P"
b10 ["
b10 _"
b10 &#
b10 N#
b10 S#
b10 +
b10 O"
b10 Q#
b0 P
b0 ;"
b0 a"
b0 )#
b10 ,
b10 N"
b10 ,#
b11 -
b11 M"
b11 +#
b100 {
b100 ="
b100 J"
b100 `"
b100 T#
1&
#28
0&
#29
xY
xW
x.
b101 8"
b101 :"
b101 F"
b101 P"
b101 ["
b101 _"
b101 &#
b101 N#
b101 S#
1&
#30
0&
#31
b1111 8"
b1111 :"
b1111 F"
b1111 P"
b1111 ["
b1111 _"
b1111 &#
b1111 N#
b1111 S#
b1 )"
b1 ?"
b1 ^"
1&
#32
0&
#33
0Y
1W
0.
b11 8"
b11 :"
b11 F"
b11 P"
b11 ["
b11 _"
b11 &#
b11 N#
b11 S#
1&
#34
0&
#35
b100 8"
b100 :"
b100 F"
b100 P"
b100 ["
b100 _"
b100 &#
b100 N#
b100 S#
b1 (
b1 %#
b1 -#
1&
#36
0&
#37
b110 8"
b110 :"
b110 F"
b110 P"
b110 ["
b110 _"
b110 &#
b110 N#
b110 S#
1&
#38
0&
#39
b111 8"
b111 :"
b111 F"
b111 P"
b111 ["
b111 _"
b111 &#
b111 N#
b111 S#
1&
#40
0&
#41
b1100 8"
b1100 :"
b1100 F"
b1100 P"
b1100 ["
b1100 _"
b1100 &#
b1100 N#
b1100 S#
1&
#42
0&
#43
b1000 8"
b1000 :"
b1000 F"
b1000 P"
b1000 ["
b1000 _"
b1000 &#
b1000 N#
b1000 S#
b1111001 %
b1111001 $"
b1111001 V"
1&
#44
0&
#45
b10 *
b10 A"
b10 R"
b10 T
b10 C"
b10 \"
b10 U#
b0 8"
b0 :"
b0 F"
b0 P"
b0 ["
b0 _"
b0 &#
b0 N#
b0 S#
1&
#46
0&
#47
b1 8"
b1 :"
b1 F"
b1 P"
b1 ["
b1 _"
b1 &#
b1 N#
b1 S#
b1000000010100101000001010110011 z
b1000000010100101000001010110011 G"
b1000000010100101000001010110011 ]"
1&
#48
0&
#49
b11 +
b11 O"
b11 Q#
b0 }
b0 H"
b0 O#
b101 R
b101 L"
b101 '#
b101 -
b101 M"
b101 +#
b101 ,
b101 N"
b101 ,#
b100000 |
b100000 I"
b100000 P#
b10 8"
b10 :"
b10 F"
b10 P"
b10 ["
b10 _"
b10 &#
b10 N#
b10 S#
1&
#50
0&
#51
b101 8"
b101 :"
b101 F"
b101 P"
b101 ["
b101 _"
b101 &#
b101 N#
b101 S#
0("
0X
b110 +"
b110 >"
b110 R#
xY
xW
x.
1&
#52
0&
#53
b0 )"
b0 ?"
b0 ^"
b1111 8"
b1111 :"
b1111 F"
b1111 P"
b1111 ["
b1111 _"
b1111 &#
b1111 N#
b1111 S#
1&
#54
0&
#55
b11 8"
b11 :"
b11 F"
b11 P"
b11 ["
b11 _"
b11 &#
b11 N#
b11 S#
0Y
0W
1.
1&
#56
0&
#57
b0 (
b0 %#
b0 -#
b100 8"
b100 :"
b100 F"
b100 P"
b100 ["
b100 _"
b100 &#
b100 N#
b100 S#
1&
#58
0&
#59
b110 8"
b110 :"
b110 F"
b110 P"
b110 ["
b110 _"
b110 &#
b110 N#
b110 S#
1&
#60
0&
#61
b111 8"
b111 :"
b111 F"
b111 P"
b111 ["
b111 _"
b111 &#
b111 N#
b111 S#
1&
#62
0&
#63
b1100 8"
b1100 :"
b1100 F"
b1100 P"
b1100 ["
b1100 _"
b1100 &#
b1100 N#
b1100 S#
1&
#64
0&
#65
b100100 %
b100100 $"
b100100 V"
b1000 8"
b1000 :"
b1000 F"
b1000 P"
b1000 ["
b1000 _"
b1000 &#
b1000 N#
b1000 S#
1&
#66
0&
#67
b11 *
b11 A"
b11 R"
b0 8"
b0 :"
b0 F"
b0 P"
b0 ["
b0 _"
b0 &#
b0 N#
b0 S#
b11 T
b11 C"
b11 \"
b11 U#
1&
#68
0&
#69
b11000110100001100110011 z
b11000110100001100110011 G"
b11000110100001100110011 ]"
b1 8"
b1 :"
b1 F"
b1 P"
b1 ["
b1 _"
b1 &#
b1 N#
b1 S#
1&
#70
0&
#71
b10 8"
b10 :"
b10 F"
b10 P"
b10 ["
b10 _"
b10 &#
b10 N#
b10 S#
b100 }
b100 H"
b100 O#
b110 R
b110 L"
b110 '#
b110 -
b110 M"
b110 +#
b110 ,
b110 N"
b110 ,#
b0 |
b0 I"
b0 P#
1&
#72
0&
#73
b100 +"
b100 >"
b100 R#
xY
xW
x.
b101 8"
b101 :"
b101 F"
b101 P"
b101 ["
b101 _"
b101 &#
b101 N#
b101 S#
1&
#74
0&
#75
b1111 8"
b1111 :"
b1111 F"
b1111 P"
b1111 ["
b1111 _"
b1111 &#
b1111 N#
b1111 S#
1&
#76
0&
#77
0Y
0W
1.
b11 8"
b11 :"
b11 F"
b11 P"
b11 ["
b11 _"
b11 &#
b11 N#
b11 S#
1&
#78
0&
#79
b100 8"
b100 :"
b100 F"
b100 P"
b100 ["
b100 _"
b100 &#
b100 N#
b100 S#
1&
#80
0&
#81
b110 8"
b110 :"
b110 F"
b110 P"
b110 ["
b110 _"
b110 &#
b110 N#
b110 S#
1&
#82
0&
#83
b111 8"
b111 :"
b111 F"
b111 P"
b111 ["
b111 _"
b111 &#
b111 N#
b111 S#
1&
#84
0&
#85
b1100 8"
b1100 :"
b1100 F"
b1100 P"
b1100 ["
b1100 _"
b1100 &#
b1100 N#
b1100 S#
1&
#86
0&
#87
b1000 8"
b1000 :"
b1000 F"
b1000 P"
b1000 ["
b1000 _"
b1000 &#
b1000 N#
b1000 S#
b110000 %
b110000 $"
b110000 V"
1&
#88
0&
#89
b100 *
b100 A"
b100 R"
b100 T
b100 C"
b100 \"
b100 U#
b0 8"
b0 :"
b0 F"
b0 P"
b0 ["
b0 _"
b0 &#
b0 N#
b0 S#
1&
#90
0&
#91
b1 8"
b1 :"
b1 F"
b1 P"
b1 ["
b1 _"
b1 &#
b1 N#
b1 S#
b101000101000001010010011 z
b101000101000001010010011 G"
b101000101000001010010011 ]"
1&
#92
0&
#93
b1 +
b1 O"
b1 Q#
b1010 {
b1010 ="
b1010 J"
b1010 `"
b1010 T#
b0 }
b0 H"
b0 O#
b101 -
b101 M"
b101 +#
b101 R
b101 L"
b101 '#
b10 8"
b10 :"
b10 F"
b10 P"
b10 ["
b10 _"
b10 &#
b10 N#
b10 S#
1&
#94
0&
#95
b101 8"
b101 :"
b101 F"
b101 P"
b101 ["
b101 _"
b101 &#
b101 N#
b101 S#
1("
b11 +"
b11 >"
b11 R#
xY
xW
x.
1&
#96
0&
#97
b1010 )"
b1010 ?"
b1010 ^"
b1111 8"
b1111 :"
b1111 F"
b1111 P"
b1111 ["
b1111 _"
b1111 &#
b1111 N#
b1111 S#
1&
#98
0&
#99
b11 8"
b11 :"
b11 F"
b11 P"
b11 ["
b11 _"
b11 &#
b11 N#
b11 S#
0Y
0W
1.
1&
#100
0&
#101
b1010 (
b1010 %#
b1010 -#
b100 8"
b100 :"
b100 F"
b100 P"
b100 ["
b100 _"
b100 &#
b100 N#
b100 S#
1&
#102
0&
#103
b110 8"
b110 :"
b110 F"
b110 P"
b110 ["
b110 _"
b110 &#
b110 N#
b110 S#
1&
#104
0&
#105
b1010 Q
b1010 <"
b1010 (#
b111 8"
b111 :"
b111 F"
b111 P"
b111 ["
b111 _"
b111 &#
b111 N#
b111 S#
1&
#106
0&
#107
b1 %"
b1 D"
b1 U"
b1100 8"
b1100 :"
b1100 F"
b1100 P"
b1100 ["
b1100 _"
b1100 &#
b1100 N#
b1100 S#
b1010 3
b1010 B"
b1010 I#
1&
#108
0&
#109
b1111001 "
b1111001 !"
b1111001 Y"
b11001 %
b11001 $"
b11001 V"
b1000 8"
b1000 :"
b1000 F"
b1000 P"
b1000 ["
b1000 _"
b1000 &#
b1000 N#
b1000 S#
1&
#110
0&
#111
b101 *
b101 A"
b101 R"
b0 8"
b0 :"
b0 F"
b0 P"
b0 ["
b0 _"
b0 &#
b0 N#
b0 S#
b101 T
b101 C"
b101 \"
b101 U#
1&
#112
0&
#113
b10101000101010000110011 z
b10101000101010000110011 G"
b10101000101010000110011 ]"
b1 8"
b1 :"
b1 F"
b1 P"
b1 ["
b1 _"
b1 &#
b1 N#
b1 S#
1&
#114
0&
#115
b10 8"
b10 :"
b10 F"
b10 P"
b10 ["
b10 _"
b10 &#
b10 N#
b10 S#
b11 +
b11 O"
b11 Q#
b101 }
b101 H"
b101 O#
b1000 R
b1000 L"
b1000 '#
b0 Q
b0 <"
b0 (#
b1000 -
b1000 M"
b1000 +#
b1010 P
b1010 ;"
b1010 a"
b1010 )#
b101 ,
b101 N"
b101 ,#
1&
#116
0&
#117
0("
b101 +"
b101 >"
b101 R#
xY
xW
x.
b101 8"
b101 :"
b101 F"
b101 P"
b101 ["
b101 _"
b101 &#
b101 N#
b101 S#
1&
#118
0&
#119
b1111 8"
b1111 :"
b1111 F"
b1111 P"
b1111 ["
b1111 _"
b1111 &#
b1111 N#
b1111 S#
b0 )"
b0 ?"
b0 ^"
1&
#120
0&
#121
0Y
0W
1.
b11 8"
b11 :"
b11 F"
b11 P"
b11 ["
b11 _"
b11 &#
b11 N#
b11 S#
1&
#122
0&
#123
b100 8"
b100 :"
b100 F"
b100 P"
b100 ["
b100 _"
b100 &#
b100 N#
b100 S#
b0 (
b0 %#
b0 -#
1&
#124
0&
#125
b110 8"
b110 :"
b110 F"
b110 P"
b110 ["
b110 _"
b110 &#
b110 N#
b110 S#
1&
#126
0&
#127
b111 8"
b111 :"
b111 F"
b111 P"
b111 ["
b111 _"
b111 &#
b111 N#
b111 S#
1&
#128
0&
#129
b1100 8"
b1100 :"
b1100 F"
b1100 P"
b1100 ["
b1100 _"
b1100 &#
b1100 N#
b1100 S#
1&
#130
0&
#131
b1000 8"
b1000 :"
b1000 F"
b1000 P"
b1000 ["
b1000 _"
b1000 &#
b1000 N#
b1000 S#
b10010 %
b10010 $"
b10010 V"
1&
#132
0&
#133
b110 *
b110 A"
b110 R"
b110 T
b110 C"
b110 \"
b110 U#
b0 8"
b0 :"
b0 F"
b0 P"
b0 ["
b0 _"
b0 &#
b0 N#
b0 S#
1&
#134
0&
#135
b1 8"
b1 :"
b1 F"
b1 P"
b1 ["
b1 _"
b1 &#
b1 N#
b1 S#
b10001100011 z
b10001100011 G"
b10001100011 ]"
1&
#136
0&
#137
b110 +
b110 O"
b110 Q#
b0 }
b0 H"
b0 O#
b0 P
b0 ;"
b0 a"
b0 )#
b0 ,
b0 N"
b0 ,#
b0 -
b0 M"
b0 +#
b1000 {
b1000 ="
b1000 J"
b1000 `"
b1000 T#
b10 8"
b10 :"
b10 F"
b10 P"
b10 ["
b10 _"
b10 &#
b10 N#
b10 S#
1&
#138
0&
#139
b101 8"
b101 :"
b101 F"
b101 P"
b101 ["
b101 _"
b101 &#
b101 N#
b101 S#
1("
1'"
b110 +"
b110 >"
b110 R#
xY
xW
x.
1&
#140
0&
#141
1S
1*"
b1111 8"
b1111 :"
b1111 F"
b1111 P"
b1111 ["
b1111 _"
b1111 &#
b1111 N#
b1111 S#
1&
#142
0&
#143
b11 8"
b11 :"
b11 F"
b11 P"
b11 ["
b11 _"
b11 &#
b11 N#
b11 S#
0Y
0W
0.
1&
#144
0&
#145
b100 8"
b100 :"
b100 F"
b100 P"
b100 ["
b100 _"
b100 &#
b100 N#
b100 S#
1&
#146
0&
#147
b110 8"
b110 :"
b110 F"
b110 P"
b110 ["
b110 _"
b110 &#
b110 N#
b110 S#
1&
#148
0&
#149
b111 8"
b111 :"
b111 F"
b111 P"
b111 ["
b111 _"
b111 &#
b111 N#
b111 S#
1&
#150
0&
#151
b1100 8"
b1100 :"
b1100 F"
b1100 P"
b1100 ["
b1100 _"
b1100 &#
b1100 N#
b1100 S#
1&
#152
0&
#153
b10 %
b10 $"
b10 V"
b1000 8"
b1000 :"
b1000 F"
b1000 P"
b1000 ["
b1000 _"
b1000 &#
b1000 N#
b1000 S#
1&
#154
0&
