Projeto/_wavefile.vcd
$date
	Sun Jun 04 08:07:03 2023
$end
$version
	Icarus Verilog
$end
$timescale
	1s
$end
$scope module caminho_tb $end
$var reg 1 ! clk_tb $end
$var reg 32 " reg0 [31:0] $end
$var reg 32 # reg1 [31:0] $end
$var reg 32 $ reg10 [31:0] $end
$var reg 32 % reg11 [31:0] $end
$var reg 32 & reg12 [31:0] $end
$var reg 32 ' reg13 [31:0] $end
$var reg 32 ( reg14 [31:0] $end
$var reg 32 ) reg15 [31:0] $end
$var reg 32 * reg16 [31:0] $end
$var reg 32 + reg17 [31:0] $end
$var reg 32 , reg18 [31:0] $end
$var reg 32 - reg19 [31:0] $end
$var reg 32 . reg2 [31:0] $end
$var reg 32 / reg20 [31:0] $end
$var reg 32 0 reg21 [31:0] $end
$var reg 32 1 reg22 [31:0] $end
$var reg 32 2 reg23 [31:0] $end
$var reg 32 3 reg24 [31:0] $end
$var reg 32 4 reg25 [31:0] $end
$var reg 32 5 reg26 [31:0] $end
$var reg 32 6 reg27 [31:0] $end
$var reg 32 7 reg28 [31:0] $end
$var reg 32 8 reg29 [31:0] $end
$var reg 32 9 reg3 [31:0] $end
$var reg 32 : reg30 [31:0] $end
$var reg 32 ; reg31 [31:0] $end
$var reg 32 < reg4 [31:0] $end
$var reg 32 = reg5 [31:0] $end
$var reg 32 > reg6 [31:0] $end
$var reg 32 ? reg7 [31:0] $end
$var reg 32 @ reg8 [31:0] $end
$var reg 32 A reg9 [31:0] $end
$var reg 1 B rst_tb $end
$scope module main $end
$var wire 1 ! clk $end
$var wire 32 C reg0 [31:0] $end
$var wire 32 D reg1 [31:0] $end
$var wire 32 E reg10 [31:0] $end
$var wire 32 F reg11 [31:0] $end
$var wire 32 G reg12 [31:0] $end
$var wire 32 H reg13 [31:0] $end
$var wire 32 I reg14 [31:0] $end
$var wire 32 J reg15 [31:0] $end
$var wire 32 K reg16 [31:0] $end
$var wire 32 L reg17 [31:0] $end
$var wire 32 M reg18 [31:0] $end
$var wire 32 N reg19 [31:0] $end
$var wire 32 O reg2 [31:0] $end
$var wire 32 P reg20 [31:0] $end
$var wire 32 Q reg21 [31:0] $end
$var wire 32 R reg22 [31:0] $end
$var wire 32 S reg23 [31:0] $end
$var wire 32 T reg24 [31:0] $end
$var wire 32 U reg25 [31:0] $end
$var wire 32 V reg26 [31:0] $end
$var wire 32 W reg27 [31:0] $end
$var wire 32 X reg28 [31:0] $end
$var wire 32 Y reg29 [31:0] $end
$var wire 32 Z reg3 [31:0] $end
$var wire 32 [ reg30 [31:0] $end
$var wire 32 \ reg31 [31:0] $end
$var wire 32 ] reg4 [31:0] $end
$var wire 32 ^ reg5 [31:0] $end
$var wire 32 _ reg6 [31:0] $end
$var wire 32 ` reg7 [31:0] $end
$var wire 32 a reg8 [31:0] $end
$var wire 32 b reg9 [31:0] $end
$var wire 1 B rst $end
$var wire 32 c writedataR [31:0] $end
$var wire 3 d tipo [2:0] $end
$var wire 5 e rs2 [4:0] $end
$var wire 5 f rs1 [4:0] $end
$var wire 1 g regiwrite $end
$var wire 32 h reddataM [31:0] $end
$var wire 32 i readdata2R [31:0] $end
$var wire 32 j readdata1R [31:0] $end
$var wire 5 k rd [4:0] $end
$var wire 1 l pcsrc $end
$var wire 7 m opcode [6:0] $end
$var wire 1 n negativo $end
$var wire 1 o memwrite $end
$var wire 1 p memtoreg $end
$var wire 1 q memread $end
$var wire 32 r mem9 [31:0] $end
$var wire 32 s mem8 [31:0] $end
$var wire 32 t mem7 [31:0] $end
$var wire 32 u mem6 [31:0] $end
$var wire 32 v mem5 [31:0] $end
$var wire 32 w mem4 [31:0] $end
$var wire 32 x mem31 [31:0] $end
$var wire 32 y mem30 [31:0] $end
$var wire 32 z mem3 [31:0] $end
$var wire 32 { mem29 [31:0] $end
$var wire 32 | mem28 [31:0] $end
$var wire 32 } mem27 [31:0] $end
$var wire 32 ~ mem26 [31:0] $end
$var wire 32 !" mem25 [31:0] $end
$var wire 32 "" mem24 [31:0] $end
$var wire 32 #" mem23 [31:0] $end
$var wire 32 $" mem22 [31:0] $end
$var wire 32 %" mem21 [31:0] $end
$var wire 32 &" mem20 [31:0] $end
$var wire 32 '" mem2 [31:0] $end
$var wire 32 (" mem19 [31:0] $end
$var wire 32 )" mem18 [31:0] $end
$var wire 32 *" mem17 [31:0] $end
$var wire 32 +" mem16 [31:0] $end
$var wire 32 ," mem15 [31:0] $end
$var wire 32 -" mem14 [31:0] $end
$var wire 32 ." mem13 [31:0] $end
$var wire 32 /" mem12 [31:0] $end
$var wire 32 0" mem11 [31:0] $end
$var wire 32 1" mem10 [31:0] $end
$var wire 32 2" mem1 [31:0] $end
$var wire 32 3" mem0 [31:0] $end
$var wire 32 4" instrucao [31:0] $end
$var wire 12 5" immediate [11:0] $end
$var wire 7 6" funct7 [6:0] $end
$var wire 3 7" funct3 [2:0] $end
$var wire 1 8" branch $end
$var wire 1 9" alusrc $end
$var wire 32 :" aluresult2 [31:0] $end
$var wire 1 ;" aluresult1 $end
$var wire 4 <" alucontrol [3:0] $end
$var wire 32 =" PC [31:0] $end
$var parameter 4 >" AUX1 $end
$var parameter 4 ?" AUX2 $end
$var parameter 4 @" AUX3 $end
$var parameter 4 A" AUX4 $end
$var parameter 4 B" EX $end
$var parameter 4 C" FIM $end
$var parameter 4 D" ID $end
$var parameter 4 E" IF $end
$var parameter 4 F" MEM $end
$var parameter 4 G" SUMPC $end
$var parameter 4 H" WB $end
$var reg 4 I" estado [3:0] $end
$scope module alu $end
$var wire 1 ! clk $end
$var wire 4 J" estado [3:0] $end
$var wire 1 l pcsrc $end
$var wire 32 K" readdata2R [31:0] $end
$var wire 32 L" readdata1R [31:0] $end
$var wire 1 n negativo $end
$var wire 12 M" immediate [11:0] $end
$var wire 1 8" branch $end
$var wire 1 9" alusrc $end
$var wire 4 N" alucontrol [3:0] $end
$var reg 1 ;" aluresult1 $end
$var reg 32 O" aluresult2 [31:0] $end
$upscope $end
$scope module decodificacao $end
$var wire 1 ! clk $end
$var wire 4 P" estado [3:0] $end
$var wire 32 Q" instrucao [31:0] $end
$var reg 3 R" funct3 [2:0] $end
$var reg 7 S" funct7 [6:0] $end
$var reg 12 T" immediate [11:0] $end
$var reg 1 n negativo $end
$var reg 7 U" opcode [6:0] $end
$var reg 5 V" rd [4:0] $end
$var reg 5 W" rs1 [4:0] $end
$var reg 5 X" rs2 [4:0] $end
$var reg 3 Y" tipo [2:0] $end
$upscope $end
$scope module lerinstrucao $end
$var wire 1 ! clk $end
$var wire 4 Z" estado [3:0] $end
$var wire 32 [" PC [31:0] $end
$var reg 32 \" instrucao [31:0] $end
$upscope $end
$scope module memoria $end
$var wire 32 ]" aluresult2 [31:0] $end
$var wire 1 ! clk $end
$var wire 4 ^" estado [3:0] $end
$var wire 12 _" immediate [11:0] $end
$var wire 32 `" readdata2R [31:0] $end
$var wire 1 o memwrite $end
$var wire 1 q memread $end
$var reg 32 a" mem0 [31:0] $end
$var reg 32 b" mem1 [31:0] $end
$var reg 32 c" mem10 [31:0] $end
$var reg 32 d" mem11 [31:0] $end
$var reg 32 e" mem12 [31:0] $end
$var reg 32 f" mem13 [31:0] $end
$var reg 32 g" mem14 [31:0] $end
$var reg 32 h" mem15 [31:0] $end
$var reg 32 i" mem16 [31:0] $end
$var reg 32 j" mem17 [31:0] $end
$var reg 32 k" mem18 [31:0] $end
$var reg 32 l" mem19 [31:0] $end
$var reg 32 m" mem2 [31:0] $end
$var reg 32 n" mem20 [31:0] $end
$var reg 32 o" mem21 [31:0] $end
$var reg 32 p" mem22 [31:0] $end
$var reg 32 q" mem23 [31:0] $end
$var reg 32 r" mem24 [31:0] $end
$var reg 32 s" mem25 [31:0] $end
$var reg 32 t" mem26 [31:0] $end
$var reg 32 u" mem27 [31:0] $end
$var reg 32 v" mem28 [31:0] $end
$var reg 32 w" mem29 [31:0] $end
$var reg 32 x" mem3 [31:0] $end
$var reg 32 y" mem30 [31:0] $end
$var reg 32 z" mem31 [31:0] $end
$var reg 32 {" mem4 [31:0] $end
$var reg 32 |" mem5 [31:0] $end
$var reg 32 }" mem6 [31:0] $end
$var reg 32 ~" mem7 [31:0] $end
$var reg 32 !# mem8 [31:0] $end
$var reg 32 "# mem9 [31:0] $end
$var reg 32 ## reddataM [31:0] $end
$var reg 32 $# writedataR [31:0] $end
$upscope $end
$scope module registradores $end
$var wire 1 ! clk $end
$var wire 4 %# estado [3:0] $end
$var wire 5 &# rd [4:0] $end
$var wire 32 '# readdata1R [31:0] $end
$var wire 32 (# readdata2R [31:0] $end
$var wire 32 )# reddataM [31:0] $end
$var wire 5 *# rs1 [4:0] $end
$var wire 5 +# rs2 [4:0] $end
$var wire 32 ,# writedataR [31:0] $end
$var wire 1 g regiwrite $end
$var wire 1 p memtoreg $end
$var reg 32 -# reg0 [31:0] $end
$var reg 32 .# reg1 [31:0] $end
$var reg 32 /# reg10 [31:0] $end
$var reg 32 0# reg11 [31:0] $end
$var reg 32 1# reg12 [31:0] $end
$var reg 32 2# reg13 [31:0] $end
$var reg 32 3# reg14 [31:0] $end
$var reg 32 4# reg15 [31:0] $end
$var reg 32 5# reg16 [31:0] $end
$var reg 32 6# reg17 [31:0] $end
$var reg 32 7# reg18 [31:0] $end
$var reg 32 8# reg19 [31:0] $end
$var reg 32 9# reg2 [31:0] $end
$var reg 32 :# reg20 [31:0] $end
$var reg 32 ;# reg21 [31:0] $end
$var reg 32 <# reg22 [31:0] $end
$var reg 32 =# reg23 [31:0] $end
$var reg 32 ># reg24 [31:0] $end
$var reg 32 ?# reg25 [31:0] $end
$var reg 32 @# reg26 [31:0] $end
$var reg 32 A# reg27 [31:0] $end
$var reg 32 B# reg28 [31:0] $end
$var reg 32 C# reg29 [31:0] $end
$var reg 32 D# reg3 [31:0] $end
$var reg 32 E# reg30 [31:0] $end
$var reg 32 F# reg31 [31:0] $end
$var reg 32 G# reg4 [31:0] $end
$var reg 32 H# reg5 [31:0] $end
$var reg 32 I# reg6 [31:0] $end
$var reg 32 J# reg7 [31:0] $end
$var reg 32 K# reg8 [31:0] $end
$var reg 32 L# reg9 [31:0] $end
$upscope $end
$scope module sinaisdecontrole $end
$var wire 1 ! clk $end
$var wire 4 M# estado [3:0] $end
$var wire 3 N# funct3 [2:0] $end
$var wire 7 O# funct7 [6:0] $end
$var wire 3 P# tipo [2:0] $end
$var reg 4 Q# alucontrol [3:0] $end
$var reg 2 R# aluop [1:0] $end
$var reg 1 9" alusrc $end
$var reg 1 8" branch $end
$var reg 1 q memread $end
$var reg 1 p memtoreg $end
$var reg 1 o memwrite $end
$var reg 1 g regiwrite $end
$upscope $end
$scope module somapc $end
$var wire 1 ! clk $end
$var wire 4 S# estado [3:0] $end
$var wire 12 T# immediate [11:0] $end
$var wire 1 n negativo $end
$var wire 1 l pcsrc $end
$var reg 32 U# PC [31:0] $end
$upscope $end
$upscope $end
$upscope $end
$enddefinitions $end
$comment Show the parameter values. $end
$dumpall
b100 H"
b1000 G"
b11 F"
b0 E"
b1 D"
b1001 C"
b10 B"
b111 A"
b110 @"
b1111 ?"
b101 >"
$end
#0
$dumpvars
b0 U#
bx T#
b0 S#
bx R#
bx Q#
bx P#
bx O#
bx N#
b0 M#
b0 L#
b0 K#
b0 J#
b0 I#
b0 H#
b0 G#
b0 F#
b0 E#
b0 D#
b0 C#
b0 B#
b0 A#
b0 @#
b0 ?#
b0 >#
b0 =#
b0 <#
b0 ;#
b0 :#
b0 9#
b0 8#
b0 7#
b0 6#
b0 5#
b0 4#
b0 3#
b0 2#
b0 1#
b0 0#
b0 /#
b0 .#
b0 -#
bx ,#
bx +#
bx *#
bx )#
bx (#
bx '#
bx &#
b0 %#
bx $#
bx ##
b0 "#
b0 !#
b1 ~"
b0 }"
b0 |"
b0 {"
b0 z"
b0 y"
b111 x"
b0 w"
b0 v"
b0 u"
b0 t"
b0 s"
b0 r"
b0 q"
b0 p"
b0 o"
b0 n"
b0 m"
b0 l"
b0 k"
b0 j"
b0 i"
b0 h"
b0 g"
b0 f"
b0 e"
b0 d"
b0 c"
b1 b"
b11 a"
bx `"
bx _"
b0 ^"
bx ]"
bx \"
b0 ["
b0 Z"
bx Y"
bx X"
bx W"
bx V"
bx U"
bx T"
bx S"
bx R"
bx Q"
b0 P"
bx O"
bx N"
bx M"
bx L"
bx K"
b0 J"
b0 I"
b0 ="
bx <"
x;"
bx :"
x9"
x8"
bx 7"
bx 6"
bx 5"
bx 4"
b11 3"
b1 2"
b0 1"
b0 0"
b0 /"
b0 ."
b0 -"
b0 ,"
b0 +"
b0 *"
b0 )"
b0 ("
b0 '"
b0 &"
b0 %"
b0 $"
b0 #"
b0 ""
b0 !"
b0 ~
b0 }
b0 |
b0 {
b111 z
b0 y
b0 x
b0 w
b0 v
b0 u
b1 t
b0 s
b0 r
xq
xp
xo
xn
bx m
xl
bx k
bx j
bx i
bx h
xg
bx f
bx e
bx d
bx c
bx b
bx a
bx `
bx _
bx ^
bx ]
bx \
bx [
bx Z
bx Y
bx X
bx W
bx V
bx U
bx T
bx S
bx R
bx Q
bx P
bx O
bx N
bx M
bx L
bx K
bx J
bx I
bx H
bx G
bx F
bx E
bx D
bx C
0B
bx A
bx @
bx ?
bx >
bx =
bx <
bx ;
bx :
bx 9
bx 8
bx 7
bx 6
bx 5
bx 4
bx 3
bx 2
bx 1
bx 0
bx /
bx .
bx -
bx ,
bx +
bx *
bx )
bx (
bx '
bx &
bx %
bx $
bx #
bx "
0!
$end
#1
b10100111000001110010011 4"
b10100111000001110010011 Q"
b10100111000001110010011 \"
b1 I"
b1 J"
b1 P"
b1 Z"
b1 ^"
b1 %#
b1 M#
b1 S#
1!
#2
0!
#3
b1 d
b1 Y"
b1 P#
0n
b101 5"
b101 M"
b101 T"
b101 _"
b101 T#
b0 7"
b0 R"
b0 N#
b0 j
b0 L"
b0 '#
b111 f
b111 W"
b111 *#
b111 k
b111 V"
b111 &#
b10 I"
b10 J"
b10 P"
b10 Z"
b10 ^"
b10 %#
b10 M#
b10 S#
1!
#4
0!
#5
0l
19"
0p
08"
b11 <"
b11 N"
b11 Q#
b0 I"
b0 J"
b0 P"
b0 Z"
b0 ^"
b0 %#
b0 M#
b0 S#
1!
1B
#6
0!
#7
1!
#8
0!
#9
1!
#10
0!
0B
#11
b1 I"
b1 J"
b1 P"
b1 Z"
b1 ^"
b1 %#
b1 M#
b1 S#
1!
#12
0!
#13
b10 I"
b10 J"
b10 P"
b10 Z"
b10 ^"
b10 %#
b10 M#
b10 S#
1!
#14
0!
#15
b101 I"
b101 J"
b101 P"
b101 Z"
b101 ^"
b101 %#
b101 M#
b101 S#
1!
#16
0!
#17
0;"
b101 :"
b101 O"
b101 ]"
b1111 I"
b1111 J"
b1111 P"
b1111 Z"
b1111 ^"
b1111 %#
b1111 M#
b1111 S#
1!
#18
0!
#19
0q
0o
1g
b11 I"
b11 J"
b11 P"
b11 Z"
b11 ^"
b11 %#
b11 M#
b11 S#
1!
#20
0!
#21
b101 c
b101 $#
b101 ,#
b100 I"
b100 J"
b100 P"
b100 Z"
b100 ^"
b100 %#
b100 M#
b100 S#
1!
#22
0!
#23
b110 I"
b110 J"
b110 P"
b110 Z"
b110 ^"
b110 %#
b110 M#
b110 S#
1!
#24
0!
#25
b101 j
b101 L"
b101 '#
b111 I"
b111 J"
b111 P"
b111 Z"
b111 ^"
b111 %#
b111 M#
b111 S#
1!
#26
0!
#27
b101 J#
b1000 I"
b1000 J"
b1000 P"
b1000 Z"
b1000 ^"
b1000 %#
b1000 M#
b1000 S#
1!
#28
0!
#29
b1 ="
b1 ["
b1 U#
b0 I"
b0 J"
b0 P"
b0 Z"
b0 ^"
b0 %#
b0 M#
b0 S#
1!
#30
0!
#31
b11111111111100111000001110010011 4"
b11111111111100111000001110010011 Q"
b11111111111100111000001110010011 \"
b1 I"
b1 J"
b1 P"
b1 Z"
b1 ^"
b1 %#
b1 M#
b1 S#
1!
#32
0!
#33
1n
b1 5"
b1 M"
b1 T"
b1 _"
b1 T#
b10 I"
b10 J"
b10 P"
b10 Z"
b10 ^"
b10 %#
b10 M#
b10 S#
1!
#34
0!
#35
xq
xo
xg
b101 I"
b101 J"
b101 P"
b101 Z"
b101 ^"
b101 %#
b101 M#
b101 S#
1!
#36
0!
#37
b100 :"
b100 O"
b100 ]"
b1111 I"
b1111 J"
b1111 P"
b1111 Z"
b1111 ^"
b1111 %#
b1111 M#
b1111 S#
1!
#38
0!
#39
0q
0o
1g
b11 I"
b11 J"
b11 P"
b11 Z"
b11 ^"
b11 %#
b11 M#
b11 S#
1!
#40
0!
#41
b100 c
b100 $#
b100 ,#
b100 I"
b100 J"
b100 P"
b100 Z"
b100 ^"
b100 %#
b100 M#
b100 S#
1!
#42
0!
#43
b110 I"
b110 J"
b110 P"
b110 Z"
b110 ^"
b110 %#
b110 M#
b110 S#
1!
#44
0!
#45
b100 j
b100 L"
b100 '#
b111 I"
b111 J"
b111 P"
b111 Z"
b111 ^"
b111 %#
b111 M#
b111 S#
1!
#46
0!
#47
b100 J#
b1000 I"
b1000 J"
b1000 P"
b1000 Z"
b1000 ^"
b1000 %#
b1000 M#
b1000 S#
1!
#48
0!
#49
b10 ="
b10 ["
b10 U#
b0 I"
b0 J"
b0 P"
b0 Z"
b0 ^"
b0 %#
b0 M#
b0 S#
1!
#50
0!
#51
b11111110000000111001111011100011 4"
b11111110000000111001111011100011 Q"
b11111110000000111001111011100011 \"
b1 I"
b1 J"
b1 P"
b1 Z"
b1 ^"
b1 %#
b1 M#
b1 S#
1!
#52
0!
#53
b110 d
b110 Y"
b110 P#
b1 7"
b1 R"
b1 N#
b0 i
b0 K"
b0 `"
b0 (#
b0 e
b0 X"
b0 +#
b100 5"
b100 M"
b100 T"
b100 _"
b100 T#
b10 I"
b10 J"
b10 P"
b10 Z"
b10 ^"
b10 %#
b10 M#
b10 S#
1!
#54
0!
#55
18"
b110 <"
b110 N"
b110 Q#
xq
xo
xg
b101 I"
b101 J"
b101 P"
b101 Z"
b101 ^"
b101 %#
b101 M#
b101 S#
1!
#56
0!
#57
b1111 I"
b1111 J"
b1111 P"
b1111 Z"
b1111 ^"
b1111 %#
b1111 M#
b1111 S#
1!
#58
0!
#59
b1111 <"
b1111 N"
b1111 Q#
0q
0o
0g
b11 I"
b11 J"
b11 P"
b11 Z"
b11 ^"
b11 %#
b11 M#
b11 S#
1!
#60
0!
#61
b100 I"
b100 J"
b100 P"
b100 Z"
b100 ^"
b100 %#
b100 M#
b100 S#
1!
#62
0!
#63
b110 I"
b110 J"
b110 P"
b110 Z"
b110 ^"
b110 %#
b110 M#
b110 S#
1!
#64
0!
#65
1l
1;"
b111 I"
b111 J"
b111 P"
b111 Z"
b111 ^"
b111 %#
b111 M#
b111 S#
1!
#66
0!
#67
b1000 I"
b1000 J"
b1000 P"
b1000 Z"
b1000 ^"
b1000 %#
b1000 M#
b1000 S#
1!
#68
0!
#69
b1 ="
b1 ["
b1 U#
b0 I"
b0 J"
b0 P"
b0 Z"
b0 ^"
b0 %#
b0 M#
b0 S#
1!
#70
0!
#71
b11111111111100111000001110010011 4"
b11111111111100111000001110010011 Q"
b11111111111100111000001110010011 \"
b1 I"
b1 J"
b1 P"
b1 Z"
b1 ^"
b1 %#
b1 M#
b1 S#
1!
#72
0!
#73
b1 d
b1 Y"
b1 P#
b1 5"
b1 M"
b1 T"
b1 _"
b1 T#
b0 7"
b0 R"
b0 N#
b10 I"
b10 J"
b10 P"
b10 Z"
b10 ^"
b10 %#
b10 M#
b10 S#
1!
#74
0!
#75
0l
08"
b11 <"
b11 N"
b11 Q#
xq
xo
xg
b101 I"
b101 J"
b101 P"
b101 Z"
b101 ^"
b101 %#
b101 M#
b101 S#
1!
#76
0!
#77
0;"
b11 :"
b11 O"
b11 ]"
b1111 I"
b1111 J"
b1111 P"
b1111 Z"
b1111 ^"
b1111 %#
b1111 M#
b1111 S#
1!
#78
0!
#79
0q
0o
1g
b11 I"
b11 J"
b11 P"
b11 Z"
b11 ^"
b11 %#
b11 M#
b11 S#
1!
#80
0!
#81
b11 c
b11 $#
b11 ,#
b100 I"
b100 J"
b100 P"
b100 Z"
b100 ^"
b100 %#
b100 M#
b100 S#
1!
#82
0!
#83
b110 I"
b110 J"
b110 P"
b110 Z"
b110 ^"
b110 %#
b110 M#
b110 S#
1!
#84
0!
#85
b11 j
b11 L"
b11 '#
b111 I"
b111 J"
b111 P"
b111 Z"
b111 ^"
b111 %#
b111 M#
b111 S#
1!
#86
0!
#87
b11 J#
b1000 I"
b1000 J"
b1000 P"
b1000 Z"
b1000 ^"
b1000 %#
b1000 M#
b1000 S#
1!
#88
0!
#89
b10 ="
b10 ["
b10 U#
b0 I"
b0 J"
b0 P"
b0 Z"
b0 ^"
b0 %#
b0 M#
b0 S#
1!
#90
0!
#91
b11111110000000111001111011100011 4"
b11111110000000111001111011100011 Q"
b11111110000000111001111011100011 \"
b1 I"
b1 J"
b1 P"
b1 Z"
b1 ^"
b1 %#
b1 M#
b1 S#
1!
#92
0!
#93
b110 d
b110 Y"
b110 P#
b1 7"
b1 R"
b1 N#
b100 5"
b100 M"
b100 T"
b100 _"
b100 T#
b10 I"
b10 J"
b10 P"
b10 Z"
b10 ^"
b10 %#
b10 M#
b10 S#
1!
#94
0!
#95
18"
b110 <"
b110 N"
b110 Q#
xq
xo
xg
b101 I"
b101 J"
b101 P"
b101 Z"
b101 ^"
b101 %#
b101 M#
b101 S#
1!
#96
0!
#97
b1111 I"
b1111 J"
b1111 P"
b1111 Z"
b1111 ^"
b1111 %#
b1111 M#
b1111 S#
1!
#98
0!
#99
b1111 <"
b1111 N"
b1111 Q#
0q
0o
0g
b11 I"
b11 J"
b11 P"
b11 Z"
b11 ^"
b11 %#
b11 M#
b11 S#
1!
#100
0!
#101
b100 I"
b100 J"
b100 P"
b100 Z"
b100 ^"
b100 %#
b100 M#
b100 S#
1!
#102
0!
#103
b110 I"
b110 J"
b110 P"
b110 Z"
b110 ^"
b110 %#
b110 M#
b110 S#
1!
#104
0!
#105
1l
1;"
b111 I"
b111 J"
b111 P"
b111 Z"
b111 ^"
b111 %#
b111 M#
b111 S#
1!
#106
0!
#107
b1000 I"
b1000 J"
b1000 P"
b1000 Z"
b1000 ^"
b1000 %#
b1000 M#
b1000 S#
1!
#108
0!
#109
b1 ="
b1 ["
b1 U#
b0 I"
b0 J"
b0 P"
b0 Z"
b0 ^"
b0 %#
b0 M#
b0 S#
1!
#110
0!
#111
b11111111111100111000001110010011 4"
b11111111111100111000001110010011 Q"
b11111111111100111000001110010011 \"
b1 I"
b1 J"
b1 P"
b1 Z"
b1 ^"
b1 %#
b1 M#
b1 S#
1!
#112
0!
#113
b1 d
b1 Y"
b1 P#
b1 5"
b1 M"
b1 T"
b1 _"
b1 T#
b0 7"
b0 R"
b0 N#
b10 I"
b10 J"
b10 P"
b10 Z"
b10 ^"
b10 %#
b10 M#
b10 S#
1!
#114
0!
#115
0l
08"
b11 <"
b11 N"
b11 Q#
xq
xo
xg
b101 I"
b101 J"
b101 P"
b101 Z"
b101 ^"
b101 %#
b101 M#
b101 S#
1!
#116
0!
#117
0;"
b10 :"
b10 O"
b10 ]"
b1111 I"
b1111 J"
b1111 P"
b1111 Z"
b1111 ^"
b1111 %#
b1111 M#
b1111 S#
1!
#118
0!
#119
0q
0o
1g
b11 I"
b11 J"
b11 P"
b11 Z"
b11 ^"
b11 %#
b11 M#
b11 S#
1!
#120
0!
#121
b10 c
b10 $#
b10 ,#
b100 I"
b100 J"
b100 P"
b100 Z"
b100 ^"
b100 %#
b100 M#
b100 S#
1!
#122
0!
#123
b110 I"
b110 J"
b110 P"
b110 Z"
b110 ^"
b110 %#
b110 M#
b110 S#
1!
#124
0!
#125
b10 j
b10 L"
b10 '#
b111 I"
b111 J"
b111 P"
b111 Z"
b111 ^"
b111 %#
b111 M#
b111 S#
1!
#126
0!
#127
b10 J#
b1000 I"
b1000 J"
b1000 P"
b1000 Z"
b1000 ^"
b1000 %#
b1000 M#
b1000 S#
1!
#128
0!
#129
b10 ="
b10 ["
b10 U#
b0 I"
b0 J"
b0 P"
b0 Z"
b0 ^"
b0 %#
b0 M#
b0 S#
1!
#130
0!
#131
b11111110000000111001111011100011 4"
b11111110000000111001111011100011 Q"
b11111110000000111001111011100011 \"
b1 I"
b1 J"
b1 P"
b1 Z"
b1 ^"
b1 %#
b1 M#
b1 S#
1!
#132
0!
#133
b110 d
b110 Y"
b110 P#
b1 7"
b1 R"
b1 N#
b100 5"
b100 M"
b100 T"
b100 _"
b100 T#
b10 I"
b10 J"
b10 P"
b10 Z"
b10 ^"
b10 %#
b10 M#
b10 S#
1!
#134
0!
#135
18"
b110 <"
b110 N"
b110 Q#
xq
xo
xg
b101 I"
b101 J"
b101 P"
b101 Z"
b101 ^"
b101 %#
b101 M#
b101 S#
1!
#136
0!
#137
b1111 I"
b1111 J"
b1111 P"
b1111 Z"
b1111 ^"
b1111 %#
b1111 M#
b1111 S#
1!
#138
0!
#139
b1111 <"
b1111 N"
b1111 Q#
0q
0o
0g
b11 I"
b11 J"
b11 P"
b11 Z"
b11 ^"
b11 %#
b11 M#
b11 S#
1!
#140
0!
#141
b100 I"
b100 J"
b100 P"
b100 Z"
b100 ^"
b100 %#
b100 M#
b100 S#
1!
#142
0!
#143
b110 I"
b110 J"
b110 P"
b110 Z"
b110 ^"
b110 %#
b110 M#
b110 S#
1!
#144
0!
#145
1l
1;"
b111 I"
b111 J"
b111 P"
b111 Z"
b111 ^"
b111 %#
b111 M#
b111 S#
1!
#146
0!
#147
b1000 I"
b1000 J"
b1000 P"
b1000 Z"
b1000 ^"
b1000 %#
b1000 M#
b1000 S#
1!
#148
0!
#149
b1 ="
b1 ["
b1 U#
b0 I"
b0 J"
b0 P"
b0 Z"
b0 ^"
b0 %#
b0 M#
b0 S#
1!
#150
0!
#151
b11111111111100111000001110010011 4"
b11111111111100111000001110010011 Q"
b11111111111100111000001110010011 \"
b1 I"
b1 J"
b1 P"
b1 Z"
b1 ^"
b1 %#
b1 M#
b1 S#
1!
#152
0!
#153
b1 d
b1 Y"
b1 P#
b1 5"
b1 M"
b1 T"
b1 _"
b1 T#
b0 7"
b0 R"
b0 N#
b10 I"
b10 J"
b10 P"
b10 Z"
b10 ^"
b10 %#
b10 M#
b10 S#
1!
#154
0!
#155
0l
08"
b11 <"
b11 N"
b11 Q#
xq
xo
xg
b101 I"
b101 J"
b101 P"
b101 Z"
b101 ^"
b101 %#
b101 M#
b101 S#
1!
#156
0!
#157
0;"
b1 :"
b1 O"
b1 ]"
b1111 I"
b1111 J"
b1111 P"
b1111 Z"
b1111 ^"
b1111 %#
b1111 M#
b1111 S#
1!
#158
0!
#159
0q
0o
1g
b11 I"
b11 J"
b11 P"
b11 Z"
b11 ^"
b11 %#
b11 M#
b11 S#
1!
#160
0!
#161
b1 c
b1 $#
b1 ,#
b100 I"
b100 J"
b100 P"
b100 Z"
b100 ^"
b100 %#
b100 M#
b100 S#
1!
#162
0!
#163
b110 I"
b110 J"
b110 P"
b110 Z"
b110 ^"
b110 %#
b110 M#
b110 S#
1!
#164
0!
#165
b1 j
b1 L"
b1 '#
b111 I"
b111 J"
b111 P"
b111 Z"
b111 ^"
b111 %#
b111 M#
b111 S#
1!
#166
0!
#167
b1 J#
b1000 I"
b1000 J"
b1000 P"
b1000 Z"
b1000 ^"
b1000 %#
b1000 M#
b1000 S#
1!
#168
0!
#169
b10 ="
b10 ["
b10 U#
b0 I"
b0 J"
b0 P"
b0 Z"
b0 ^"
b0 %#
b0 M#
b0 S#
1!
#170
0!
#171
b11111110000000111001111011100011 4"
b11111110000000111001111011100011 Q"
b11111110000000111001111011100011 \"
b1 I"
b1 J"
b1 P"
b1 Z"
b1 ^"
b1 %#
b1 M#
b1 S#
1!
#172
0!
#173
b110 d
b110 Y"
b110 P#
b1 7"
b1 R"
b1 N#
b100 5"
b100 M"
b100 T"
b100 _"
b100 T#
b10 I"
b10 J"
b10 P"
b10 Z"
b10 ^"
b10 %#
b10 M#
b10 S#
1!
#174
0!
#175
18"
b110 <"
b110 N"
b110 Q#
xq
xo
xg
b101 I"
b101 J"
b101 P"
b101 Z"
b101 ^"
b101 %#
b101 M#
b101 S#
1!
#176
0!
#177
b1111 I"
b1111 J"
b1111 P"
b1111 Z"
b1111 ^"
b1111 %#
b1111 M#
b1111 S#
1!
#178
0!
#179
b1111 <"
b1111 N"
b1111 Q#
0q
0o
0g
b11 I"
b11 J"
b11 P"
b11 Z"
b11 ^"
b11 %#
b11 M#
b11 S#
1!
#180
0!
#181
b100 I"
b100 J"
b100 P"
b100 Z"
b100 ^"
b100 %#
b100 M#
b100 S#
1!
#182
0!
#183
b110 I"
b110 J"
b110 P"
b110 Z"
b110 ^"
b110 %#
b110 M#
b110 S#
1!
#184
0!
#185
1l
1;"
b111 I"
b111 J"
b111 P"
b111 Z"
b111 ^"
b111 %#
b111 M#
b111 S#
1!
#186
0!
#187
b1000 I"
b1000 J"
b1000 P"
b1000 Z"
b1000 ^"
b1000 %#
b1000 M#
b1000 S#
1!
#188
0!
#189
b1 ="
b1 ["
b1 U#
b0 I"
b0 J"
b0 P"
b0 Z"
b0 ^"
b0 %#
b0 M#
b0 S#
1!
#190
0!
#191
b11111111111100111000001110010011 4"
b11111111111100111000001110010011 Q"
b11111111111100111000001110010011 \"
b1 I"
b1 J"
b1 P"
b1 Z"
b1 ^"
b1 %#
b1 M#
b1 S#
1!
#192
0!
