Projeto/testbench.vcd
$date
	Wed Jun 28 15:00:07 2023
$end
$version
	Icarus Verilog
$end
$timescale
	1s
$end
$scope module caminho_tb $end
$var wire 32 ! reg9 [31:0] $end
$var wire 32 " reg8 [31:0] $end
$var wire 32 # reg7 [31:0] $end
$var wire 32 $ reg6 [31:0] $end
$var wire 32 % reg5 [31:0] $end
$var wire 32 & reg4 [31:0] $end
$var wire 32 ' reg31 [31:0] $end
$var wire 32 ( reg30 [31:0] $end
$var wire 32 ) reg3 [31:0] $end
$var wire 32 * reg29 [31:0] $end
$var wire 32 + reg28 [31:0] $end
$var wire 32 , reg27 [31:0] $end
$var wire 32 - reg26 [31:0] $end
$var wire 32 . reg25 [31:0] $end
$var wire 32 / reg24 [31:0] $end
$var wire 32 0 reg23 [31:0] $end
$var wire 32 1 reg22 [31:0] $end
$var wire 32 2 reg21 [31:0] $end
$var wire 32 3 reg20 [31:0] $end
$var wire 32 4 reg2 [31:0] $end
$var wire 32 5 reg19 [31:0] $end
$var wire 32 6 reg18 [31:0] $end
$var wire 32 7 reg17 [31:0] $end
$var wire 32 8 reg16 [31:0] $end
$var wire 32 9 reg15 [31:0] $end
$var wire 32 : reg14 [31:0] $end
$var wire 32 ; reg13 [31:0] $end
$var wire 32 < reg12 [31:0] $end
$var wire 32 = reg11 [31:0] $end
$var wire 32 > reg10 [31:0] $end
$var wire 32 ? reg1 [31:0] $end
$var wire 32 @ reg0 [31:0] $end
$var wire 32 A mem9 [31:0] $end
$var wire 32 B mem8 [31:0] $end
$var wire 32 C mem7 [31:0] $end
$var wire 32 D mem6 [31:0] $end
$var wire 32 E mem5 [31:0] $end
$var wire 32 F mem4 [31:0] $end
$var wire 32 G mem31 [31:0] $end
$var wire 32 H mem30 [31:0] $end
$var wire 32 I mem3 [31:0] $end
$var wire 32 J mem29 [31:0] $end
$var wire 32 K mem28 [31:0] $end
$var wire 32 L mem27 [31:0] $end
$var wire 32 M mem26 [31:0] $end
$var wire 32 N mem25 [31:0] $end
$var wire 32 O mem24 [31:0] $end
$var wire 32 P mem23 [31:0] $end
$var wire 32 Q mem22 [31:0] $end
$var wire 32 R mem21 [31:0] $end
$var wire 32 S mem20 [31:0] $end
$var wire 32 T mem2 [31:0] $end
$var wire 32 U mem19 [31:0] $end
$var wire 32 V mem18 [31:0] $end
$var wire 32 W mem17 [31:0] $end
$var wire 32 X mem16 [31:0] $end
$var wire 32 Y mem15 [31:0] $end
$var wire 32 Z mem14 [31:0] $end
$var wire 32 [ mem13 [31:0] $end
$var wire 32 \ mem12 [31:0] $end
$var wire 32 ] mem11 [31:0] $end
$var wire 32 ^ mem10 [31:0] $end
$var wire 32 _ mem1 [31:0] $end
$var wire 32 ` mem0 [31:0] $end
$var reg 1 a clk_tb $end
$var reg 1 b rst_tb $end
$scope module main $end
$var wire 1 a clk $end
$var wire 1 b rst $end
$var wire 32 c writedataR [31:0] $end
$var wire 3 d tipo [2:0] $end
$var wire 5 e rs2 [4:0] $end
$var wire 5 f rs1 [4:0] $end
$var wire 1 g regiwrite $end
$var wire 32 h reg9 [31:0] $end
$var wire 32 i reg8 [31:0] $end
$var wire 32 j reg7 [31:0] $end
$var wire 32 k reg6 [31:0] $end
$var wire 32 l reg5 [31:0] $end
$var wire 32 m reg4 [31:0] $end
$var wire 32 n reg31 [31:0] $end
$var wire 32 o reg30 [31:0] $end
$var wire 32 p reg3 [31:0] $end
$var wire 32 q reg29 [31:0] $end
$var wire 32 r reg28 [31:0] $end
$var wire 32 s reg27 [31:0] $end
$var wire 32 t reg26 [31:0] $end
$var wire 32 u reg25 [31:0] $end
$var wire 32 v reg24 [31:0] $end
$var wire 32 w reg23 [31:0] $end
$var wire 32 x reg22 [31:0] $end
$var wire 32 y reg21 [31:0] $end
$var wire 32 z reg20 [31:0] $end
$var wire 32 { reg2 [31:0] $end
$var wire 32 | reg19 [31:0] $end
$var wire 32 } reg18 [31:0] $end
$var wire 32 ~ reg17 [31:0] $end
$var wire 32 !" reg16 [31:0] $end
$var wire 32 "" reg15 [31:0] $end
$var wire 32 #" reg14 [31:0] $end
$var wire 32 $" reg13 [31:0] $end
$var wire 32 %" reg12 [31:0] $end
$var wire 32 &" reg11 [31:0] $end
$var wire 32 '" reg10 [31:0] $end
$var wire 32 (" reg1 [31:0] $end
$var wire 32 )" reg0 [31:0] $end
$var wire 32 *" reddataM [31:0] $end
$var wire 32 +" readdata2R [31:0] $end
$var wire 32 ," readdata1R [31:0] $end
$var wire 5 -" rd [4:0] $end
$var wire 1 ." pcsrc $end
$var wire 7 /" opcode [6:0] $end
$var wire 1 0" negativo $end
$var wire 1 1" memwrite $end
$var wire 1 2" memtoreg $end
$var wire 1 3" memread $end
$var wire 32 4" mem9 [31:0] $end
$var wire 32 5" mem8 [31:0] $end
$var wire 32 6" mem7 [31:0] $end
$var wire 32 7" mem6 [31:0] $end
$var wire 32 8" mem5 [31:0] $end
$var wire 32 9" mem4 [31:0] $end
$var wire 32 :" mem31 [31:0] $end
$var wire 32 ;" mem30 [31:0] $end
$var wire 32 <" mem3 [31:0] $end
$var wire 32 =" mem29 [31:0] $end
$var wire 32 >" mem28 [31:0] $end
$var wire 32 ?" mem27 [31:0] $end
$var wire 32 @" mem26 [31:0] $end
$var wire 32 A" mem25 [31:0] $end
$var wire 32 B" mem24 [31:0] $end
$var wire 32 C" mem23 [31:0] $end
$var wire 32 D" mem22 [31:0] $end
$var wire 32 E" mem21 [31:0] $end
$var wire 32 F" mem20 [31:0] $end
$var wire 32 G" mem2 [31:0] $end
$var wire 32 H" mem19 [31:0] $end
$var wire 32 I" mem18 [31:0] $end
$var wire 32 J" mem17 [31:0] $end
$var wire 32 K" mem16 [31:0] $end
$var wire 32 L" mem15 [31:0] $end
$var wire 32 M" mem14 [31:0] $end
$var wire 32 N" mem13 [31:0] $end
$var wire 32 O" mem12 [31:0] $end
$var wire 32 P" mem11 [31:0] $end
$var wire 32 Q" mem10 [31:0] $end
$var wire 32 R" mem1 [31:0] $end
$var wire 32 S" mem0 [31:0] $end
$var wire 32 T" instrucao [31:0] $end
$var wire 12 U" immediate [11:0] $end
$var wire 7 V" funct7 [6:0] $end
$var wire 3 W" funct3 [2:0] $end
$var wire 1 X" branch $end
$var wire 1 Y" alusrc $end
$var wire 32 Z" aluresult2 [31:0] $end
$var wire 1 [" aluresult1 $end
$var wire 4 \" alucontrol [3:0] $end
$var wire 32 ]" PC [31:0] $end
$var parameter 4 ^" AUX1 $end
$var parameter 4 _" AUX2 $end
$var parameter 4 `" AUX3 $end
$var parameter 4 a" AUX4 $end
$var parameter 4 b" EX $end
$var parameter 4 c" FIM $end
$var parameter 4 d" ID $end
$var parameter 4 e" IF $end
$var parameter 4 f" MEM $end
$var parameter 4 g" SUMPC $end
$var parameter 4 h" WB $end
$var reg 4 i" estado [3:0] $end
$scope module alu $end
$var wire 1 a clk $end
$var wire 4 j" estado [3:0] $end
$var wire 1 ." pcsrc $end
$var wire 32 k" readdata2R [31:0] $end
$var wire 32 l" readdata1R [31:0] $end
$var wire 1 0" negativo $end
$var wire 12 m" immediate [11:0] $end
$var wire 1 X" branch $end
$var wire 1 Y" alusrc $end
$var wire 4 n" alucontrol [3:0] $end
$var reg 1 [" aluresult1 $end
$var reg 32 o" aluresult2 [31:0] $end
$upscope $end
$scope module decodificacao $end
$var wire 1 a clk $end
$var wire 4 p" estado [3:0] $end
$var wire 32 q" instrucao [31:0] $end
$var reg 3 r" funct3 [2:0] $end
$var reg 7 s" funct7 [6:0] $end
$var reg 12 t" immediate [11:0] $end
$var reg 1 0" negativo $end
$var reg 7 u" opcode [6:0] $end
$var reg 5 v" rd [4:0] $end
$var reg 5 w" rs1 [4:0] $end
$var reg 5 x" rs2 [4:0] $end
$var reg 3 y" tipo [2:0] $end
$upscope $end
$scope module lerinstrucao $end
$var wire 1 a clk $end
$var wire 4 z" estado [3:0] $end
$var wire 32 {" PC [31:0] $end
$var reg 32 |" instrucao [31:0] $end
$upscope $end
$scope module memoria $end
$var wire 32 }" aluresult2 [31:0] $end
$var wire 1 a clk $end
$var wire 4 ~" estado [3:0] $end
$var wire 12 !# immediate [11:0] $end
$var wire 32 "# readdata2R [31:0] $end
$var wire 1 1" memwrite $end
$var wire 1 3" memread $end
$var reg 32 ## mem0 [31:0] $end
$var reg 32 $# mem1 [31:0] $end
$var reg 32 %# mem10 [31:0] $end
$var reg 32 &# mem11 [31:0] $end
$var reg 32 '# mem12 [31:0] $end
$var reg 32 (# mem13 [31:0] $end
$var reg 32 )# mem14 [31:0] $end
$var reg 32 *# mem15 [31:0] $end
$var reg 32 +# mem16 [31:0] $end
$var reg 32 ,# mem17 [31:0] $end
$var reg 32 -# mem18 [31:0] $end
$var reg 32 .# mem19 [31:0] $end
$var reg 32 /# mem2 [31:0] $end
$var reg 32 0# mem20 [31:0] $end
$var reg 32 1# mem21 [31:0] $end
$var reg 32 2# mem22 [31:0] $end
$var reg 32 3# mem23 [31:0] $end
$var reg 32 4# mem24 [31:0] $end
$var reg 32 5# mem25 [31:0] $end
$var reg 32 6# mem26 [31:0] $end
$var reg 32 7# mem27 [31:0] $end
$var reg 32 8# mem28 [31:0] $end
$var reg 32 9# mem29 [31:0] $end
$var reg 32 :# mem3 [31:0] $end
$var reg 32 ;# mem30 [31:0] $end
$var reg 32 <# mem31 [31:0] $end
$var reg 32 =# mem4 [31:0] $end
$var reg 32 ># mem5 [31:0] $end
$var reg 32 ?# mem6 [31:0] $end
$var reg 32 @# mem7 [31:0] $end
$var reg 32 A# mem8 [31:0] $end
$var reg 32 B# mem9 [31:0] $end
$var reg 32 C# reddataM [31:0] $end
$var reg 32 D# writedataR [31:0] $end
$upscope $end
$scope module registradores $end
$var wire 1 a clk $end
$var wire 4 E# estado [3:0] $end
$var wire 5 F# rd [4:0] $end
$var wire 32 G# readdata1R [31:0] $end
$var wire 32 H# readdata2R [31:0] $end
$var wire 32 I# reddataM [31:0] $end
$var wire 5 J# rs1 [4:0] $end
$var wire 5 K# rs2 [4:0] $end
$var wire 32 L# writedataR [31:0] $end
$var wire 1 g regiwrite $end
$var wire 1 2" memtoreg $end
$var reg 32 M# reg0 [31:0] $end
$var reg 32 N# reg1 [31:0] $end
$var reg 32 O# reg10 [31:0] $end
$var reg 32 P# reg11 [31:0] $end
$var reg 32 Q# reg12 [31:0] $end
$var reg 32 R# reg13 [31:0] $end
$var reg 32 S# reg14 [31:0] $end
$var reg 32 T# reg15 [31:0] $end
$var reg 32 U# reg16 [31:0] $end
$var reg 32 V# reg17 [31:0] $end
$var reg 32 W# reg18 [31:0] $end
$var reg 32 X# reg19 [31:0] $end
$var reg 32 Y# reg2 [31:0] $end
$var reg 32 Z# reg20 [31:0] $end
$var reg 32 [# reg21 [31:0] $end
$var reg 32 \# reg22 [31:0] $end
$var reg 32 ]# reg23 [31:0] $end
$var reg 32 ^# reg24 [31:0] $end
$var reg 32 _# reg25 [31:0] $end
$var reg 32 `# reg26 [31:0] $end
$var reg 32 a# reg27 [31:0] $end
$var reg 32 b# reg28 [31:0] $end
$var reg 32 c# reg29 [31:0] $end
$var reg 32 d# reg3 [31:0] $end
$var reg 32 e# reg30 [31:0] $end
$var reg 32 f# reg31 [31:0] $end
$var reg 32 g# reg4 [31:0] $end
$var reg 32 h# reg5 [31:0] $end
$var reg 32 i# reg6 [31:0] $end
$var reg 32 j# reg7 [31:0] $end
$var reg 32 k# reg8 [31:0] $end
$var reg 32 l# reg9 [31:0] $end
$upscope $end
$scope module sinaisdecontrole $end
$var wire 1 a clk $end
$var wire 4 m# estado [3:0] $end
$var wire 3 n# funct3 [2:0] $end
$var wire 7 o# funct7 [6:0] $end
$var wire 3 p# tipo [2:0] $end
$var reg 4 q# alucontrol [3:0] $end
$var reg 2 r# aluop [1:0] $end
$var reg 1 Y" alusrc $end
$var reg 1 X" branch $end
$var reg 1 3" memread $end
$var reg 1 2" memtoreg $end
$var reg 1 1" memwrite $end
$var reg 1 g regiwrite $end
$upscope $end
$scope module somapc $end
$var wire 1 a clk $end
$var wire 4 s# estado [3:0] $end
$var wire 12 t# immediate [11:0] $end
$var wire 1 0" negativo $end
$var wire 1 ." pcsrc $end
$var reg 32 u# PC [31:0] $end
$upscope $end
$upscope $end
$upscope $end
$enddefinitions $end
$comment Show the parameter values. $end
$dumpall
b100 h"
b1000 g"
b11 f"
b0 e"
b1 d"
b1001 c"
b10 b"
b111 a"
b110 `"
b1111 _"
b101 ^"
$end
#0
$dumpvars
b0 u#
bx t#
b0 s#
bx r#
bx q#
bx p#
bx o#
bx n#
b0 m#
b0 l#
b0 k#
b0 j#
b0 i#
b0 h#
b0 g#
b0 f#
b0 e#
b0 d#
b0 c#
b0 b#
b0 a#
b0 `#
b0 _#
b0 ^#
b0 ]#
b0 \#
b0 [#
b0 Z#
b0 Y#
b0 X#
b0 W#
b0 V#
b0 U#
b0 T#
b0 S#
b0 R#
b0 Q#
b0 P#
b0 O#
b0 N#
b0 M#
bx L#
bx K#
bx J#
bx I#
bx H#
bx G#
bx F#
b0 E#
bx D#
bx C#
b0 B#
b0 A#
b0 @#
b0 ?#
b0 >#
b0 =#
b0 <#
b0 ;#
b0 :#
b0 9#
b0 8#
b0 7#
b0 6#
b0 5#
b0 4#
b0 3#
b0 2#
b0 1#
b0 0#
b0 /#
b0 .#
b0 -#
b0 ,#
b0 +#
b0 *#
b0 )#
b0 (#
b0 '#
b0 &#
b0 %#
b0 $#
b0 ##
bx "#
bx !#
b0 ~"
bx }"
bx |"
b0 {"
b0 z"
bx y"
bx x"
bx w"
bx v"
bx u"
bx t"
bx s"
bx r"
bx q"
b0 p"
bx o"
bx n"
bx m"
bx l"
bx k"
b0 j"
b0 i"
b0 ]"
bx \"
x["
bx Z"
xY"
xX"
bx W"
bx V"
bx U"
bx T"
b0 S"
b0 R"
b0 Q"
b0 P"
b0 O"
b0 N"
b0 M"
b0 L"
b0 K"
b0 J"
b0 I"
b0 H"
b0 G"
b0 F"
b0 E"
b0 D"
b0 C"
b0 B"
b0 A"
b0 @"
b0 ?"
b0 >"
b0 ="
b0 <"
b0 ;"
b0 :"
b0 9"
b0 8"
b0 7"
b0 6"
b0 5"
b0 4"
x3"
x2"
x1"
x0"
bx /"
x."
bx -"
bx ,"
bx +"
bx *"
b0 )"
b0 ("
b0 '"
b0 &"
b0 %"
b0 $"
b0 #"
b0 ""
b0 !"
b0 ~
b0 }
b0 |
b0 {
b0 z
b0 y
b0 x
b0 w
b0 v
b0 u
b0 t
b0 s
b0 r
b0 q
b0 p
b0 o
b0 n
b0 m
b0 l
b0 k
b0 j
b0 i
b0 h
xg
bx f
bx e
bx d
bx c
0b
0a
b0 `
b0 _
b0 ^
b0 ]
b0 \
b0 [
b0 Z
b0 Y
b0 X
b0 W
b0 V
b0 U
b0 T
b0 S
b0 R
b0 Q
b0 P
b0 O
b0 N
b0 M
b0 L
b0 K
b0 J
b0 I
b0 H
b0 G
b0 F
b0 E
b0 D
b0 C
b0 B
b0 A
b0 @
b0 ?
b0 >
b0 =
b0 <
b0 ;
b0 :
b0 9
b0 8
b0 7
b0 6
b0 5
b0 4
b0 3
b0 2
b0 1
b0 0
b0 /
b0 .
b0 -
b0 ,
b0 +
b0 *
b0 )
b0 (
b0 '
b0 &
b0 %
b0 $
b0 #
b0 "
b0 !
$end
#1
b10100111000001110010011 T"
b10100111000001110010011 q"
b10100111000001110010011 |"
b1 i"
b1 j"
b1 p"
b1 z"
b1 ~"
b1 E#
b1 m#
b1 s#
1a
#2
0a
#3
b1 d
b1 y"
b1 p#
00"
b101 U"
b101 m"
b101 t"
b101 !#
b101 t#
b0 W"
b0 r"
b0 n#
b0 ,"
b0 l"
b0 G#
b111 f
b111 w"
b111 J#
b111 -"
b111 v"
b111 F#
b10 i"
b10 j"
b10 p"
b10 z"
b10 ~"
b10 E#
b10 m#
b10 s#
1a
#4
0a
#5
0."
1Y"
02"
0X"
b11 \"
b11 n"
b11 q#
b101 i"
b101 j"
b101 p"
b101 z"
b101 ~"
b101 E#
b101 m#
b101 s#
1a
#6
0a
#7
0["
b101 Z"
b101 o"
b101 }"
b1111 i"
b1111 j"
b1111 p"
b1111 z"
b1111 ~"
b1111 E#
b1111 m#
b1111 s#
1a
#8
0a
#9
03"
01"
1g
b11 i"
b11 j"
b11 p"
b11 z"
b11 ~"
b11 E#
b11 m#
b11 s#
1a
#10
0a
#11
b101 c
b101 D#
b101 L#
b100 i"
b100 j"
b100 p"
b100 z"
b100 ~"
b100 E#
b100 m#
b100 s#
1a
#12
0a
#13
b110 i"
b110 j"
b110 p"
b110 z"
b110 ~"
b110 E#
b110 m#
b110 s#
1a
#14
0a
#15
b101 ,"
b101 l"
b101 G#
b111 i"
b111 j"
b111 p"
b111 z"
b111 ~"
b111 E#
b111 m#
b111 s#
1a
#16
0a
#17
b101 #
b101 j
b101 j#
b1000 i"
b1000 j"
b1000 p"
b1000 z"
b1000 ~"
b1000 E#
b1000 m#
b1000 s#
1a
#18
0a
#19
b1 ]"
b1 {"
b1 u#
b0 i"
b0 j"
b0 p"
b0 z"
b0 ~"
b0 E#
b0 m#
b0 s#
1a
#20
0a
#21
b11111111111100111000001110010011 T"
b11111111111100111000001110010011 q"
b11111111111100111000001110010011 |"
b1 i"
b1 j"
b1 p"
b1 z"
b1 ~"
b1 E#
b1 m#
b1 s#
1a
#22
0a
#23
10"
b1 U"
b1 m"
b1 t"
b1 !#
b1 t#
b10 i"
b10 j"
b10 p"
b10 z"
b10 ~"
b10 E#
b10 m#
b10 s#
1a
#24
0a
#25
x3"
x1"
xg
b101 i"
b101 j"
b101 p"
b101 z"
b101 ~"
b101 E#
b101 m#
b101 s#
1a
#26
0a
#27
b100 Z"
b100 o"
b100 }"
b1111 i"
b1111 j"
b1111 p"
b1111 z"
b1111 ~"
b1111 E#
b1111 m#
b1111 s#
1a
#28
0a
#29
03"
01"
1g
b11 i"
b11 j"
b11 p"
b11 z"
b11 ~"
b11 E#
b11 m#
b11 s#
1a
#30
0a
#31
b100 c
b100 D#
b100 L#
b100 i"
b100 j"
b100 p"
b100 z"
b100 ~"
b100 E#
b100 m#
b100 s#
1a
#32
0a
#33
b110 i"
b110 j"
b110 p"
b110 z"
b110 ~"
b110 E#
b110 m#
b110 s#
1a
#34
0a
#35
b100 ,"
b100 l"
b100 G#
b111 i"
b111 j"
b111 p"
b111 z"
b111 ~"
b111 E#
b111 m#
b111 s#
1a
#36
0a
#37
b100 #
b100 j
b100 j#
b1000 i"
b1000 j"
b1000 p"
b1000 z"
b1000 ~"
b1000 E#
b1000 m#
b1000 s#
1a
#38
0a
#39
b10 ]"
b10 {"
b10 u#
b0 i"
b0 j"
b0 p"
b0 z"
b0 ~"
b0 E#
b0 m#
b0 s#
1a
#40
0a
#41
b11111110000000111001111011100011 T"
b11111110000000111001111011100011 q"
b11111110000000111001111011100011 |"
b1 i"
b1 j"
b1 p"
b1 z"
b1 ~"
b1 E#
b1 m#
b1 s#
1a
#42
0a
#43
b110 d
b110 y"
b110 p#
b1 W"
b1 r"
b1 n#
b0 +"
b0 k"
b0 "#
b0 H#
b0 e
b0 x"
b0 K#
b100 U"
b100 m"
b100 t"
b100 !#
b100 t#
b10 i"
b10 j"
b10 p"
b10 z"
b10 ~"
b10 E#
b10 m#
b10 s#
1a
#44
0a
#45
1X"
b110 \"
b110 n"
b110 q#
x3"
x1"
xg
b101 i"
b101 j"
b101 p"
b101 z"
b101 ~"
b101 E#
b101 m#
b101 s#
1a
#46
0a
#47
b1111 i"
b1111 j"
b1111 p"
b1111 z"
b1111 ~"
b1111 E#
b1111 m#
b1111 s#
1a
#48
0a
#49
b1111 \"
b1111 n"
b1111 q#
03"
01"
0g
b11 i"
b11 j"
b11 p"
b11 z"
b11 ~"
b11 E#
b11 m#
b11 s#
1a
#50
0a
#51
b100 i"
b100 j"
b100 p"
b100 z"
b100 ~"
b100 E#
b100 m#
b100 s#
1a
#52
0a
#53
b110 i"
b110 j"
b110 p"
b110 z"
b110 ~"
b110 E#
b110 m#
b110 s#
1a
#54
0a
#55
1."
1["
b111 i"
b111 j"
b111 p"
b111 z"
b111 ~"
b111 E#
b111 m#
b111 s#
1a
#56
0a
#57
b1000 i"
b1000 j"
b1000 p"
b1000 z"
b1000 ~"
b1000 E#
b1000 m#
b1000 s#
1a
#58
0a
#59
b1 ]"
b1 {"
b1 u#
b0 i"
b0 j"
b0 p"
b0 z"
b0 ~"
b0 E#
b0 m#
b0 s#
1a
#60
0a
#61
b11111111111100111000001110010011 T"
b11111111111100111000001110010011 q"
b11111111111100111000001110010011 |"
b1 i"
b1 j"
b1 p"
b1 z"
b1 ~"
b1 E#
b1 m#
b1 s#
1a
#62
0a
#63
b1 d
b1 y"
b1 p#
b1 U"
b1 m"
b1 t"
b1 !#
b1 t#
b0 W"
b0 r"
b0 n#
b10 i"
b10 j"
b10 p"
b10 z"
b10 ~"
b10 E#
b10 m#
b10 s#
1a
#64
0a
#65
0."
0X"
b11 \"
b11 n"
b11 q#
x3"
x1"
xg
b101 i"
b101 j"
b101 p"
b101 z"
b101 ~"
b101 E#
b101 m#
b101 s#
1a
#66
0a
#67
0["
b11 Z"
b11 o"
b11 }"
b1111 i"
b1111 j"
b1111 p"
b1111 z"
b1111 ~"
b1111 E#
b1111 m#
b1111 s#
1a
#68
0a
#69
03"
01"
1g
b11 i"
b11 j"
b11 p"
b11 z"
b11 ~"
b11 E#
b11 m#
b11 s#
1a
#70
0a
#71
b11 c
b11 D#
b11 L#
b100 i"
b100 j"
b100 p"
b100 z"
b100 ~"
b100 E#
b100 m#
b100 s#
1a
#72
0a
#73
b110 i"
b110 j"
b110 p"
b110 z"
b110 ~"
b110 E#
b110 m#
b110 s#
1a
#74
0a
#75
b11 ,"
b11 l"
b11 G#
b111 i"
b111 j"
b111 p"
b111 z"
b111 ~"
b111 E#
b111 m#
b111 s#
1a
#76
0a
#77
b11 #
b11 j
b11 j#
b1000 i"
b1000 j"
b1000 p"
b1000 z"
b1000 ~"
b1000 E#
b1000 m#
b1000 s#
1a
#78
0a
#79
b10 ]"
b10 {"
b10 u#
b0 i"
b0 j"
b0 p"
b0 z"
b0 ~"
b0 E#
b0 m#
b0 s#
1a
#80
0a
#81
b11111110000000111001111011100011 T"
b11111110000000111001111011100011 q"
b11111110000000111001111011100011 |"
b1 i"
b1 j"
b1 p"
b1 z"
b1 ~"
b1 E#
b1 m#
b1 s#
1a
#82
0a
#83
b110 d
b110 y"
b110 p#
b1 W"
b1 r"
b1 n#
b100 U"
b100 m"
b100 t"
b100 !#
b100 t#
b10 i"
b10 j"
b10 p"
b10 z"
b10 ~"
b10 E#
b10 m#
b10 s#
1a
#84
0a
#85
1X"
b110 \"
b110 n"
b110 q#
x3"
x1"
xg
b101 i"
b101 j"
b101 p"
b101 z"
b101 ~"
b101 E#
b101 m#
b101 s#
1a
#86
0a
#87
b1111 i"
b1111 j"
b1111 p"
b1111 z"
b1111 ~"
b1111 E#
b1111 m#
b1111 s#
1a
#88
0a
#89
b1111 \"
b1111 n"
b1111 q#
03"
01"
0g
b11 i"
b11 j"
b11 p"
b11 z"
b11 ~"
b11 E#
b11 m#
b11 s#
1a
#90
0a
#91
b100 i"
b100 j"
b100 p"
b100 z"
b100 ~"
b100 E#
b100 m#
b100 s#
1a
#92
0a
#93
b110 i"
b110 j"
b110 p"
b110 z"
b110 ~"
b110 E#
b110 m#
b110 s#
1a
#94
0a
#95
1."
1["
b111 i"
b111 j"
b111 p"
b111 z"
b111 ~"
b111 E#
b111 m#
b111 s#
1a
#96
0a
#97
b1000 i"
b1000 j"
b1000 p"
b1000 z"
b1000 ~"
b1000 E#
b1000 m#
b1000 s#
1a
#98
0a
#99
b1 ]"
b1 {"
b1 u#
b0 i"
b0 j"
b0 p"
b0 z"
b0 ~"
b0 E#
b0 m#
b0 s#
1a
#100
0a
#101
b11111111111100111000001110010011 T"
b11111111111100111000001110010011 q"
b11111111111100111000001110010011 |"
b1 i"
b1 j"
b1 p"
b1 z"
b1 ~"
b1 E#
b1 m#
b1 s#
1a
#102
0a
#103
b1 d
b1 y"
b1 p#
b1 U"
b1 m"
b1 t"
b1 !#
b1 t#
b0 W"
b0 r"
b0 n#
b10 i"
b10 j"
b10 p"
b10 z"
b10 ~"
b10 E#
b10 m#
b10 s#
1a
#104
0a
#105
0."
0X"
b11 \"
b11 n"
b11 q#
x3"
x1"
xg
b101 i"
b101 j"
b101 p"
b101 z"
b101 ~"
b101 E#
b101 m#
b101 s#
1a
#106
0a
#107
0["
b10 Z"
b10 o"
b10 }"
b1111 i"
b1111 j"
b1111 p"
b1111 z"
b1111 ~"
b1111 E#
b1111 m#
b1111 s#
1a
#108
0a
#109
03"
01"
1g
b11 i"
b11 j"
b11 p"
b11 z"
b11 ~"
b11 E#
b11 m#
b11 s#
1a
#110
0a
#111
b10 c
b10 D#
b10 L#
b100 i"
b100 j"
b100 p"
b100 z"
b100 ~"
b100 E#
b100 m#
b100 s#
1a
#112
0a
#113
b110 i"
b110 j"
b110 p"
b110 z"
b110 ~"
b110 E#
b110 m#
b110 s#
1a
#114
0a
#115
b10 ,"
b10 l"
b10 G#
b111 i"
b111 j"
b111 p"
b111 z"
b111 ~"
b111 E#
b111 m#
b111 s#
1a
#116
0a
#117
b10 #
b10 j
b10 j#
b1000 i"
b1000 j"
b1000 p"
b1000 z"
b1000 ~"
b1000 E#
b1000 m#
b1000 s#
1a
#118
0a
#119
b10 ]"
b10 {"
b10 u#
b0 i"
b0 j"
b0 p"
b0 z"
b0 ~"
b0 E#
b0 m#
b0 s#
1a
#120
0a
#121
b11111110000000111001111011100011 T"
b11111110000000111001111011100011 q"
b11111110000000111001111011100011 |"
b1 i"
b1 j"
b1 p"
b1 z"
b1 ~"
b1 E#
b1 m#
b1 s#
1a
#122
0a
#123
b110 d
b110 y"
b110 p#
b1 W"
b1 r"
b1 n#
b100 U"
b100 m"
b100 t"
b100 !#
b100 t#
b10 i"
b10 j"
b10 p"
b10 z"
b10 ~"
b10 E#
b10 m#
b10 s#
1a
#124
0a
#125
1X"
b110 \"
b110 n"
b110 q#
x3"
x1"
xg
b101 i"
b101 j"
b101 p"
b101 z"
b101 ~"
b101 E#
b101 m#
b101 s#
1a
#126
0a
#127
b1111 i"
b1111 j"
b1111 p"
b1111 z"
b1111 ~"
b1111 E#
b1111 m#
b1111 s#
1a
#128
0a
#129
b1111 \"
b1111 n"
b1111 q#
03"
01"
0g
b11 i"
b11 j"
b11 p"
b11 z"
b11 ~"
b11 E#
b11 m#
b11 s#
1a
#130
0a
#131
b100 i"
b100 j"
b100 p"
b100 z"
b100 ~"
b100 E#
b100 m#
b100 s#
1a
#132
0a
#133
b110 i"
b110 j"
b110 p"
b110 z"
b110 ~"
b110 E#
b110 m#
b110 s#
1a
#134
0a
#135
1."
1["
b111 i"
b111 j"
b111 p"
b111 z"
b111 ~"
b111 E#
b111 m#
b111 s#
1a
#136
0a
#137
b1000 i"
b1000 j"
b1000 p"
b1000 z"
b1000 ~"
b1000 E#
b1000 m#
b1000 s#
1a
#138
0a
#139
b1 ]"
b1 {"
b1 u#
b0 i"
b0 j"
b0 p"
b0 z"
b0 ~"
b0 E#
b0 m#
b0 s#
1a
#140
0a
#141
b11111111111100111000001110010011 T"
b11111111111100111000001110010011 q"
b11111111111100111000001110010011 |"
b1 i"
b1 j"
b1 p"
b1 z"
b1 ~"
b1 E#
b1 m#
b1 s#
1a
#142
0a
#143
b1 d
b1 y"
b1 p#
b1 U"
b1 m"
b1 t"
b1 !#
b1 t#
b0 W"
b0 r"
b0 n#
b10 i"
b10 j"
b10 p"
b10 z"
b10 ~"
b10 E#
b10 m#
b10 s#
1a
#144
0a
#145
0."
0X"
b11 \"
b11 n"
b11 q#
x3"
x1"
xg
b101 i"
b101 j"
b101 p"
b101 z"
b101 ~"
b101 E#
b101 m#
b101 s#
1a
#146
0a
#147
0["
b1 Z"
b1 o"
b1 }"
b1111 i"
b1111 j"
b1111 p"
b1111 z"
b1111 ~"
b1111 E#
b1111 m#
b1111 s#
1a
#148
0a
#149
03"
01"
1g
b11 i"
b11 j"
b11 p"
b11 z"
b11 ~"
b11 E#
b11 m#
b11 s#
1a
#150
0a
#151
b1 c
b1 D#
b1 L#
b100 i"
b100 j"
b100 p"
b100 z"
b100 ~"
b100 E#
b100 m#
b100 s#
1a
#152
0a
#153
b110 i"
b110 j"
b110 p"
b110 z"
b110 ~"
b110 E#
b110 m#
b110 s#
1a
#154
0a
#155
b1 ,"
b1 l"
b1 G#
b111 i"
b111 j"
b111 p"
b111 z"
b111 ~"
b111 E#
b111 m#
b111 s#
1a
#156
0a
#157
b1 #
b1 j
b1 j#
b1000 i"
b1000 j"
b1000 p"
b1000 z"
b1000 ~"
b1000 E#
b1000 m#
b1000 s#
1a
#158
0a
#159
b10 ]"
b10 {"
b10 u#
b0 i"
b0 j"
b0 p"
b0 z"
b0 ~"
b0 E#
b0 m#
b0 s#
1a
#160
0a
#161
b11111110000000111001111011100011 T"
b11111110000000111001111011100011 q"
b11111110000000111001111011100011 |"
b1 i"
b1 j"
b1 p"
b1 z"
b1 ~"
b1 E#
b1 m#
b1 s#
1a
#162
0a
#163
b110 d
b110 y"
b110 p#
b1 W"
b1 r"
b1 n#
b100 U"
b100 m"
b100 t"
b100 !#
b100 t#
b10 i"
b10 j"
b10 p"
b10 z"
b10 ~"
b10 E#
b10 m#
b10 s#
1a
#164
0a
#165
1X"
b110 \"
b110 n"
b110 q#
x3"
x1"
xg
b101 i"
b101 j"
b101 p"
b101 z"
b101 ~"
b101 E#
b101 m#
b101 s#
1a
#166
0a
