Projeto/testbench.vcd
$date
	Sun Jun 04 08:52:29 2023
$end
$version
	Icarus Verilog
$end
$timescale
	1s
$end
$scope module caminho_tb $end
$var wire 32 ! reg9 [31:0] $end
$var wire 32 " reg8 [31:0] $end
$var wire 32 # reg7 [31:0] $end
$var wire 32 $ reg6 [31:0] $end
$var wire 32 % reg5 [31:0] $end
$var wire 32 & reg4 [31:0] $end
$var wire 32 ' reg31 [31:0] $end
$var wire 32 ( reg30 [31:0] $end
$var wire 32 ) reg3 [31:0] $end
$var wire 32 * reg29 [31:0] $end
$var wire 32 + reg28 [31:0] $end
$var wire 32 , reg27 [31:0] $end
$var wire 32 - reg26 [31:0] $end
$var wire 32 . reg25 [31:0] $end
$var wire 32 / reg24 [31:0] $end
$var wire 32 0 reg23 [31:0] $end
$var wire 32 1 reg22 [31:0] $end
$var wire 32 2 reg21 [31:0] $end
$var wire 32 3 reg20 [31:0] $end
$var wire 32 4 reg2 [31:0] $end
$var wire 32 5 reg19 [31:0] $end
$var wire 32 6 reg18 [31:0] $end
$var wire 32 7 reg17 [31:0] $end
$var wire 32 8 reg16 [31:0] $end
$var wire 32 9 reg15 [31:0] $end
$var wire 32 : reg14 [31:0] $end
$var wire 32 ; reg13 [31:0] $end
$var wire 32 < reg12 [31:0] $end
$var wire 32 = reg11 [31:0] $end
$var wire 32 > reg10 [31:0] $end
$var wire 32 ? reg1 [31:0] $end
$var wire 32 @ reg0 [31:0] $end
$var reg 1 A clk_tb $end
$var reg 1 B rst_tb $end
$scope module main $end
$var wire 1 A clk $end
$var wire 1 B rst $end
$var wire 32 C writedataR [31:0] $end
$var wire 3 D tipo [2:0] $end
$var wire 5 E rs2 [4:0] $end
$var wire 5 F rs1 [4:0] $end
$var wire 1 G regiwrite $end
$var wire 32 H reg9 [31:0] $end
$var wire 32 I reg8 [31:0] $end
$var wire 32 J reg7 [31:0] $end
$var wire 32 K reg6 [31:0] $end
$var wire 32 L reg5 [31:0] $end
$var wire 32 M reg4 [31:0] $end
$var wire 32 N reg31 [31:0] $end
$var wire 32 O reg30 [31:0] $end
$var wire 32 P reg3 [31:0] $end
$var wire 32 Q reg29 [31:0] $end
$var wire 32 R reg28 [31:0] $end
$var wire 32 S reg27 [31:0] $end
$var wire 32 T reg26 [31:0] $end
$var wire 32 U reg25 [31:0] $end
$var wire 32 V reg24 [31:0] $end
$var wire 32 W reg23 [31:0] $end
$var wire 32 X reg22 [31:0] $end
$var wire 32 Y reg21 [31:0] $end
$var wire 32 Z reg20 [31:0] $end
$var wire 32 [ reg2 [31:0] $end
$var wire 32 \ reg19 [31:0] $end
$var wire 32 ] reg18 [31:0] $end
$var wire 32 ^ reg17 [31:0] $end
$var wire 32 _ reg16 [31:0] $end
$var wire 32 ` reg15 [31:0] $end
$var wire 32 a reg14 [31:0] $end
$var wire 32 b reg13 [31:0] $end
$var wire 32 c reg12 [31:0] $end
$var wire 32 d reg11 [31:0] $end
$var wire 32 e reg10 [31:0] $end
$var wire 32 f reg1 [31:0] $end
$var wire 32 g reg0 [31:0] $end
$var wire 32 h reddataM [31:0] $end
$var wire 32 i readdata2R [31:0] $end
$var wire 32 j readdata1R [31:0] $end
$var wire 5 k rd [4:0] $end
$var wire 1 l pcsrc $end
$var wire 7 m opcode [6:0] $end
$var wire 1 n negativo $end
$var wire 1 o memwrite $end
$var wire 1 p memtoreg $end
$var wire 1 q memread $end
$var wire 32 r mem9 [31:0] $end
$var wire 32 s mem8 [31:0] $end
$var wire 32 t mem7 [31:0] $end
$var wire 32 u mem6 [31:0] $end
$var wire 32 v mem5 [31:0] $end
$var wire 32 w mem4 [31:0] $end
$var wire 32 x mem31 [31:0] $end
$var wire 32 y mem30 [31:0] $end
$var wire 32 z mem3 [31:0] $end
$var wire 32 { mem29 [31:0] $end
$var wire 32 | mem28 [31:0] $end
$var wire 32 } mem27 [31:0] $end
$var wire 32 ~ mem26 [31:0] $end
$var wire 32 !" mem25 [31:0] $end
$var wire 32 "" mem24 [31:0] $end
$var wire 32 #" mem23 [31:0] $end
$var wire 32 $" mem22 [31:0] $end
$var wire 32 %" mem21 [31:0] $end
$var wire 32 &" mem20 [31:0] $end
$var wire 32 '" mem2 [31:0] $end
$var wire 32 (" mem19 [31:0] $end
$var wire 32 )" mem18 [31:0] $end
$var wire 32 *" mem17 [31:0] $end
$var wire 32 +" mem16 [31:0] $end
$var wire 32 ," mem15 [31:0] $end
$var wire 32 -" mem14 [31:0] $end
$var wire 32 ." mem13 [31:0] $end
$var wire 32 /" mem12 [31:0] $end
$var wire 32 0" mem11 [31:0] $end
$var wire 32 1" mem10 [31:0] $end
$var wire 32 2" mem1 [31:0] $end
$var wire 32 3" mem0 [31:0] $end
$var wire 32 4" instrucao [31:0] $end
$var wire 12 5" immediate [11:0] $end
$var wire 7 6" funct7 [6:0] $end
$var wire 3 7" funct3 [2:0] $end
$var wire 1 8" branch $end
$var wire 1 9" alusrc $end
$var wire 32 :" aluresult2 [31:0] $end
$var wire 1 ;" aluresult1 $end
$var wire 4 <" alucontrol [3:0] $end
$var wire 32 =" PC [31:0] $end
$var parameter 4 >" AUX1 $end
$var parameter 4 ?" AUX2 $end
$var parameter 4 @" AUX3 $end
$var parameter 4 A" AUX4 $end
$var parameter 4 B" EX $end
$var parameter 4 C" FIM $end
$var parameter 4 D" ID $end
$var parameter 4 E" IF $end
$var parameter 4 F" MEM $end
$var parameter 4 G" SUMPC $end
$var parameter 4 H" WB $end
$var reg 4 I" estado [3:0] $end
$scope module alu $end
$var wire 1 A clk $end
$var wire 4 J" estado [3:0] $end
$var wire 1 l pcsrc $end
$var wire 32 K" readdata2R [31:0] $end
$var wire 32 L" readdata1R [31:0] $end
$var wire 1 n negativo $end
$var wire 12 M" immediate [11:0] $end
$var wire 1 8" branch $end
$var wire 1 9" alusrc $end
$var wire 4 N" alucontrol [3:0] $end
$var reg 1 ;" aluresult1 $end
$var reg 32 O" aluresult2 [31:0] $end
$upscope $end
$scope module decodificacao $end
$var wire 1 A clk $end
$var wire 4 P" estado [3:0] $end
$var wire 32 Q" instrucao [31:0] $end
$var reg 3 R" funct3 [2:0] $end
$var reg 7 S" funct7 [6:0] $end
$var reg 12 T" immediate [11:0] $end
$var reg 1 n negativo $end
$var reg 7 U" opcode [6:0] $end
$var reg 5 V" rd [4:0] $end
$var reg 5 W" rs1 [4:0] $end
$var reg 5 X" rs2 [4:0] $end
$var reg 3 Y" tipo [2:0] $end
$upscope $end
$scope module lerinstrucao $end
$var wire 1 A clk $end
$var wire 4 Z" estado [3:0] $end
$var wire 32 [" PC [31:0] $end
$var reg 32 \" instrucao [31:0] $end
$upscope $end
$scope module memoria $end
$var wire 32 ]" aluresult2 [31:0] $end
$var wire 1 A clk $end
$var wire 4 ^" estado [3:0] $end
$var wire 12 _" immediate [11:0] $end
$var wire 32 `" readdata2R [31:0] $end
$var wire 1 o memwrite $end
$var wire 1 q memread $end
$var reg 32 a" mem0 [31:0] $end
$var reg 32 b" mem1 [31:0] $end
$var reg 32 c" mem10 [31:0] $end
$var reg 32 d" mem11 [31:0] $end
$var reg 32 e" mem12 [31:0] $end
$var reg 32 f" mem13 [31:0] $end
$var reg 32 g" mem14 [31:0] $end
$var reg 32 h" mem15 [31:0] $end
$var reg 32 i" mem16 [31:0] $end
$var reg 32 j" mem17 [31:0] $end
$var reg 32 k" mem18 [31:0] $end
$var reg 32 l" mem19 [31:0] $end
$var reg 32 m" mem2 [31:0] $end
$var reg 32 n" mem20 [31:0] $end
$var reg 32 o" mem21 [31:0] $end
$var reg 32 p" mem22 [31:0] $end
$var reg 32 q" mem23 [31:0] $end
$var reg 32 r" mem24 [31:0] $end
$var reg 32 s" mem25 [31:0] $end
$var reg 32 t" mem26 [31:0] $end
$var reg 32 u" mem27 [31:0] $end
$var reg 32 v" mem28 [31:0] $end
$var reg 32 w" mem29 [31:0] $end
$var reg 32 x" mem3 [31:0] $end
$var reg 32 y" mem30 [31:0] $end
$var reg 32 z" mem31 [31:0] $end
$var reg 32 {" mem4 [31:0] $end
$var reg 32 |" mem5 [31:0] $end
$var reg 32 }" mem6 [31:0] $end
$var reg 32 ~" mem7 [31:0] $end
$var reg 32 !# mem8 [31:0] $end
$var reg 32 "# mem9 [31:0] $end
$var reg 32 ## reddataM [31:0] $end
$var reg 32 $# writedataR [31:0] $end
$upscope $end
$scope module registradores $end
$var wire 1 A clk $end
$var wire 4 %# estado [3:0] $end
$var wire 5 &# rd [4:0] $end
$var wire 32 '# readdata1R [31:0] $end
$var wire 32 (# readdata2R [31:0] $end
$var wire 32 )# reddataM [31:0] $end
$var wire 5 *# rs1 [4:0] $end
$var wire 5 +# rs2 [4:0] $end
$var wire 32 ,# writedataR [31:0] $end
$var wire 1 G regiwrite $end
$var wire 1 p memtoreg $end
$var reg 32 -# reg0 [31:0] $end
$var reg 32 .# reg1 [31:0] $end
$var reg 32 /# reg10 [31:0] $end
$var reg 32 0# reg11 [31:0] $end
$var reg 32 1# reg12 [31:0] $end
$var reg 32 2# reg13 [31:0] $end
$var reg 32 3# reg14 [31:0] $end
$var reg 32 4# reg15 [31:0] $end
$var reg 32 5# reg16 [31:0] $end
$var reg 32 6# reg17 [31:0] $end
$var reg 32 7# reg18 [31:0] $end
$var reg 32 8# reg19 [31:0] $end
$var reg 32 9# reg2 [31:0] $end
$var reg 32 :# reg20 [31:0] $end
$var reg 32 ;# reg21 [31:0] $end
$var reg 32 <# reg22 [31:0] $end
$var reg 32 =# reg23 [31:0] $end
$var reg 32 ># reg24 [31:0] $end
$var reg 32 ?# reg25 [31:0] $end
$var reg 32 @# reg26 [31:0] $end
$var reg 32 A# reg27 [31:0] $end
$var reg 32 B# reg28 [31:0] $end
$var reg 32 C# reg29 [31:0] $end
$var reg 32 D# reg3 [31:0] $end
$var reg 32 E# reg30 [31:0] $end
$var reg 32 F# reg31 [31:0] $end
$var reg 32 G# reg4 [31:0] $end
$var reg 32 H# reg5 [31:0] $end
$var reg 32 I# reg6 [31:0] $end
$var reg 32 J# reg7 [31:0] $end
$var reg 32 K# reg8 [31:0] $end
$var reg 32 L# reg9 [31:0] $end
$upscope $end
$scope module sinaisdecontrole $end
$var wire 1 A clk $end
$var wire 4 M# estado [3:0] $end
$var wire 3 N# funct3 [2:0] $end
$var wire 7 O# funct7 [6:0] $end
$var wire 3 P# tipo [2:0] $end
$var reg 4 Q# alucontrol [3:0] $end
$var reg 2 R# aluop [1:0] $end
$var reg 1 9" alusrc $end
$var reg 1 8" branch $end
$var reg 1 q memread $end
$var reg 1 p memtoreg $end
$var reg 1 o memwrite $end
$var reg 1 G regiwrite $end
$upscope $end
$scope module somapc $end
$var wire 1 A clk $end
$var wire 4 S# estado [3:0] $end
$var wire 12 T# immediate [11:0] $end
$var wire 1 n negativo $end
$var wire 1 l pcsrc $end
$var reg 32 U# PC [31:0] $end
$upscope $end
$upscope $end
$upscope $end
$enddefinitions $end
$comment Show the parameter values. $end
$dumpall
b100 H"
b1000 G"
b11 F"
b0 E"
b1 D"
b1001 C"
b10 B"
b111 A"
b110 @"
b1111 ?"
b101 >"
$end
#0
$dumpvars
b0 U#
bx T#
b0 S#
bx R#
bx Q#
bx P#
bx O#
bx N#
b0 M#
b0 L#
b0 K#
b0 J#
b0 I#
b0 H#
b0 G#
b0 F#
b0 E#
b0 D#
b0 C#
b0 B#
b0 A#
b0 @#
b0 ?#
b0 >#
b0 =#
b0 <#
b0 ;#
b0 :#
b0 9#
b0 8#
b0 7#
b0 6#
b0 5#
b0 4#
b0 3#
b0 2#
b0 1#
b0 0#
b0 /#
b0 .#
b0 -#
bx ,#
bx +#
bx *#
bx )#
bx (#
bx '#
bx &#
b0 %#
bx $#
bx ##
b0 "#
b0 !#
b1 ~"
b0 }"
b0 |"
b0 {"
b0 z"
b0 y"
b111 x"
b0 w"
b0 v"
b0 u"
b0 t"
b0 s"
b0 r"
b0 q"
b0 p"
b0 o"
b0 n"
b0 m"
b0 l"
b0 k"
b0 j"
b0 i"
b0 h"
b0 g"
b0 f"
b0 e"
b0 d"
b0 c"
b1 b"
b11 a"
bx `"
bx _"
b0 ^"
bx ]"
bx \"
b0 ["
b0 Z"
bx Y"
bx X"
bx W"
bx V"
bx U"
bx T"
bx S"
bx R"
bx Q"
b0 P"
bx O"
bx N"
bx M"
bx L"
bx K"
b0 J"
b0 I"
b0 ="
bx <"
x;"
bx :"
x9"
x8"
bx 7"
bx 6"
bx 5"
bx 4"
b11 3"
b1 2"
b0 1"
b0 0"
b0 /"
b0 ."
b0 -"
b0 ,"
b0 +"
b0 *"
b0 )"
b0 ("
b0 '"
b0 &"
b0 %"
b0 $"
b0 #"
b0 ""
b0 !"
b0 ~
b0 }
b0 |
b0 {
b111 z
b0 y
b0 x
b0 w
b0 v
b0 u
b1 t
b0 s
b0 r
xq
xp
xo
xn
bx m
xl
bx k
bx j
bx i
bx h
b0 g
b0 f
b0 e
b0 d
b0 c
b0 b
b0 a
b0 `
b0 _
b0 ^
b0 ]
b0 \
b0 [
b0 Z
b0 Y
b0 X
b0 W
b0 V
b0 U
b0 T
b0 S
b0 R
b0 Q
b0 P
b0 O
b0 N
b0 M
b0 L
b0 K
b0 J
b0 I
b0 H
xG
bx F
bx E
bx D
bx C
0B
0A
b0 @
b0 ?
b0 >
b0 =
b0 <
b0 ;
b0 :
b0 9
b0 8
b0 7
b0 6
b0 5
b0 4
b0 3
b0 2
b0 1
b0 0
b0 /
b0 .
b0 -
b0 ,
b0 +
b0 *
b0 )
b0 (
b0 '
b0 &
b0 %
b0 $
b0 #
b0 "
b0 !
$end
#1
b10100111000001110010011 4"
b10100111000001110010011 Q"
b10100111000001110010011 \"
b1 I"
b1 J"
b1 P"
b1 Z"
b1 ^"
b1 %#
b1 M#
b1 S#
1A
#2
0A
#3
b1 D
b1 Y"
b1 P#
0n
b101 5"
b101 M"
b101 T"
b101 _"
b101 T#
b0 7"
b0 R"
b0 N#
b0 j
b0 L"
b0 '#
b111 F
b111 W"
b111 *#
b111 k
b111 V"
b111 &#
b10 I"
b10 J"
b10 P"
b10 Z"
b10 ^"
b10 %#
b10 M#
b10 S#
1A
#4
0A
#5
0l
19"
0p
08"
b11 <"
b11 N"
b11 Q#
b101 I"
b101 J"
b101 P"
b101 Z"
b101 ^"
b101 %#
b101 M#
b101 S#
1A
#6
0A
#7
0;"
b101 :"
b101 O"
b101 ]"
b1111 I"
b1111 J"
b1111 P"
b1111 Z"
b1111 ^"
b1111 %#
b1111 M#
b1111 S#
1A
#8
0A
#9
0q
0o
1G
b11 I"
b11 J"
b11 P"
b11 Z"
b11 ^"
b11 %#
b11 M#
b11 S#
1A
#10
0A
#11
b101 C
b101 $#
b101 ,#
b100 I"
b100 J"
b100 P"
b100 Z"
b100 ^"
b100 %#
b100 M#
b100 S#
1A
#12
0A
#13
b110 I"
b110 J"
b110 P"
b110 Z"
b110 ^"
b110 %#
b110 M#
b110 S#
1A
#14
0A
#15
b101 j
b101 L"
b101 '#
b111 I"
b111 J"
b111 P"
b111 Z"
b111 ^"
b111 %#
b111 M#
b111 S#
1A
#16
0A
#17
b101 #
b101 J
b101 J#
b1000 I"
b1000 J"
b1000 P"
b1000 Z"
b1000 ^"
b1000 %#
b1000 M#
b1000 S#
1A
#18
0A
#19
b1 ="
b1 ["
b1 U#
b0 I"
b0 J"
b0 P"
b0 Z"
b0 ^"
b0 %#
b0 M#
b0 S#
1A
#20
0A
#21
b11111111111100111000001110010011 4"
b11111111111100111000001110010011 Q"
b11111111111100111000001110010011 \"
b1 I"
b1 J"
b1 P"
b1 Z"
b1 ^"
b1 %#
b1 M#
b1 S#
1A
#22
0A
#23
1n
b1 5"
b1 M"
b1 T"
b1 _"
b1 T#
b10 I"
b10 J"
b10 P"
b10 Z"
b10 ^"
b10 %#
b10 M#
b10 S#
1A
#24
0A
#25
xq
xo
xG
b101 I"
b101 J"
b101 P"
b101 Z"
b101 ^"
b101 %#
b101 M#
b101 S#
1A
#26
0A
#27
b100 :"
b100 O"
b100 ]"
b1111 I"
b1111 J"
b1111 P"
b1111 Z"
b1111 ^"
b1111 %#
b1111 M#
b1111 S#
1A
#28
0A
#29
0q
0o
1G
b11 I"
b11 J"
b11 P"
b11 Z"
b11 ^"
b11 %#
b11 M#
b11 S#
1A
#30
0A
#31
b100 C
b100 $#
b100 ,#
b100 I"
b100 J"
b100 P"
b100 Z"
b100 ^"
b100 %#
b100 M#
b100 S#
1A
#32
0A
#33
b110 I"
b110 J"
b110 P"
b110 Z"
b110 ^"
b110 %#
b110 M#
b110 S#
1A
#34
0A
#35
b100 j
b100 L"
b100 '#
b111 I"
b111 J"
b111 P"
b111 Z"
b111 ^"
b111 %#
b111 M#
b111 S#
1A
#36
0A
#37
b100 #
b100 J
b100 J#
b1000 I"
b1000 J"
b1000 P"
b1000 Z"
b1000 ^"
b1000 %#
b1000 M#
b1000 S#
1A
#38
0A
#39
b10 ="
b10 ["
b10 U#
b0 I"
b0 J"
b0 P"
b0 Z"
b0 ^"
b0 %#
b0 M#
b0 S#
1A
#40
0A
#41
b11111110000000111001111011100011 4"
b11111110000000111001111011100011 Q"
b11111110000000111001111011100011 \"
b1 I"
b1 J"
b1 P"
b1 Z"
b1 ^"
b1 %#
b1 M#
b1 S#
1A
#42
0A
#43
b110 D
b110 Y"
b110 P#
b1 7"
b1 R"
b1 N#
b0 i
b0 K"
b0 `"
b0 (#
b0 E
b0 X"
b0 +#
b100 5"
b100 M"
b100 T"
b100 _"
b100 T#
b10 I"
b10 J"
b10 P"
b10 Z"
b10 ^"
b10 %#
b10 M#
b10 S#
1A
#44
0A
#45
18"
b110 <"
b110 N"
b110 Q#
xq
xo
xG
b101 I"
b101 J"
b101 P"
b101 Z"
b101 ^"
b101 %#
b101 M#
b101 S#
1A
#46
0A
#47
b1111 I"
b1111 J"
b1111 P"
b1111 Z"
b1111 ^"
b1111 %#
b1111 M#
b1111 S#
1A
#48
0A
#49
b1111 <"
b1111 N"
b1111 Q#
0q
0o
0G
b11 I"
b11 J"
b11 P"
b11 Z"
b11 ^"
b11 %#
b11 M#
b11 S#
1A
#50
0A
#51
b100 I"
b100 J"
b100 P"
b100 Z"
b100 ^"
b100 %#
b100 M#
b100 S#
1A
#52
0A
#53
b110 I"
b110 J"
b110 P"
b110 Z"
b110 ^"
b110 %#
b110 M#
b110 S#
1A
#54
0A
#55
1l
1;"
b111 I"
b111 J"
b111 P"
b111 Z"
b111 ^"
b111 %#
b111 M#
b111 S#
1A
#56
0A
#57
b1000 I"
b1000 J"
b1000 P"
b1000 Z"
b1000 ^"
b1000 %#
b1000 M#
b1000 S#
1A
#58
0A
#59
b1 ="
b1 ["
b1 U#
b0 I"
b0 J"
b0 P"
b0 Z"
b0 ^"
b0 %#
b0 M#
b0 S#
1A
#60
0A
#61
b11111111111100111000001110010011 4"
b11111111111100111000001110010011 Q"
b11111111111100111000001110010011 \"
b1 I"
b1 J"
b1 P"
b1 Z"
b1 ^"
b1 %#
b1 M#
b1 S#
1A
#62
0A
#63
b1 D
b1 Y"
b1 P#
b1 5"
b1 M"
b1 T"
b1 _"
b1 T#
b0 7"
b0 R"
b0 N#
b10 I"
b10 J"
b10 P"
b10 Z"
b10 ^"
b10 %#
b10 M#
b10 S#
1A
#64
0A
#65
0l
08"
b11 <"
b11 N"
b11 Q#
xq
xo
xG
b101 I"
b101 J"
b101 P"
b101 Z"
b101 ^"
b101 %#
b101 M#
b101 S#
1A
#66
0A
#67
0;"
b11 :"
b11 O"
b11 ]"
b1111 I"
b1111 J"
b1111 P"
b1111 Z"
b1111 ^"
b1111 %#
b1111 M#
b1111 S#
1A
#68
0A
#69
0q
0o
1G
b11 I"
b11 J"
b11 P"
b11 Z"
b11 ^"
b11 %#
b11 M#
b11 S#
1A
#70
0A
#71
b11 C
b11 $#
b11 ,#
b100 I"
b100 J"
b100 P"
b100 Z"
b100 ^"
b100 %#
b100 M#
b100 S#
1A
#72
0A
#73
b110 I"
b110 J"
b110 P"
b110 Z"
b110 ^"
b110 %#
b110 M#
b110 S#
1A
#74
0A
#75
b11 j
b11 L"
b11 '#
b111 I"
b111 J"
b111 P"
b111 Z"
b111 ^"
b111 %#
b111 M#
b111 S#
1A
#76
0A
#77
b11 #
b11 J
b11 J#
b1000 I"
b1000 J"
b1000 P"
b1000 Z"
b1000 ^"
b1000 %#
b1000 M#
b1000 S#
1A
#78
0A
#79
b10 ="
b10 ["
b10 U#
b0 I"
b0 J"
b0 P"
b0 Z"
b0 ^"
b0 %#
b0 M#
b0 S#
1A
#80
0A
#81
b11111110000000111001111011100011 4"
b11111110000000111001111011100011 Q"
b11111110000000111001111011100011 \"
b1 I"
b1 J"
b1 P"
b1 Z"
b1 ^"
b1 %#
b1 M#
b1 S#
1A
#82
0A
#83
b110 D
b110 Y"
b110 P#
b1 7"
b1 R"
b1 N#
b100 5"
b100 M"
b100 T"
b100 _"
b100 T#
b10 I"
b10 J"
b10 P"
b10 Z"
b10 ^"
b10 %#
b10 M#
b10 S#
1A
#84
0A
#85
18"
b110 <"
b110 N"
b110 Q#
xq
xo
xG
b101 I"
b101 J"
b101 P"
b101 Z"
b101 ^"
b101 %#
b101 M#
b101 S#
1A
#86
0A
#87
b1111 I"
b1111 J"
b1111 P"
b1111 Z"
b1111 ^"
b1111 %#
b1111 M#
b1111 S#
1A
#88
0A
#89
b1111 <"
b1111 N"
b1111 Q#
0q
0o
0G
b11 I"
b11 J"
b11 P"
b11 Z"
b11 ^"
b11 %#
b11 M#
b11 S#
1A
#90
0A
#91
b100 I"
b100 J"
b100 P"
b100 Z"
b100 ^"
b100 %#
b100 M#
b100 S#
1A
#92
0A
#93
b110 I"
b110 J"
b110 P"
b110 Z"
b110 ^"
b110 %#
b110 M#
b110 S#
1A
#94
0A
#95
1l
1;"
b111 I"
b111 J"
b111 P"
b111 Z"
b111 ^"
b111 %#
b111 M#
b111 S#
1A
#96
0A
#97
b1000 I"
b1000 J"
b1000 P"
b1000 Z"
b1000 ^"
b1000 %#
b1000 M#
b1000 S#
1A
#98
0A
#99
b1 ="
b1 ["
b1 U#
b0 I"
b0 J"
b0 P"
b0 Z"
b0 ^"
b0 %#
b0 M#
b0 S#
1A
#100
0A
#101
b11111111111100111000001110010011 4"
b11111111111100111000001110010011 Q"
b11111111111100111000001110010011 \"
b1 I"
b1 J"
b1 P"
b1 Z"
b1 ^"
b1 %#
b1 M#
b1 S#
1A
#102
0A
#103
b1 D
b1 Y"
b1 P#
b1 5"
b1 M"
b1 T"
b1 _"
b1 T#
b0 7"
b0 R"
b0 N#
b10 I"
b10 J"
b10 P"
b10 Z"
b10 ^"
b10 %#
b10 M#
b10 S#
1A
#104
0A
#105
0l
08"
b11 <"
b11 N"
b11 Q#
xq
xo
xG
b101 I"
b101 J"
b101 P"
b101 Z"
b101 ^"
b101 %#
b101 M#
b101 S#
1A
#106
0A
#107
0;"
b10 :"
b10 O"
b10 ]"
b1111 I"
b1111 J"
b1111 P"
b1111 Z"
b1111 ^"
b1111 %#
b1111 M#
b1111 S#
1A
#108
0A
#109
0q
0o
1G
b11 I"
b11 J"
b11 P"
b11 Z"
b11 ^"
b11 %#
b11 M#
b11 S#
1A
#110
0A
#111
b10 C
b10 $#
b10 ,#
b100 I"
b100 J"
b100 P"
b100 Z"
b100 ^"
b100 %#
b100 M#
b100 S#
1A
#112
0A
#113
b110 I"
b110 J"
b110 P"
b110 Z"
b110 ^"
b110 %#
b110 M#
b110 S#
1A
#114
0A
#115
b10 j
b10 L"
b10 '#
b111 I"
b111 J"
b111 P"
b111 Z"
b111 ^"
b111 %#
b111 M#
b111 S#
1A
#116
0A
#117
b10 #
b10 J
b10 J#
b1000 I"
b1000 J"
b1000 P"
b1000 Z"
b1000 ^"
b1000 %#
b1000 M#
b1000 S#
1A
#118
0A
#119
b10 ="
b10 ["
b10 U#
b0 I"
b0 J"
b0 P"
b0 Z"
b0 ^"
b0 %#
b0 M#
b0 S#
1A
#120
0A
#121
b11111110000000111001111011100011 4"
b11111110000000111001111011100011 Q"
b11111110000000111001111011100011 \"
b1 I"
b1 J"
b1 P"
b1 Z"
b1 ^"
b1 %#
b1 M#
b1 S#
1A
#122
0A
#123
b110 D
b110 Y"
b110 P#
b1 7"
b1 R"
b1 N#
b100 5"
b100 M"
b100 T"
b100 _"
b100 T#
b10 I"
b10 J"
b10 P"
b10 Z"
b10 ^"
b10 %#
b10 M#
b10 S#
1A
#124
0A
#125
18"
b110 <"
b110 N"
b110 Q#
xq
xo
xG
b101 I"
b101 J"
b101 P"
b101 Z"
b101 ^"
b101 %#
b101 M#
b101 S#
1A
#126
0A
#127
b1111 I"
b1111 J"
b1111 P"
b1111 Z"
b1111 ^"
b1111 %#
b1111 M#
b1111 S#
1A
#128
0A
#129
b1111 <"
b1111 N"
b1111 Q#
0q
0o
0G
b11 I"
b11 J"
b11 P"
b11 Z"
b11 ^"
b11 %#
b11 M#
b11 S#
1A
#130
0A
#131
b100 I"
b100 J"
b100 P"
b100 Z"
b100 ^"
b100 %#
b100 M#
b100 S#
1A
#132
0A
#133
b110 I"
b110 J"
b110 P"
b110 Z"
b110 ^"
b110 %#
b110 M#
b110 S#
1A
#134
0A
#135
1l
1;"
b111 I"
b111 J"
b111 P"
b111 Z"
b111 ^"
b111 %#
b111 M#
b111 S#
1A
#136
0A
#137
b1000 I"
b1000 J"
b1000 P"
b1000 Z"
b1000 ^"
b1000 %#
b1000 M#
b1000 S#
1A
#138
0A
#139
b1 ="
b1 ["
b1 U#
b0 I"
b0 J"
b0 P"
b0 Z"
b0 ^"
b0 %#
b0 M#
b0 S#
1A
#140
0A
#141
b11111111111100111000001110010011 4"
b11111111111100111000001110010011 Q"
b11111111111100111000001110010011 \"
b1 I"
b1 J"
b1 P"
b1 Z"
b1 ^"
b1 %#
b1 M#
b1 S#
1A
#142
0A
#143
b1 D
b1 Y"
b1 P#
b1 5"
b1 M"
b1 T"
b1 _"
b1 T#
b0 7"
b0 R"
b0 N#
b10 I"
b10 J"
b10 P"
b10 Z"
b10 ^"
b10 %#
b10 M#
b10 S#
1A
#144
0A
#145
0l
08"
b11 <"
b11 N"
b11 Q#
xq
xo
xG
b101 I"
b101 J"
b101 P"
b101 Z"
b101 ^"
b101 %#
b101 M#
b101 S#
1A
#146
0A
#147
0;"
b1 :"
b1 O"
b1 ]"
b1111 I"
b1111 J"
b1111 P"
b1111 Z"
b1111 ^"
b1111 %#
b1111 M#
b1111 S#
1A
#148
0A
#149
0q
0o
1G
b11 I"
b11 J"
b11 P"
b11 Z"
b11 ^"
b11 %#
b11 M#
b11 S#
1A
#150
0A
#151
b1 C
b1 $#
b1 ,#
b100 I"
b100 J"
b100 P"
b100 Z"
b100 ^"
b100 %#
b100 M#
b100 S#
1A
#152
0A
#153
b110 I"
b110 J"
b110 P"
b110 Z"
b110 ^"
b110 %#
b110 M#
b110 S#
1A
#154
0A
#155
b1 j
b1 L"
b1 '#
b111 I"
b111 J"
b111 P"
b111 Z"
b111 ^"
b111 %#
b111 M#
b111 S#
1A
#156
0A
#157
b1 #
b1 J
b1 J#
b1000 I"
b1000 J"
b1000 P"
b1000 Z"
b1000 ^"
b1000 %#
b1000 M#
b1000 S#
1A
#158
0A
#159
b10 ="
b10 ["
b10 U#
b0 I"
b0 J"
b0 P"
b0 Z"
b0 ^"
b0 %#
b0 M#
b0 S#
1A
#160
0A
#161
b11111110000000111001111011100011 4"
b11111110000000111001111011100011 Q"
b11111110000000111001111011100011 \"
b1 I"
b1 J"
b1 P"
b1 Z"
b1 ^"
b1 %#
b1 M#
b1 S#
1A
#162
0A
#163
b110 D
b110 Y"
b110 P#
b1 7"
b1 R"
b1 N#
b100 5"
b100 M"
b100 T"
b100 _"
b100 T#
b10 I"
b10 J"
b10 P"
b10 Z"
b10 ^"
b10 %#
b10 M#
b10 S#
1A
#164
0A
#165
18"
b110 <"
b110 N"
b110 Q#
xq
xo
xG
b101 I"
b101 J"
b101 P"
b101 Z"
b101 ^"
b101 %#
b101 M#
b101 S#
1A
#166
0A
#167
b1111 I"
b1111 J"
b1111 P"
b1111 Z"
b1111 ^"
b1111 %#
b1111 M#
b1111 S#
1A
#168
0A
#169
b1111 <"
b1111 N"
b1111 Q#
0q
0o
0G
b11 I"
b11 J"
b11 P"
b11 Z"
b11 ^"
b11 %#
b11 M#
b11 S#
1A
#170
0A
#171
b100 I"
b100 J"
b100 P"
b100 Z"
b100 ^"
b100 %#
b100 M#
b100 S#
1A
#172
0A
#173
b110 I"
b110 J"
b110 P"
b110 Z"
b110 ^"
b110 %#
b110 M#
b110 S#
1A
#174
0A
#175
1l
1;"
b111 I"
b111 J"
b111 P"
b111 Z"
b111 ^"
b111 %#
b111 M#
b111 S#
1A
#176
0A
#177
b1000 I"
b1000 J"
b1000 P"
b1000 Z"
b1000 ^"
b1000 %#
b1000 M#
b1000 S#
1A
#178
0A
#179
b1 ="
b1 ["
b1 U#
b0 I"
b0 J"
b0 P"
b0 Z"
b0 ^"
b0 %#
b0 M#
b0 S#
1A
#180
0A
#181
b11111111111100111000001110010011 4"
b11111111111100111000001110010011 Q"
b11111111111100111000001110010011 \"
b1 I"
b1 J"
b1 P"
b1 Z"
b1 ^"
b1 %#
b1 M#
b1 S#
1A
#182
0A
#183
b1 D
b1 Y"
b1 P#
b1 5"
b1 M"
b1 T"
b1 _"
b1 T#
b0 7"
b0 R"
b0 N#
b10 I"
b10 J"
b10 P"
b10 Z"
b10 ^"
b10 %#
b10 M#
b10 S#
1A
#184
0A
#185
0l
08"
b11 <"
b11 N"
b11 Q#
xq
xo
xG
b101 I"
b101 J"
b101 P"
b101 Z"
b101 ^"
b101 %#
b101 M#
b101 S#
1A
#186
0A
