FPGA/testbench.vcd
$date
	Mon Jun 12 14:08:45 2023
$end
$version
	Icarus Verilog
$end
$timescale
	1s
$end
$scope module caminho_tb $end
$var wire 32 ! reg9 [31:0] $end
$var wire 32 " reg8 [31:0] $end
$var wire 32 # reg7 [31:0] $end
$var wire 32 $ reg6 [31:0] $end
$var wire 32 % reg5 [31:0] $end
$var wire 32 & reg4 [31:0] $end
$var wire 32 ' reg31 [31:0] $end
$var wire 32 ( reg30 [31:0] $end
$var wire 32 ) reg3 [31:0] $end
$var wire 32 * reg29 [31:0] $end
$var wire 32 + reg28 [31:0] $end
$var wire 32 , reg27 [31:0] $end
$var wire 32 - reg26 [31:0] $end
$var wire 32 . reg25 [31:0] $end
$var wire 32 / reg24 [31:0] $end
$var wire 32 0 reg23 [31:0] $end
$var wire 32 1 reg22 [31:0] $end
$var wire 32 2 reg21 [31:0] $end
$var wire 32 3 reg20 [31:0] $end
$var wire 32 4 reg2 [31:0] $end
$var wire 32 5 reg19 [31:0] $end
$var wire 32 6 reg18 [31:0] $end
$var wire 32 7 reg17 [31:0] $end
$var wire 32 8 reg16 [31:0] $end
$var wire 32 9 reg15 [31:0] $end
$var wire 32 : reg14 [31:0] $end
$var wire 32 ; reg13 [31:0] $end
$var wire 32 < reg12 [31:0] $end
$var wire 32 = reg11 [31:0] $end
$var wire 32 > reg10 [31:0] $end
$var wire 32 ? reg1 [31:0] $end
$var wire 32 @ reg0 [31:0] $end
$var wire 32 A mem9 [31:0] $end
$var wire 32 B mem8 [31:0] $end
$var wire 32 C mem7 [31:0] $end
$var wire 32 D mem6 [31:0] $end
$var wire 32 E mem5 [31:0] $end
$var wire 32 F mem4 [31:0] $end
$var wire 32 G mem31 [31:0] $end
$var wire 32 H mem30 [31:0] $end
$var wire 32 I mem3 [31:0] $end
$var wire 32 J mem29 [31:0] $end
$var wire 32 K mem28 [31:0] $end
$var wire 32 L mem27 [31:0] $end
$var wire 32 M mem26 [31:0] $end
$var wire 32 N mem25 [31:0] $end
$var wire 32 O mem24 [31:0] $end
$var wire 32 P mem23 [31:0] $end
$var wire 32 Q mem22 [31:0] $end
$var wire 32 R mem21 [31:0] $end
$var wire 32 S mem20 [31:0] $end
$var wire 32 T mem2 [31:0] $end
$var wire 32 U mem19 [31:0] $end
$var wire 32 V mem18 [31:0] $end
$var wire 32 W mem17 [31:0] $end
$var wire 32 X mem16 [31:0] $end
$var wire 32 Y mem15 [31:0] $end
$var wire 32 Z mem14 [31:0] $end
$var wire 32 [ mem13 [31:0] $end
$var wire 32 \ mem12 [31:0] $end
$var wire 32 ] mem11 [31:0] $end
$var wire 32 ^ mem10 [31:0] $end
$var wire 32 _ mem1 [31:0] $end
$var wire 32 ` mem0 [31:0] $end
$var wire 4 a final [3:0] $end
$var wire 7 b display5 [6:0] $end
$var wire 7 c display4 [6:0] $end
$var wire 7 d display3 [6:0] $end
$var wire 7 e display2 [6:0] $end
$var wire 7 f display1 [6:0] $end
$var reg 1 g clk_tb $end
$var reg 1 h rst_tb $end
$scope module main $end
$var wire 1 g clk $end
$var wire 1 h rst $end
$var wire 32 i writedataR [31:0] $end
$var wire 3 j tipo [2:0] $end
$var wire 5 k rs2 [4:0] $end
$var wire 5 l rs1 [4:0] $end
$var wire 1 m regiwrite $end
$var wire 32 n reg9 [31:0] $end
$var wire 32 o reg8 [31:0] $end
$var wire 32 p reg7 [31:0] $end
$var wire 32 q reg6 [31:0] $end
$var wire 32 r reg5 [31:0] $end
$var wire 32 s reg4 [31:0] $end
$var wire 32 t reg31 [31:0] $end
$var wire 32 u reg30 [31:0] $end
$var wire 32 v reg3 [31:0] $end
$var wire 32 w reg29 [31:0] $end
$var wire 32 x reg28 [31:0] $end
$var wire 32 y reg27 [31:0] $end
$var wire 32 z reg26 [31:0] $end
$var wire 32 { reg25 [31:0] $end
$var wire 32 | reg24 [31:0] $end
$var wire 32 } reg23 [31:0] $end
$var wire 32 ~ reg22 [31:0] $end
$var wire 32 !" reg21 [31:0] $end
$var wire 32 "" reg20 [31:0] $end
$var wire 32 #" reg2 [31:0] $end
$var wire 32 $" reg19 [31:0] $end
$var wire 32 %" reg18 [31:0] $end
$var wire 32 &" reg17 [31:0] $end
$var wire 32 '" reg16 [31:0] $end
$var wire 32 (" reg15 [31:0] $end
$var wire 32 )" reg14 [31:0] $end
$var wire 32 *" reg13 [31:0] $end
$var wire 32 +" reg12 [31:0] $end
$var wire 32 ," reg11 [31:0] $end
$var wire 32 -" reg10 [31:0] $end
$var wire 32 ." reg1 [31:0] $end
$var wire 32 /" reg0 [31:0] $end
$var wire 32 0" reddataM [31:0] $end
$var wire 32 1" readdata2R [31:0] $end
$var wire 32 2" readdata1R [31:0] $end
$var wire 5 3" rd [4:0] $end
$var wire 1 4" pcsrc $end
$var wire 32 5" pc [31:0] $end
$var wire 7 6" opcode [6:0] $end
$var wire 1 7" negativo $end
$var wire 1 8" memwrite $end
$var wire 1 9" memtoreg $end
$var wire 1 :" memread $end
$var wire 32 ;" mem9 [31:0] $end
$var wire 32 <" mem8 [31:0] $end
$var wire 32 =" mem7 [31:0] $end
$var wire 32 >" mem6 [31:0] $end
$var wire 32 ?" mem5 [31:0] $end
$var wire 32 @" mem4 [31:0] $end
$var wire 32 A" mem31 [31:0] $end
$var wire 32 B" mem30 [31:0] $end
$var wire 32 C" mem3 [31:0] $end
$var wire 32 D" mem29 [31:0] $end
$var wire 32 E" mem28 [31:0] $end
$var wire 32 F" mem27 [31:0] $end
$var wire 32 G" mem26 [31:0] $end
$var wire 32 H" mem25 [31:0] $end
$var wire 32 I" mem24 [31:0] $end
$var wire 32 J" mem23 [31:0] $end
$var wire 32 K" mem22 [31:0] $end
$var wire 32 L" mem21 [31:0] $end
$var wire 32 M" mem20 [31:0] $end
$var wire 32 N" mem2 [31:0] $end
$var wire 32 O" mem19 [31:0] $end
$var wire 32 P" mem18 [31:0] $end
$var wire 32 Q" mem17 [31:0] $end
$var wire 32 R" mem16 [31:0] $end
$var wire 32 S" mem15 [31:0] $end
$var wire 32 T" mem14 [31:0] $end
$var wire 32 U" mem13 [31:0] $end
$var wire 32 V" mem12 [31:0] $end
$var wire 32 W" mem11 [31:0] $end
$var wire 32 X" mem10 [31:0] $end
$var wire 32 Y" mem1 [31:0] $end
$var wire 32 Z" mem0 [31:0] $end
$var wire 32 [" instrucao [31:0] $end
$var wire 12 \" immediate [11:0] $end
$var wire 7 ]" funct7 [6:0] $end
$var wire 3 ^" funct3 [2:0] $end
$var wire 7 _" display5 [6:0] $end
$var wire 7 `" display4 [6:0] $end
$var wire 7 a" display3 [6:0] $end
$var wire 7 b" display2 [6:0] $end
$var wire 7 c" display1 [6:0] $end
$var wire 1 d" branch $end
$var wire 1 e" alusrc $end
$var wire 32 f" aluresult2 [31:0] $end
$var wire 1 g" aluresult1 $end
$var wire 4 h" alucontrol [3:0] $end
$var reg 4 i" estado [3:0] $end
$var reg 4 j" final [3:0] $end
$scope module alu $end
$var wire 1 g clk $end
$var wire 4 k" estado [3:0] $end
$var wire 1 4" pcsrc $end
$var wire 32 l" readdata2R [31:0] $end
$var wire 32 m" readdata1R [31:0] $end
$var wire 1 7" negativo $end
$var wire 12 n" immediate [11:0] $end
$var wire 1 d" branch $end
$var wire 1 e" alusrc $end
$var wire 4 o" alucontrol [3:0] $end
$var reg 1 g" aluresult1 $end
$var reg 32 p" aluresult2 [31:0] $end
$upscope $end
$scope module decodificacao $end
$var wire 1 g clk $end
$var wire 4 q" estado [3:0] $end
$var wire 32 r" instrucao [31:0] $end
$var reg 3 s" funct3 [2:0] $end
$var reg 7 t" funct7 [6:0] $end
$var reg 12 u" immediate [11:0] $end
$var reg 1 7" negativo $end
$var reg 7 v" opcode [6:0] $end
$var reg 5 w" rd [4:0] $end
$var reg 5 x" rs1 [4:0] $end
$var reg 5 y" rs2 [4:0] $end
$var reg 3 z" tipo [2:0] $end
$upscope $end
$scope module display $end
$var wire 4 {" final [3:0] $end
$var wire 4 |" pc1 [3:0] $end
$var wire 4 }" pc2 [3:0] $end
$var wire 4 ~" x5part1 [3:0] $end
$var wire 4 !# x5part2 [3:0] $end
$var reg 7 "# display1 [6:0] $end
$var reg 7 ## display2 [6:0] $end
$var reg 7 $# display3 [6:0] $end
$var reg 7 %# display4 [6:0] $end
$var reg 7 &# display5 [6:0] $end
$upscope $end
$scope module lerinstrucao $end
$var wire 1 g clk $end
$var wire 4 '# estado [3:0] $end
$var wire 1 h rst $end
$var wire 32 (# pc [31:0] $end
$var reg 32 )# instrucao [31:0] $end
$upscope $end
$scope module memoria $end
$var wire 32 *# aluresult2 [31:0] $end
$var wire 1 g clk $end
$var wire 4 +# estado [3:0] $end
$var wire 12 ,# immediate [11:0] $end
$var wire 1 h rst $end
$var wire 32 -# readdata2R [31:0] $end
$var wire 1 8" memwrite $end
$var wire 1 :" memread $end
$var reg 32 .# mem0 [31:0] $end
$var reg 32 /# mem1 [31:0] $end
$var reg 32 0# mem10 [31:0] $end
$var reg 32 1# mem11 [31:0] $end
$var reg 32 2# mem12 [31:0] $end
$var reg 32 3# mem13 [31:0] $end
$var reg 32 4# mem14 [31:0] $end
$var reg 32 5# mem15 [31:0] $end
$var reg 32 6# mem16 [31:0] $end
$var reg 32 7# mem17 [31:0] $end
$var reg 32 8# mem18 [31:0] $end
$var reg 32 9# mem19 [31:0] $end
$var reg 32 :# mem2 [31:0] $end
$var reg 32 ;# mem20 [31:0] $end
$var reg 32 <# mem21 [31:0] $end
$var reg 32 =# mem22 [31:0] $end
$var reg 32 ># mem23 [31:0] $end
$var reg 32 ?# mem24 [31:0] $end
$var reg 32 @# mem25 [31:0] $end
$var reg 32 A# mem26 [31:0] $end
$var reg 32 B# mem27 [31:0] $end
$var reg 32 C# mem28 [31:0] $end
$var reg 32 D# mem29 [31:0] $end
$var reg 32 E# mem3 [31:0] $end
$var reg 32 F# mem30 [31:0] $end
$var reg 32 G# mem31 [31:0] $end
$var reg 32 H# mem4 [31:0] $end
$var reg 32 I# mem5 [31:0] $end
$var reg 32 J# mem6 [31:0] $end
$var reg 32 K# mem7 [31:0] $end
$var reg 32 L# mem8 [31:0] $end
$var reg 32 M# mem9 [31:0] $end
$var reg 32 N# reddataM [31:0] $end
$var reg 32 O# writedataR [31:0] $end
$upscope $end
$scope module registradores $end
$var wire 1 g clk $end
$var wire 4 P# estado [3:0] $end
$var wire 5 Q# rd [4:0] $end
$var wire 32 R# readdata1R [31:0] $end
$var wire 32 S# readdata2R [31:0] $end
$var wire 32 T# reddataM [31:0] $end
$var wire 5 U# rs1 [4:0] $end
$var wire 5 V# rs2 [4:0] $end
$var wire 1 h rst $end
$var wire 32 W# writedataR [31:0] $end
$var wire 1 m regiwrite $end
$var wire 1 9" memtoreg $end
$var reg 32 X# reg0 [31:0] $end
$var reg 32 Y# reg1 [31:0] $end
$var reg 32 Z# reg10 [31:0] $end
$var reg 32 [# reg11 [31:0] $end
$var reg 32 \# reg12 [31:0] $end
$var reg 32 ]# reg13 [31:0] $end
$var reg 32 ^# reg14 [31:0] $end
$var reg 32 _# reg15 [31:0] $end
$var reg 32 `# reg16 [31:0] $end
$var reg 32 a# reg17 [31:0] $end
$var reg 32 b# reg18 [31:0] $end
$var reg 32 c# reg19 [31:0] $end
$var reg 32 d# reg2 [31:0] $end
$var reg 32 e# reg20 [31:0] $end
$var reg 32 f# reg21 [31:0] $end
$var reg 32 g# reg22 [31:0] $end
$var reg 32 h# reg23 [31:0] $end
$var reg 32 i# reg24 [31:0] $end
$var reg 32 j# reg25 [31:0] $end
$var reg 32 k# reg26 [31:0] $end
$var reg 32 l# reg27 [31:0] $end
$var reg 32 m# reg28 [31:0] $end
$var reg 32 n# reg29 [31:0] $end
$var reg 32 o# reg3 [31:0] $end
$var reg 32 p# reg30 [31:0] $end
$var reg 32 q# reg31 [31:0] $end
$var reg 32 r# reg4 [31:0] $end
$var reg 32 s# reg5 [31:0] $end
$var reg 32 t# reg6 [31:0] $end
$var reg 32 u# reg7 [31:0] $end
$var reg 32 v# reg8 [31:0] $end
$var reg 32 w# reg9 [31:0] $end
$upscope $end
$scope module sinaisdecontrole $end
$var wire 1 g clk $end
$var wire 4 x# estado [3:0] $end
$var wire 3 y# funct3 [2:0] $end
$var wire 7 z# funct7 [6:0] $end
$var wire 3 {# tipo [2:0] $end
$var reg 4 |# alucontrol [3:0] $end
$var reg 1 e" alusrc $end
$var reg 1 d" branch $end
$var reg 1 :" memread $end
$var reg 1 9" memtoreg $end
$var reg 1 8" memwrite $end
$var reg 1 m regiwrite $end
$upscope $end
$scope module somapc $end
$var wire 1 g clk $end
$var wire 4 }# estado [3:0] $end
$var wire 12 ~# immediate [11:0] $end
$var wire 1 7" negativo $end
$var wire 1 4" pcsrc $end
$var wire 1 h rst $end
$var reg 32 !$ pc [31:0] $end
$upscope $end
$upscope $end
$upscope $end
$enddefinitions $end
#0
$dumpvars
bx !$
bx ~#
b0 }#
bx |#
bx {#
bx z#
bx y#
b0 x#
bx w#
bx v#
bx u#
bx t#
bx s#
bx r#
bx q#
bx p#
bx o#
bx n#
bx m#
bx l#
bx k#
bx j#
bx i#
bx h#
bx g#
bx f#
bx e#
bx d#
bx c#
bx b#
bx a#
bx `#
bx _#
bx ^#
bx ]#
bx \#
bx [#
bx Z#
bx Y#
bx X#
bx W#
bx V#
bx U#
bx T#
bx S#
bx R#
bx Q#
b0 P#
bx O#
bx N#
bx M#
bx L#
bx K#
bx J#
bx I#
bx H#
bx G#
bx F#
bx E#
bx D#
bx C#
bx B#
bx A#
bx @#
bx ?#
bx >#
bx =#
bx <#
bx ;#
bx :#
bx 9#
bx 8#
bx 7#
bx 6#
bx 5#
bx 4#
bx 3#
bx 2#
bx 1#
bx 0#
bx /#
bx .#
bx -#
bx ,#
b0 +#
bx *#
bx )#
bx (#
b0 '#
bx &#
bx %#
bx $#
bx ##
bx "#
bx !#
bx ~"
bx }"
bx |"
bx {"
bx z"
bx y"
bx x"
bx w"
bx v"
bx u"
bx t"
bx s"
bx r"
b0 q"
bx p"
bx o"
bx n"
bx m"
bx l"
b0 k"
bx j"
b0 i"
bx h"
xg"
bx f"
xe"
xd"
bx c"
bx b"
bx a"
bx `"
bx _"
bx ^"
bx ]"
bx \"
bx ["
bx Z"
bx Y"
bx X"
bx W"
bx V"
bx U"
bx T"
bx S"
bx R"
bx Q"
bx P"
bx O"
bx N"
bx M"
bx L"
bx K"
bx J"
bx I"
bx H"
bx G"
bx F"
bx E"
bx D"
bx C"
bx B"
bx A"
bx @"
bx ?"
bx >"
bx ="
bx <"
bx ;"
x:"
x9"
x8"
x7"
bx 6"
bx 5"
x4"
bx 3"
bx 2"
bx 1"
bx 0"
bx /"
bx ."
bx -"
bx ,"
bx +"
bx *"
bx )"
bx ("
bx '"
bx &"
bx %"
bx $"
bx #"
bx ""
bx !"
bx ~
bx }
bx |
bx {
bx z
bx y
bx x
bx w
bx v
bx u
bx t
bx s
bx r
bx q
bx p
bx o
bx n
xm
bx l
bx k
bx j
bx i
1h
0g
bx f
bx e
bx d
bx c
bx b
bx a
bx `
bx _
bx ^
bx ]
bx \
bx [
bx Z
bx Y
bx X
bx W
bx V
bx U
bx T
bx S
bx R
bx Q
bx P
bx O
bx N
bx M
bx L
bx K
bx J
bx I
bx H
bx G
bx F
bx E
bx D
bx C
bx B
bx A
bx @
bx ?
bx >
bx =
bx <
bx ;
bx :
bx 9
bx 8
bx 7
bx 6
bx 5
bx 4
bx 3
bx 2
bx 1
bx 0
bx /
bx .
bx -
bx ,
bx +
bx *
bx )
bx (
bx '
bx &
bx %
bx $
bx #
bx "
bx !
$end
#1
b0 }"
b0 |"
b1000000 b
b1000000 _"
b1000000 &#
b1111111 c
b1111111 `"
b1111111 %#
b1111111 d
b1111111 a"
b1111111 $#
b1000000 e
b1000000 b"
b1000000 ##
b1000000 f
b1000000 c"
b1000000 "#
b0 5"
b0 (#
b0 !$
b0 a
b0 j"
b0 {"
1g
#2
0g
#3
b1010000000000011 ["
b1010000000000011 r"
b1010000000000011 )#
1g
#4
0g
#5
b1 i"
b1 k"
b1 q"
b1 '#
b1 +#
b1 P#
b1 x#
b1 }#
1g
0h
#6
0g
#7
b10 i"
b10 k"
b10 q"
b10 '#
b10 +#
b10 P#
b10 x#
b10 }#
b0 j
b0 z"
b0 {#
07"
b0 \"
b0 n"
b0 u"
b0 ,#
b0 ~#
b10 ^"
b10 s"
b10 y#
b0 2"
b0 m"
b0 R#
b1 l
b1 x"
b1 U#
b0 3"
b0 w"
b0 Q#
1g
#8
0g
#9
04"
1e"
19"
0d"
b10 h"
b10 o"
b10 |#
b101 i"
b101 k"
b101 q"
b101 '#
b101 +#
b101 P#
b101 x#
b101 }#
1g
#10
0g
#11
b1111 i"
b1111 k"
b1111 q"
b1111 '#
b1111 +#
b1111 P#
b1111 x#
b1111 }#
0g"
b0 f"
b0 p"
b0 *#
1g
#12
0g
#13
1:"
08"
1m
b11 i"
b11 k"
b11 q"
b11 '#
b11 +#
b11 P#
b11 x#
b11 }#
1g
#14
0g
#15
b100 i"
b100 k"
b100 q"
b100 '#
b100 +#
b100 P#
b100 x#
b100 }#
b0 G
b0 A"
b0 G#
b0 H
b0 B"
b0 F#
b0 J
b0 D"
b0 D#
b0 K
b0 E"
b0 C#
b0 L
b0 F"
b0 B#
b0 M
b0 G"
b0 A#
b0 N
b0 H"
b0 @#
b0 O
b0 I"
b0 ?#
b0 P
b0 J"
b0 >#
b0 Q
b0 K"
b0 =#
b0 R
b0 L"
b0 <#
b0 S
b0 M"
b0 ;#
b0 U
b0 O"
b0 9#
b0 V
b0 P"
b0 8#
b0 W
b0 Q"
b0 7#
b0 X
b0 R"
b0 6#
b0 Y
b0 S"
b0 5#
b0 Z
b0 T"
b0 4#
b0 [
b0 U"
b0 3#
b0 \
b0 V"
b0 2#
b0 ]
b0 W"
b0 1#
b0 ^
b0 X"
b0 0#
b0 A
b0 ;"
b0 M#
b0 B
b0 <"
b0 L#
b0 C
b0 ="
b0 K#
b0 D
b0 >"
b0 J#
b0 E
b0 ?"
b0 I#
b0 F
b0 @"
b0 H#
b0 I
b0 C"
b0 E#
b0 T
b0 N"
b0 :#
b0 _
b0 Y"
b0 /#
b0 `
b0 Z"
b0 .#
b0 i
b0 O#
b0 W#
b0 0"
b0 N#
b0 T#
1g
#16
0g
#17
b110 i"
b110 k"
b110 q"
b110 '#
b110 +#
b110 P#
b110 x#
b110 }#
1g
#18
0g
#19
b1000000 c
b1000000 `"
b1000000 %#
b1000000 d
b1000000 a"
b1000000 $#
b0 !#
b0 ~"
b111 i"
b111 k"
b111 q"
b111 '#
b111 +#
b111 P#
b111 x#
b111 }#
b0 '
b0 t
b0 q#
b0 (
b0 u
b0 p#
b0 *
b0 w
b0 n#
b0 +
b0 x
b0 m#
b0 ,
b0 y
b0 l#
b0 -
b0 z
b0 k#
b0 .
b0 {
b0 j#
b0 /
b0 |
b0 i#
b0 0
b0 }
b0 h#
b0 1
b0 ~
b0 g#
b0 2
b0 !"
b0 f#
b0 3
b0 ""
b0 e#
b0 5
b0 $"
b0 c#
b0 6
b0 %"
b0 b#
b0 7
b0 &"
b0 a#
b0 8
b0 '"
b0 `#
b0 9
b0 ("
b0 _#
b0 :
b0 )"
b0 ^#
b0 ;
b0 *"
b0 ]#
b0 <
b0 +"
b0 \#
b0 =
b0 ,"
b0 [#
b0 >
b0 -"
b0 Z#
b0 !
b0 n
b0 w#
b0 "
b0 o
b0 v#
b0 #
b0 p
b0 u#
b0 $
b0 q
b0 t#
b0 %
b0 r
b0 s#
b0 &
b0 s
b0 r#
b0 )
b0 v
b0 o#
b0 4
b0 #"
b0 d#
b0 ?
b0 ."
b0 Y#
b0 @
b0 /"
b0 X#
1g
#20
0g
#21
b1000 i"
b1000 k"
b1000 q"
b1000 '#
b1000 +#
b1000 P#
b1000 x#
b1000 }#
1g
#22
0g
#23
b1111001 f
b1111001 c"
b1111001 "#
b1 |"
b0 i"
b0 k"
b0 q"
b0 '#
b0 +#
b0 P#
b0 x#
b0 }#
b1 5"
b1 (#
b1 !$
1g
#24
0g
#25
b1000011010001000100011 ["
b1000011010001000100011 r"
b1000011010001000100011 )#
b1 i"
b1 k"
b1 q"
b1 '#
b1 +#
b1 P#
b1 x#
b1 }#
1g
#26
0g
#27
b10 i"
b10 k"
b10 q"
b10 '#
b10 +#
b10 P#
b10 x#
b10 }#
b10 j
b10 z"
b10 {#
b0 1"
b0 l"
b0 -#
b0 S#
b10 k
b10 y"
b10 V#
b11 l
b11 x"
b11 U#
b100 \"
b100 n"
b100 u"
b100 ,#
b100 ~#
1g
#28
0g
#29
x:"
x8"
xm
b101 i"
b101 k"
b101 q"
b101 '#
b101 +#
b101 P#
b101 x#
b101 }#
1g
#30
0g
#31
b1111 i"
b1111 k"
b1111 q"
b1111 '#
b1111 +#
b1111 P#
b1111 x#
b1111 }#
b1 f"
b1 p"
b1 *#
1g
#32
0g
#33
0:"
18"
0m
b11 i"
b11 k"
b11 q"
b11 '#
b11 +#
b11 P#
b11 x#
b11 }#
1g
#34
0g
#35
b100 i"
b100 k"
b100 q"
b100 '#
b100 +#
b100 P#
b100 x#
b100 }#
b1 i
b1 O#
b1 W#
1g
#36
0g
#37
b110 i"
b110 k"
b110 q"
b110 '#
b110 +#
b110 P#
b110 x#
b110 }#
1g
#38
0g
#39
b111 i"
b111 k"
b111 q"
b111 '#
b111 +#
b111 P#
b111 x#
b111 }#
1g
#40
0g
#41
b1000 i"
b1000 k"
b1000 q"
b1000 '#
b1000 +#
b1000 P#
b1000 x#
b1000 }#
1g
#42
0g
#43
b100100 f
b100100 c"
b100100 "#
b10 |"
b0 i"
b0 k"
b0 q"
b0 '#
b0 +#
b0 P#
b0 x#
b0 }#
b10 5"
b10 (#
b10 !$
1g
#44
0g
#45
b1000000010100101000001010110011 ["
b1000000010100101000001010110011 r"
b1000000010100101000001010110011 )#
b1 i"
b1 k"
b1 q"
b1 '#
b1 +#
b1 P#
b1 x#
b1 }#
1g
#46
0g
#47
b10 i"
b10 k"
b10 q"
b10 '#
b10 +#
b10 P#
b10 x#
b10 }#
b11 j
b11 z"
b11 {#
b0 ^"
b0 s"
b0 y#
b101 3"
b101 w"
b101 Q#
b101 l
b101 x"
b101 U#
b101 k
b101 y"
b101 V#
b100000 ]"
b100000 t"
b100000 z#
1g
#48
0g
#49
0e"
09"
b110 h"
b110 o"
b110 |#
x:"
x8"
xm
b101 i"
b101 k"
b101 q"
b101 '#
b101 +#
b101 P#
b101 x#
b101 }#
1g
#50
0g
#51
b1111 i"
b1111 k"
b1111 q"
b1111 '#
b1111 +#
b1111 P#
b1111 x#
b1111 }#
b0 f"
b0 p"
b0 *#
1g
#52
0g
#53
0:"
08"
1m
b11 i"
b11 k"
b11 q"
b11 '#
b11 +#
b11 P#
b11 x#
b11 }#
1g
#54
0g
#55
b100 i"
b100 k"
b100 q"
b100 '#
b100 +#
b100 P#
b100 x#
b100 }#
b0 i
b0 O#
b0 W#
1g
#56
0g
#57
b110 i"
b110 k"
b110 q"
b110 '#
b110 +#
b110 P#
b110 x#
b110 }#
1g
#58
0g
#59
b111 i"
b111 k"
b111 q"
b111 '#
b111 +#
b111 P#
b111 x#
b111 }#
1g
#60
0g
#61
b1000 i"
b1000 k"
b1000 q"
b1000 '#
b1000 +#
b1000 P#
b1000 x#
b1000 }#
1g
#62
0g
#63
b110000 f
b110000 c"
b110000 "#
b11 |"
b0 i"
b0 k"
b0 q"
b0 '#
b0 +#
b0 P#
b0 x#
b0 }#
b11 5"
b11 (#
b11 !$
1g
#64
0g
#65
b11000110100001100110011 ["
b11000110100001100110011 r"
b11000110100001100110011 )#
b1 i"
b1 k"
b1 q"
b1 '#
b1 +#
b1 P#
b1 x#
b1 }#
1g
#66
0g
#67
b10 i"
b10 k"
b10 q"
b10 '#
b10 +#
b10 P#
b10 x#
b10 }#
b100 ^"
b100 s"
b100 y#
b110 3"
b110 w"
b110 Q#
b110 l
b110 x"
b110 U#
b110 k
b110 y"
b110 V#
b0 ]"
b0 t"
b0 z#
1g
#68
0g
#69
b100 h"
b100 o"
b100 |#
x:"
x8"
xm
b101 i"
b101 k"
b101 q"
b101 '#
b101 +#
b101 P#
b101 x#
b101 }#
1g
#70
0g
#71
b1111 i"
b1111 k"
b1111 q"
b1111 '#
b1111 +#
b1111 P#
b1111 x#
b1111 }#
1g
#72
0g
#73
0:"
08"
1m
b11 i"
b11 k"
b11 q"
b11 '#
b11 +#
b11 P#
b11 x#
b11 }#
1g
#74
0g
#75
b100 i"
b100 k"
b100 q"
b100 '#
b100 +#
b100 P#
b100 x#
b100 }#
1g
#76
0g
#77
b110 i"
b110 k"
b110 q"
b110 '#
b110 +#
b110 P#
b110 x#
b110 }#
1g
#78
0g
#79
b111 i"
b111 k"
b111 q"
b111 '#
b111 +#
b111 P#
b111 x#
b111 }#
1g
#80
0g
#81
b1000 i"
b1000 k"
b1000 q"
b1000 '#
b1000 +#
b1000 P#
b1000 x#
b1000 }#
1g
#82
0g
#83
b11001 f
b11001 c"
b11001 "#
b100 |"
b0 i"
b0 k"
b0 q"
b0 '#
b0 +#
b0 P#
b0 x#
b0 }#
b100 5"
b100 (#
b100 !$
1g
#84
0g
#85
b101000101000001010010011 ["
b101000101000001010010011 r"
b101000101000001010010011 )#
b1 i"
b1 k"
b1 q"
b1 '#
b1 +#
b1 P#
b1 x#
b1 }#
1g
#86
0g
#87
b10 i"
b10 k"
b10 q"
b10 '#
b10 +#
b10 P#
b10 x#
b10 }#
b1 j
b1 z"
b1 {#
b1010 \"
b1010 n"
b1010 u"
b1010 ,#
b1010 ~#
b0 ^"
b0 s"
b0 y#
b101 l
b101 x"
b101 U#
b101 3"
b101 w"
b101 Q#
1g
#88
0g
#89
1e"
b11 h"
b11 o"
b11 |#
x:"
x8"
xm
b101 i"
b101 k"
b101 q"
b101 '#
b101 +#
b101 P#
b101 x#
b101 }#
1g
#90
0g
#91
b1111 i"
b1111 k"
b1111 q"
b1111 '#
b1111 +#
b1111 P#
b1111 x#
b1111 }#
b1010 f"
b1010 p"
b1010 *#
1g
#92
0g
#93
0:"
08"
1m
b11 i"
b11 k"
b11 q"
b11 '#
b11 +#
b11 P#
b11 x#
b11 }#
1g
#94
0g
#95
b100 i"
b100 k"
b100 q"
b100 '#
b100 +#
b100 P#
b100 x#
b100 }#
b1010 i
b1010 O#
b1010 W#
1g
#96
0g
#97
b110 i"
b110 k"
b110 q"
b110 '#
b110 +#
b110 P#
b110 x#
b110 }#
1g
#98
0g
#99
b111 i"
b111 k"
b111 q"
b111 '#
b111 +#
b111 P#
b111 x#
b111 }#
b1010 2"
b1010 m"
b1010 R#
1g
#100
0g
#101
b1111111 d
b1111111 a"
b1111111 $#
b1010 ~"
b1010 %
b1010 r
b1010 s#
b1000 i"
b1000 k"
b1000 q"
b1000 '#
b1000 +#
b1000 P#
b1000 x#
b1000 }#
1g
#102
0g
#103
b10010 f
b10010 c"
b10010 "#
b101 |"
b0 i"
b0 k"
b0 q"
b0 '#
b0 +#
b0 P#
b0 x#
b0 }#
b101 5"
b101 (#
b101 !$
1g
#104
0g
#105
b10101000101010000110011 ["
b10101000101010000110011 r"
b10101000101010000110011 )#
b1 i"
b1 k"
b1 q"
b1 '#
b1 +#
b1 P#
b1 x#
b1 }#
1g
#106
0g
#107
b10 i"
b10 k"
b10 q"
b10 '#
b10 +#
b10 P#
b10 x#
b10 }#
b11 j
b11 z"
b11 {#
b101 ^"
b101 s"
b101 y#
b1000 3"
b1000 w"
b1000 Q#
b0 2"
b0 m"
b0 R#
b1000 l
b1000 x"
b1000 U#
b1010 1"
b1010 l"
b1010 -#
b1010 S#
b101 k
b101 y"
b101 V#
1g
#108
0g
#109
0e"
b101 h"
b101 o"
b101 |#
x:"
x8"
xm
b101 i"
b101 k"
b101 q"
b101 '#
b101 +#
b101 P#
b101 x#
b101 }#
1g
#110
0g
#111
b1111 i"
b1111 k"
b1111 q"
b1111 '#
b1111 +#
b1111 P#
b1111 x#
b1111 }#
b0 f"
b0 p"
b0 *#
1g
#112
0g
#113
0:"
08"
1m
b11 i"
b11 k"
b11 q"
b11 '#
b11 +#
b11 P#
b11 x#
b11 }#
1g
#114
0g
#115
b100 i"
b100 k"
b100 q"
b100 '#
b100 +#
b100 P#
b100 x#
b100 }#
b0 i
b0 O#
b0 W#
1g
#116
0g
#117
b110 i"
b110 k"
b110 q"
b110 '#
b110 +#
b110 P#
b110 x#
b110 }#
1g
#118
0g
#119
b111 i"
b111 k"
b111 q"
b111 '#
b111 +#
b111 P#
b111 x#
b111 }#
1g
#120
0g
#121
b1000 i"
b1000 k"
b1000 q"
b1000 '#
b1000 +#
b1000 P#
b1000 x#
b1000 }#
1g
#122
0g
#123
b10 f
b10 c"
b10 "#
b110 |"
b0 i"
b0 k"
b0 q"
b0 '#
b0 +#
b0 P#
b0 x#
b0 }#
b110 5"
b110 (#
b110 !$
1g
#124
0g
#125
b10001100011 ["
b10001100011 r"
b10001100011 )#
b1 i"
b1 k"
b1 q"
b1 '#
b1 +#
b1 P#
b1 x#
b1 }#
1g
#126
0g
#127
b10 i"
b10 k"
b10 q"
b10 '#
b10 +#
b10 P#
b10 x#
b10 }#
b110 j
b110 z"
b110 {#
b0 ^"
b0 s"
b0 y#
b0 1"
b0 l"
b0 -#
b0 S#
b0 k
b0 y"
b0 V#
b0 l
b0 x"
b0 U#
b1000 \"
b1000 n"
b1000 u"
b1000 ,#
b1000 ~#
1g
#128
0g
#129
1e"
1d"
b110 h"
b110 o"
b110 |#
x:"
x8"
xm
b101 i"
b101 k"
b101 q"
b101 '#
b101 +#
b101 P#
b101 x#
b101 }#
1g
#130
0g
